<?xml version="1.0" standalone="no"?>
<!DOCTYPE svg PUBLIC "-//W3C//DTD SVG 1.1//EN" "http://www.w3.org/Graphics/SVG/1.1/DTD/svg11.dtd" >
<svg>
<metadata>
Created by FontForge 20090914 at Mon Dec  3 22:31:42 2012
 By www-data
Digitized data copyright &#194;&#169; 2010, Google Corporation.
</metadata>
<defs>
<font id="DroidSansArabic" horiz-adv-x="0" >
  <font-face 
    font-family="Droid Sans Arabic"
    font-weight="400"
    font-stretch="normal"
    units-per-em="2048"
    panose-1="2 11 6 0 3 5 0 5 0 0"
    ascent="1638"
    descent="-410"
    bbox="-367 -793 2486 2111"
    underline-thickness="102"
    underline-position="-103"
    unicode-range="U+0020-U+FEFF"
  />
<missing-glyph horiz-adv-x="1229" 
d="M193 1462h841v-1462h-841v1462zM297 104h633v1254h-633v-1254z" />
    <glyph glyph-name="uniFDF2" unicode="&#x627;&#xfedf;&#xfee0;&#xfeea;" horiz-adv-x="2314" arabic-form="isolated" 
d="M1206 2007h97v-287h-97v287zM1581 1671v-106q0 -199 -176 -199q-91 0 -143 61q-53 -102 -166 -102q-168 0 -168 199v65h106v-47q0 -56 16.5 -84t65.5 -28q90 0 90 94v118h97v-77q0 -95 77 -95q55 0 75 26.5t20 86.5v88h106zM2214 0h-182v1536h182v-1536zM516 0
q-216 0 -341.5 123.5t-125.5 343.5q0 236 144 360.5t407 124.5h291v-792h260v1106h180v-1106h260v1106h183v-1266h-1258zM606 795q-375 0 -375 -326q0 -309 281 -309h205v635h-111z" />
    <glyph glyph-name="uniFEF5" unicode="&#xfedf;&#xfe82;" horiz-adv-x="1370" arabic-form="isolated" 
d="M92 160h459l-264 1120h190l264 -1120h56q217 0 217 237v1159h182v-1183q0 -168 -103 -270.5t-276 -102.5h-725v160zM158 1390h-93q25 211 189 211q54 0 146 -45q91 -45 122 -45q72 0 96 92h93q-25 -211 -189 -211q-50 0 -141 45q-92 45 -127 45q-72 0 -96 -92z" />
    <glyph glyph-name="uniFEF6" unicode="&#xfee0;&#xfe82;" horiz-adv-x="1411" arabic-form="final" 
d="M1196 356q0 -90 56 -143t147 -53h33v-160h-7q-172 0 -229 117v-117h-1104v160h459l-264 1120h190l264 -1120h273v1396h182v-1200zM158 1390h-93q25 211 189 211q54 0 146 -45q91 -45 122 -45q72 0 96 92h93q-25 -211 -189 -211q-50 0 -141 45q-92 45 -127 45
q-72 0 -96 -92z" />
    <glyph glyph-name="uniFEF7" unicode="&#xfedf;&#xfe84;" horiz-adv-x="1370" arabic-form="isolated" 
d="M92 160h459l-264 1120h190l264 -1120h56q217 0 217 237v1159h182v-1183q0 -168 -103 -270.5t-276 -102.5h-725v160zM555 1429q-34 0 -184.5 -19t-211.5 -31v95l97 14q-72 48 -72 129q0 87 56.5 135.5t152.5 48.5q74 0 135 -30l-31 -93q-48 25 -102 25q-107 0 -107 -105
q0 -63 62 -96l37 6q94 14 168 21v-100z" />
    <glyph glyph-name="uniFEF8" unicode="&#xfee0;&#xfe84;" horiz-adv-x="1411" arabic-form="final" 
d="M1196 356q0 -90 56 -143t147 -53h33v-160h-7q-172 0 -229 117v-117h-1104v160h459l-264 1120h190l264 -1120h273v1396h182v-1200zM551 1429q-34 0 -184.5 -19t-211.5 -31v95l97 14q-72 48 -72 129q0 87 56.5 135.5t152.5 48.5q74 0 135 -30l-31 -93q-48 25 -102 25
q-107 0 -107 -105q0 -63 62 -96l37 6q94 14 168 21v-100z" />
    <glyph glyph-name="uniFEF9" unicode="&#xfedf;&#xfe88;" horiz-adv-x="1370" arabic-form="isolated" 
d="M92 160h459l-264 1120h190l264 -1120h56q217 0 217 237v1159h182v-1183q0 -168 -103 -270.5t-276 -102.5h-725v160zM918 -467q-126 0 -396 -49v94l97 14q-72 50 -72 129q0 88 58 136.5t151 48.5q72 0 135 -31l-31 -92q-51 24 -102 24q-107 0 -107 -104q0 -65 62 -96
q179 25 205 26v-100z" />
    <glyph glyph-name="uniFEFA" unicode="&#xfee0;&#xfe88;" horiz-adv-x="1411" arabic-form="final" 
d="M1196 356q0 -90 56 -143t147 -53h33v-160h-7q-172 0 -229 117v-117h-1104v160h459l-264 1120h190l264 -1120h273v1396h182v-1200zM918 -467q-126 0 -396 -49v94l97 14q-72 50 -72 129q0 88 58 136.5t151 48.5q72 0 135 -31l-31 -92q-51 24 -102 24q-107 0 -107 -104
q0 -65 62 -96q179 25 205 26v-100z" />
    <glyph glyph-name="uniFEFB" unicode="&#xfedf;&#xfe8e;" horiz-adv-x="1370" arabic-form="isolated" 
d="M92 160h459l-264 1120h190l264 -1120h56q217 0 217 237v1159h182v-1183q0 -168 -103 -270.5t-276 -102.5h-725v160z" />
    <glyph glyph-name="uniFEFC" unicode="&#xfee0;&#xfe8e;" horiz-adv-x="1411" arabic-form="final" 
d="M1196 356q0 -90 56 -143t147 -53h33v-160h-7q-172 0 -229 117v-117h-1104v160h459l-264 1120h190l264 -1120h273v1396h182v-1200z" />
    <glyph glyph-name="uni0621" unicode="&#x621;" horiz-adv-x="944" arabic-form="isolated" 
d="M862 80q-202 0 -788 -98v149q139 28 182 33q-131 94 -131 280q0 188 119.5 291t304.5 103q142 0 248 -60l-45 -153q-108 53 -199 53q-244 0 -244 -246q0 -160 129 -231q284 38 424 45v-166z" />
    <glyph glyph-name="uni0622" unicode="&#x622;" horiz-adv-x="530" arabic-form="isolated" 
d="M356 0h-182v1556h182v-1556zM29 1663h-93q25 211 189 211q54 0 146 -45q91 -45 122 -45q72 0 96 92h93q-25 -211 -189 -211q-50 0 -141 45q-92 45 -127 45q-72 0 -96 -92z" />
    <glyph glyph-name="uni0623" unicode="&#x623;" horiz-adv-x="530" arabic-form="isolated" 
d="M356 0h-182v1556h182v-1556zM455 1686q-34 0 -184.5 -19t-211.5 -31v95l97 14q-72 48 -72 129q0 87 56.5 135.5t152.5 48.5q74 0 135 -30l-31 -93q-48 25 -102 25q-107 0 -107 -105q0 -63 62 -96l37 6q94 14 168 21v-100z" />
    <glyph glyph-name="uni0624" unicode="&#x624;" horiz-adv-x="1128" arabic-form="isolated" 
d="M954 -49q0 -209 -124 -326t-349 -117q-205 0 -368 105l82 137q159 -82 290 -82q137 0 217 73.5t80 199.5v59h-200q-218 0 -337.5 120.5t-119.5 346.5q0 244 154 385t407 141h268v-1042zM692 834q-184 0 -284.5 -97t-100.5 -268q0 -309 281 -309h192v674h-88zM805 1189
q-34 0 -184.5 -19t-211.5 -31v95l97 14q-72 48 -72 129q0 87 56.5 135.5t152.5 48.5q74 0 135 -30l-31 -93q-48 25 -102 25q-107 0 -107 -105q0 -63 62 -96l37 6q94 14 168 21v-100z" />
    <glyph glyph-name="uni0625" unicode="&#x625;" horiz-adv-x="530" arabic-form="isolated" 
d="M356 0h-182v1556h182v-1556zM472 -467q-126 0 -396 -49v94l97 14q-72 50 -72 129q0 88 58 136.5t151 48.5q72 0 135 -31l-31 -92q-51 24 -102 24q-107 0 -107 -104q0 -65 62 -96q179 25 205 26v-100z" />
    <glyph glyph-name="uni0626" unicode="&#x626;" horiz-adv-x="1530" arabic-form="isolated" 
d="M516 -338q-175 0 -279 107t-104 290q0 162 51 308h164q-31 -149 -31 -293q0 -110 53 -181t140 -71h332q358 0 358 229q0 86 -37.5 140t-161.5 122q-245 139 -245 355q0 158 107.5 252t291.5 94q158 0 272 -60l-57 -149q-97 49 -215 49q-99 0 -155 -48t-56 -134
q0 -72 39 -127t182 -129q224 -120 224 -334q0 -191 -148.5 -305.5t-398.5 -114.5h-326zM596 645q-34 0 -184.5 -19t-211.5 -31v95l97 14q-72 48 -72 129q0 87 56.5 135.5t152.5 48.5q74 0 135 -30l-31 -93q-48 25 -102 25q-107 0 -107 -105q0 -63 62 -96l37 6q94 14 168 21
v-100z" />
    <glyph glyph-name="uni0627" unicode="&#x627;" horiz-adv-x="530" arabic-form="isolated" 
d="M356 0h-182v1556h182v-1556z" />
    <glyph glyph-name="uni0628" unicode="&#x628;" horiz-adv-x="1593" arabic-form="isolated" 
d="M1245 160v833h174v-993h-903q-175 0 -279 107t-104 290q0 161 51 308h164q-31 -151 -31 -293q0 -110 52.5 -181t140.5 -71h735zM797 -151q106 0 106 -115q0 -114 -106 -114t-106 114q0 115 106 115z" />
    <glyph glyph-name="uni0629" unicode="&#x629;" horiz-adv-x="1182" arabic-form="isolated" 
d="M588 -20q-225 0 -350 122t-125 353q0 229 135.5 394t345.5 165q197 0 336 -168t139 -391q0 -475 -481 -475zM592 137q293 0 293 316q0 188 -81 295.5t-214 107.5q-124 0 -208.5 -111.5t-84.5 -291.5q0 -316 295 -316zM432 1411q107 0 107 -115q0 -114 -107 -114
q-106 0 -106 114q0 115 106 115zM746 1411q106 0 106 -115q0 -114 -106 -114q-107 0 -107 114q0 115 107 115z" />
    <glyph glyph-name="uni062A" unicode="&#x62a;" horiz-adv-x="1593" arabic-form="isolated" 
d="M1245 160v833h174v-993h-903q-175 0 -279 107t-104 290q0 161 51 308h164q-31 -151 -31 -293q0 -110 52.5 -181t140.5 -71h735zM657 1411q107 0 107 -115q0 -114 -107 -114q-106 0 -106 114q0 115 106 115zM971 1411q106 0 106 -115q0 -114 -106 -114q-107 0 -107 114
q0 115 107 115z" />
    <glyph glyph-name="uni062B" unicode="&#x62b;" horiz-adv-x="1593" arabic-form="isolated" 
d="M1245 160v833h174v-993h-903q-175 0 -279 107t-104 290q0 161 51 308h164q-31 -151 -31 -293q0 -110 52.5 -181t140.5 -71h735zM817 1583q96 0 96 -102q0 -103 -96 -103t-96 103q0 102 96 102zM657 1386q97 0 97 -102t-97 -102q-96 0 -96 102t96 102zM975 1386
q96 0 96 -102t-96 -102q-97 0 -97 102t97 102z" />
    <glyph glyph-name="uni062C" unicode="&#x62c;" horiz-adv-x="1178" arabic-form="isolated" 
d="M508 0q-227 0 -227 -203q0 -97 54 -155t144 -58q108 0 226 37l45 -137q-122 -59 -281 -59q-180 0 -278.5 101.5t-98.5 278.5q0 355 414 355h393q-80 86 -129 375q-31 181 -87.5 250t-170.5 69q-138 0 -297 -82l-72 141q158 101 371 101q177 0 278.5 -94.5t139.5 -337.5
q52 -334 153 -426v-156h-577zM946 -151q106 0 106 -115q0 -114 -106 -114t-106 114q0 115 106 115z" />
    <glyph glyph-name="uni062D" unicode="&#x62d;" horiz-adv-x="1178" arabic-form="isolated" 
d="M508 0q-227 0 -227 -203q0 -97 54 -155t144 -58q108 0 226 37l45 -137q-122 -59 -281 -59q-180 0 -278.5 101.5t-98.5 278.5q0 355 414 355h393q-80 86 -129 375q-31 181 -87.5 250t-170.5 69q-138 0 -297 -82l-72 141q158 101 371 101q177 0 278.5 -94.5t139.5 -337.5
q52 -334 153 -426v-156h-577z" />
    <glyph glyph-name="uni062E" unicode="&#x62e;" horiz-adv-x="1178" arabic-form="isolated" 
d="M508 0q-227 0 -227 -203q0 -97 54 -155t144 -58q108 0 226 37l45 -137q-122 -59 -281 -59q-180 0 -278.5 101.5t-98.5 278.5q0 355 414 355h393q-80 86 -129 375q-31 181 -87.5 250t-170.5 69q-138 0 -297 -82l-72 141q158 101 371 101q177 0 278.5 -94.5t139.5 -337.5
q52 -334 153 -426v-156h-577zM514 1411q106 0 106 -115q0 -114 -106 -114t-106 114q0 115 106 115z" />
    <glyph glyph-name="uni062F" unicode="&#x62f;" horiz-adv-x="1001" arabic-form="isolated" 
d="M51 160h682q-104 588 -434 741l66 156q419 -164 544 -901v-156h-858v160z" />
    <glyph glyph-name="uni0630" unicode="&#x630;" horiz-adv-x="1001" arabic-form="isolated" 
d="M51 160h682q-104 588 -434 741l66 156q419 -164 544 -901v-156h-858v160zM438 1411q106 0 106 -115q0 -114 -106 -114t-106 114q0 115 106 115z" />
    <glyph glyph-name="uni0631" unicode="&#x631;" horiz-adv-x="682" arabic-form="isolated" 
d="M508 993v-1042q0 -207 -95 -325t-270 -118q-158 0 -278 99l82 125q86 -64 192 -64q90 0 143.5 75t53.5 198v1052h172z" />
    <glyph glyph-name="uni0632" unicode="&#x632;" horiz-adv-x="682" arabic-form="isolated" 
d="M508 993v-1042q0 -207 -95 -325t-270 -118q-158 0 -278 99l82 125q86 -64 192 -64q90 0 143.5 75t53.5 198v1052h172zM418 1411q106 0 106 -115q0 -114 -106 -114t-106 114q0 115 106 115z" />
    <glyph glyph-name="uni0633" unicode="&#x633;" horiz-adv-x="2425" arabic-form="isolated" 
d="M1202 834v-447q0 -100 62.5 -163.5t160.5 -63.5h127v674h174v-447q0 -100 62.5 -163.5t161.5 -63.5h127v833h174v-993h-295q-171 0 -230 117v-117h-294q-171 0 -230 117v-109q0 -500 -510 -500h-147q-187 0 -299.5 139.5t-112.5 385.5q0 274 84 483h170
q-70 -187 -70 -483q0 -174 70 -269.5t197 -95.5h100q344 0 344 326v840h174z" />
    <glyph glyph-name="uni0634" unicode="&#x634;" horiz-adv-x="2425" arabic-form="isolated" 
d="M1202 834v-447q0 -100 62.5 -163.5t160.5 -63.5h127v674h174v-447q0 -100 62.5 -163.5t161.5 -63.5h127v833h174v-993h-295q-171 0 -230 117v-117h-294q-171 0 -230 117v-109q0 -500 -510 -500h-147q-187 0 -299.5 139.5t-112.5 385.5q0 274 84 483h170
q-70 -187 -70 -483q0 -174 70 -269.5t197 -95.5h100q344 0 344 326v840h174zM1620 1583q96 0 96 -102q0 -103 -96 -103t-96 103q0 102 96 102zM1460 1386q97 0 97 -102t-97 -102q-96 0 -96 102t96 102zM1778 1386q96 0 96 -102t-96 -102q-97 0 -97 102t97 102z" />
    <glyph glyph-name="uni0635" unicode="&#x635;" horiz-adv-x="2413" arabic-form="isolated" 
d="M545 -492q-187 0 -299.5 139.5t-112.5 385.5q0 274 84 483h170q-70 -187 -70 -483q0 -174 70 -269.5t197 -95.5h100q344 0 344 326v999h174v-440q197 461 567 461q469 0 469 -520v-494h-827q-125 0 -209 158v-150q0 -500 -510 -500h-147zM1206 336q29 -176 199 -176h659
v325q0 367 -331 367q-315 0 -527 -516z" />
    <glyph glyph-name="uni0636" unicode="&#x636;" horiz-adv-x="2413" arabic-form="isolated" 
d="M545 -492q-187 0 -299.5 139.5t-112.5 385.5q0 274 84 483h170q-70 -187 -70 -483q0 -174 70 -269.5t197 -95.5h100q344 0 344 326v999h174v-440q197 461 567 461q469 0 469 -520v-494h-827q-125 0 -209 158v-150q0 -500 -510 -500h-147zM1206 336q29 -176 199 -176h659
v325q0 367 -331 367q-315 0 -527 -516zM1610 1411q106 0 106 -115q0 -114 -106 -114t-106 114q0 115 106 115z" />
    <glyph glyph-name="uni0637" unicode="&#x637;" horiz-adv-x="1624" arabic-form="isolated" 
d="M414 0h-373v160h199v1396h174v-1003q197 461 567 461q469 0 469 -520v-494h-827q-127 0 -209 158v-158zM418 336q27 -176 198 -176h660v325q0 367 -332 367q-314 0 -526 -516z" />
    <glyph glyph-name="uni0638" unicode="&#x638;" horiz-adv-x="1624" arabic-form="isolated" 
d="M414 0h-373v160h199v1396h174v-1003q197 461 567 461q469 0 469 -520v-494h-827q-127 0 -209 158v-158zM418 336q27 -176 198 -176h660v325q0 367 -332 367q-314 0 -526 -516zM860 1411q106 0 106 -115q0 -114 -106 -114t-106 114q0 115 106 115z" />
    <glyph glyph-name="uni0639" unicode="&#x639;" horiz-adv-x="1106" arabic-form="isolated" 
d="M354 137q-174 133 -174 389q0 237 135.5 362.5t352.5 125.5q163 0 284 -60l-55 -153q-126 53 -240 53q-290 0 -290 -338q0 -156 70.5 -256t183.5 -100h364v-160h-487q-230 0 -230 -203q0 -96 57.5 -154.5t155.5 -58.5q127 0 254 47l45 -137q-151 -69 -301 -69
q-182 0 -289.5 102.5t-107.5 267.5q0 267 272 342z" />
    <glyph glyph-name="uni063A" unicode="&#x63a;" horiz-adv-x="1106" arabic-form="isolated" 
d="M354 137q-174 133 -174 389q0 237 135.5 362.5t352.5 125.5q163 0 284 -60l-55 -153q-126 53 -240 53q-290 0 -290 -338q0 -156 70.5 -256t183.5 -100h364v-160h-487q-230 0 -230 -203q0 -96 57.5 -154.5t155.5 -58.5q127 0 254 47l45 -137q-151 -69 -301 -69
q-182 0 -289.5 102.5t-107.5 267.5q0 267 272 342zM621 1411q106 0 106 -115q0 -114 -106 -114t-106 114q0 115 106 115z" />
    <glyph glyph-name="uni0641" unicode="&#x641;" horiz-adv-x="2073" arabic-form="isolated" 
d="M516 0q-175 0 -279 107t-104 290q0 161 51 308h164q-31 -151 -31 -293q0 -110 52.5 -181t140.5 -71h666q-107 117 -107 309q0 239 151 381.5t410 142.5h268v-993h-1382zM1636 834q-182 0 -283.5 -96t-101.5 -267q0 -311 281 -311h192v674h-88zM1565 1411q106 0 106 -115
q0 -114 -106 -114t-106 114q0 115 106 115z" />
    <glyph glyph-name="uni0642" unicode="&#x642;" horiz-adv-x="1753" arabic-form="isolated" 
d="M1405 0h-188q-225 0 -346 119.5t-121 347.5q0 244 154 385t407 141h268v-1005q0 -480 -518 -480h-483q-221 0 -353.5 132.5t-132.5 361.5q0 265 84 483h170q-70 -195 -70 -471q0 -165 88 -255.5t250 -90.5h414q201 0 289 76.5t88 241.5v14zM1317 834q-184 0 -284.5 -97
t-100.5 -268q0 -309 280 -309h193v674h-88zM1036 1411q107 0 107 -115q0 -114 -107 -114q-106 0 -106 114q0 115 106 115zM1350 1411q106 0 106 -115q0 -114 -106 -114q-107 0 -107 114q0 115 107 115z" />
    <glyph glyph-name="uni0643" unicode="&#x643;" horiz-adv-x="1593" arabic-form="isolated" 
d="M1245 160v1396h174v-1556h-903q-184 0 -283.5 95.5t-99.5 271.5q0 134 51 276h154q-31 -146 -31 -262q0 -102 55 -161.5t148 -59.5h735zM981 686q-126 0 -395 -49v94l96 14q-72 50 -72 129q0 88 58 136.5t151 48.5q72 0 135 -31l-30 -92q-56 25 -103 25q-106 0 -106 -105
q0 -66 61 -96l37 5q117 17 168 21v-100z" />
    <glyph glyph-name="uni0644" unicode="&#x644;" horiz-adv-x="1376" arabic-form="isolated" 
d="M684 -332q344 0 344 326v1562h174v-1548q0 -500 -510 -500h-147q-187 0 -299.5 139.5t-112.5 385.5q0 274 84 483h170q-70 -187 -70 -483q0 -174 70 -269.5t197 -95.5h100z" />
    <glyph glyph-name="uni0645" unicode="&#x645;" horiz-adv-x="1360" arabic-form="isolated" 
d="M367 160q-68 113 -68 305q0 241 132.5 395t348.5 154q208 0 337.5 -131t129.5 -363q0 -243 -155.5 -381.5t-393.5 -138.5h-278q-146 0 -146 -150v-108q0 -240 -88 -336h-186q102 90 102 371v104q0 133 72 206t178 73h15zM553 160h145q163 0 264 101.5t101 260.5
q0 153 -78 243.5t-205 90.5q-129 0 -214 -106t-85 -285q0 -206 72 -305z" />
    <glyph glyph-name="uni0646" unicode="&#x646;" horiz-adv-x="1376" arabic-form="isolated" 
d="M545 -492q-187 0 -299.5 132t-112.5 362q0 247 84 453h170q-70 -183 -70 -441q0 -165 69 -255.5t198 -90.5h100q344 0 344 326v999h174v-985q0 -500 -510 -500h-147zM664 1183q106 0 106 -115q0 -114 -106 -114t-106 114q0 115 106 115z" />
    <glyph glyph-name="uni0648" unicode="&#x648;" horiz-adv-x="1128" arabic-form="isolated" 
d="M954 -49q0 -209 -124 -326t-349 -117q-205 0 -368 105l82 137q159 -82 290 -82q137 0 217 73.5t80 199.5v59h-200q-218 0 -337.5 120.5t-119.5 346.5q0 244 154 385t407 141h268v-1042zM692 834q-184 0 -284.5 -97t-100.5 -268q0 -309 281 -309h192v674h-88z" />
    <glyph glyph-name="uni0649" unicode="&#x649;" horiz-adv-x="1530" arabic-form="isolated" 
d="M516 -338q-175 0 -279 107t-104 290q0 162 51 308h164q-31 -149 -31 -293q0 -110 53 -181t140 -71h332q358 0 358 229q0 86 -37.5 140t-161.5 122q-245 139 -245 355q0 158 107.5 252t291.5 94q158 0 272 -60l-57 -149q-97 49 -215 49q-99 0 -155 -48t-56 -134
q0 -72 39 -127t182 -129q224 -120 224 -334q0 -191 -148.5 -305.5t-398.5 -114.5h-326z" />
    <glyph glyph-name="uni064A" unicode="&#x64a;" horiz-adv-x="2116" arabic-form="isolated" 
d="M1118 416q0 577 535 577h248v-993h-183v834h-53q-365 0 -365 -424v-260q0 -204 -143.5 -316.5t-396.5 -112.5h-244q-175 0 -279 107t-104 291q0 161 51 307h164q-31 -149 -31 -293q0 -110 53 -181t140 -71h250q358 0 358 271v264zM623 -389q106 0 106 -115
q0 -114 -106 -114q-107 0 -107 114q0 115 107 115zM936 -389q106 0 106 -115q0 -114 -106 -114q-107 0 -107 114q0 115 107 115z" />
    <glyph glyph-name="uni0671" unicode="&#x671;" horiz-adv-x="530" arabic-form="isolated" 
d="M0 1753h94q72 209 230 209q82 0 129 -55t47 -154v-94h-500v94zM395 1753q0 113 -71 113q-79 0 -117 -113h188zM356 0h-182v1556h182v-1556z" />
    <glyph glyph-name="uni067E" unicode="&#x67e;" horiz-adv-x="1593" arabic-form="isolated" 
d="M1245 160v833h174v-993h-903q-175 0 -279 107t-104 290q0 161 51 308h164q-31 -151 -31 -293q0 -110 52.5 -181t140.5 -71h735zM676 -152q97 0 97 -102t-97 -102q-96 0 -96 102t96 102zM994 -152q96 0 96 -102t-96 -102q-97 0 -97 102t97 102zM836 -348q96 0 96 -103
q0 -102 -96 -102t-96 102q0 103 96 103z" />
    <glyph glyph-name="uni0686" unicode="&#x686;" horiz-adv-x="1317" arabic-form="isolated" 
d="M508 0q-227 0 -227 -203q0 -100 48.5 -156.5t127.5 -56.5q94 0 198 37l39 -137q-113 -59 -256 -59q-165 0 -255.5 102.5t-90.5 277.5q0 355 414 355h455q-90 86 -125 299q-55 334 -263 334q-135 0 -297 -82l-71 141q157 100 370 100q181 0 282 -99t136 -325
q44 -280 154 -372v-156h-639zM1079 -111q97 0 97 -102t-97 -102q-96 0 -96 102t96 102zM741 -111q97 0 97 -102t-97 -102q-96 0 -96 102t96 102zM911 -307q97 0 97 -103q0 -102 -97 -102q-96 0 -96 102q0 103 96 103z" />
    <glyph glyph-name="uni0698" unicode="&#x698;" horiz-adv-x="682" arabic-form="isolated" 
d="M508 993v-1042q0 -207 -95 -325t-270 -118q-158 0 -278 99l82 125q86 -64 192 -64q90 0 143.5 75t53.5 198v1052h172zM399 1583q96 0 96 -102q0 -103 -96 -103t-96 103q0 102 96 102zM239 1386q97 0 97 -102t-97 -102q-96 0 -96 102t96 102zM557 1386q96 0 96 -102
t-96 -102q-97 0 -97 102t97 102z" />
    <glyph glyph-name="uni06A4" unicode="&#x6a4;" horiz-adv-x="2073" arabic-form="isolated" 
d="M516 0q-175 0 -279 107t-104 290q0 161 51 308h164q-31 -151 -31 -293q0 -110 52.5 -181t140.5 -71h666q-107 117 -107 309q0 239 151 381.5t410 142.5h268v-993h-1382zM1636 834q-182 0 -283.5 -96t-101.5 -267q0 -311 281 -311h192v674h-88zM1505 1583q96 0 96 -102
q0 -103 -96 -103t-96 103q0 102 96 102zM1345 1386q97 0 97 -102t-97 -102q-96 0 -96 102t96 102zM1663 1386q96 0 96 -102t-96 -102q-97 0 -97 102t97 102z" />
    <glyph glyph-name="uni06A9" unicode="&#x6a9;" horiz-adv-x="1593" arabic-form="isolated" 
d="M1419 0h-903q-184 0 -283.5 95.5t-99.5 271.5q0 117 41 276h164q-31 -170 -31 -256q0 -106 54.5 -166.5t148.5 -60.5h735v377q0 297 -377 297h-266v167q97 207 296.5 391.5t424.5 274.5l66 -156q-200 -81 -371.5 -226t-245.5 -292h96q264 0 407.5 -109.5t143.5 -316.5
v-567z" />
    <glyph glyph-name="uni06AF" unicode="&#x6af;" horiz-adv-x="1593" arabic-form="isolated" 
d="M547 1284q64 148 259.5 327t401.5 269l60 -137q-192 -74 -390.5 -246.5t-275.5 -333.5zM868 993q264 0 407.5 -109.5t143.5 -316.5v-567h-903q-184 0 -283.5 95.5t-99.5 271.5q0 108 41 276h164q-31 -170 -31 -256q0 -106 54.5 -166.5t148.5 -60.5h735v377
q0 297 -377 297h-266v167q97 207 296.5 391.5t424.5 274.5l66 -156q-200 -81 -371.5 -226t-245.5 -292h96z" />
    <glyph glyph-name="uni06BA" unicode="&#x6ba;" horiz-adv-x="1376" arabic-form="isolated" 
d="M545 -492q-187 0 -299.5 132t-112.5 362q0 247 84 453h170q-70 -183 -70 -441q0 -165 69 -255.5t198 -90.5h100q344 0 344 326v999h174v-985q0 -500 -510 -500h-147z" />
    <glyph glyph-name="uni06CC" unicode="&#x6cc;" horiz-adv-x="1530" arabic-form="isolated" 
d="M516 -338q-175 0 -279 107t-104 290q0 162 51 308h164q-31 -149 -31 -293q0 -110 53 -181t140 -71h332q358 0 358 229q0 86 -37.5 140t-161.5 122q-245 139 -245 355q0 158 107.5 252t291.5 94q158 0 272 -60l-57 -149q-97 49 -215 49q-99 0 -155 -48t-56 -134
q0 -72 39 -127t182 -129q224 -120 224 -334q0 -191 -148.5 -305.5t-398.5 -114.5h-326z" />
    <glyph glyph-name="uniFB51" unicode="&#x671;" horiz-adv-x="616" arabic-form="final" 
d="M0 1753h94q72 209 230 209q82 0 129 -55t47 -154v-94h-500v94zM395 1753q0 113 -71 113q-79 0 -117 -113h188zM356 160h281v-160h-463v1556h182v-1396z" />
    <glyph glyph-name="uniFB52" unicode="&#x67b;" horiz-adv-x="1593" arabic-form="isolated" 
d="M1245 160v833h174v-993h-903q-175 0 -279 107t-104 290q0 161 51 308h164q-31 -151 -31 -293q0 -110 52.5 -181t140.5 -71h735zM815 -111q96 0 96 -103q0 -102 -96 -102t-96 102q0 103 96 103zM815 -369q96 0 96 -103q0 -102 -96 -102t-96 102q0 103 96 103z" />
    <glyph glyph-name="uniFB53" unicode="&#x67b;" horiz-adv-x="1634" arabic-form="final" 
d="M516 0q-175 0 -279 107t-104 290q0 161 51 308h164q-31 -151 -31 -293q0 -110 52.5 -181t140.5 -71h735v833h174v-637q0 -90 56 -143t147 -53h33v-160h-6q-171 0 -230 117v-117h-903zM815 -111q96 0 96 -103q0 -102 -96 -102t-96 102q0 103 96 103zM815 -369
q96 0 96 -103q0 -102 -96 -102t-96 102q0 103 96 103z" />
    <glyph glyph-name="uniFB54" unicode="&#x67b;" horiz-adv-x="616" arabic-form="initial" 
d="M-20 160h280v833h182v-993h-462v160zM303 -111q96 0 96 -103q0 -102 -96 -102t-96 102q0 103 96 103zM303 -369q96 0 96 -103q0 -102 -96 -102t-96 102q0 103 96 103z" />
    <glyph glyph-name="uniFB55" unicode="&#x67b;" horiz-adv-x="698" arabic-form="medial" 
d="M-20 160h280v833h182v-637q0 -90 55.5 -143t147.5 -53h74v-160h-47q-171 0 -230 117v-117h-462v160zM303 -111q96 0 96 -103q0 -102 -96 -102t-96 102q0 103 96 103zM303 -369q96 0 96 -103q0 -102 -96 -102t-96 102q0 103 96 103z" />
    <glyph glyph-name="uniFB57" unicode="&#x67e;" horiz-adv-x="1634" arabic-form="final" 
d="M516 0q-175 0 -279 107t-104 290q0 161 51 308h164q-31 -151 -31 -293q0 -110 52.5 -181t140.5 -71h735v833h174v-637q0 -90 56 -143t147 -53h33v-160h-6q-171 0 -230 117v-117h-903zM678 -152q97 0 97 -102t-97 -102q-96 0 -96 102t96 102zM996 -152q96 0 96 -102
t-96 -102q-97 0 -97 102t97 102zM838 -348q96 0 96 -103q0 -102 -96 -102t-96 102q0 103 96 103z" />
    <glyph glyph-name="uniFB58" unicode="&#x67e;" horiz-adv-x="616" arabic-form="initial" 
d="M-20 160h280v833h182v-993h-462v160zM176 -152q97 0 97 -102t-97 -102q-96 0 -96 102t96 102zM494 -152q96 0 96 -102t-96 -102q-97 0 -97 102t97 102zM336 -348q96 0 96 -103q0 -102 -96 -102t-96 102q0 103 96 103z" />
    <glyph glyph-name="uniFB59" unicode="&#x67e;" horiz-adv-x="698" arabic-form="medial" 
d="M-20 160h280v833h182v-637q0 -90 55.5 -143t147.5 -53h74v-160h-47q-171 0 -230 117v-117h-462v160zM176 -152q97 0 97 -102t-97 -102q-96 0 -96 102t96 102zM494 -152q96 0 96 -102t-96 -102q-97 0 -97 102t97 102zM336 -348q96 0 96 -103q0 -102 -96 -102t-96 102
q0 103 96 103z" />
    <glyph glyph-name="uniFB5E" unicode="&#x67a;" horiz-adv-x="1593" arabic-form="isolated" 
d="M1245 160v833h174v-993h-903q-175 0 -279 107t-104 290q0 161 51 308h164q-31 -151 -31 -293q0 -110 52.5 -181t140.5 -71h735zM799 1455q96 0 96 -103q0 -102 -96 -102t-96 102q0 103 96 103zM799 1197q96 0 96 -103q0 -102 -96 -102t-96 102q0 103 96 103z" />
    <glyph glyph-name="uniFB5F" unicode="&#x67a;" horiz-adv-x="1634" arabic-form="final" 
d="M516 0q-175 0 -279 107t-104 290q0 161 51 308h164q-31 -151 -31 -293q0 -110 52.5 -181t140.5 -71h735v833h174v-637q0 -90 56 -143t147 -53h33v-160h-6q-171 0 -230 117v-117h-903zM799 1455q96 0 96 -103q0 -102 -96 -102t-96 102q0 103 96 103zM799 1197
q96 0 96 -103q0 -102 -96 -102t-96 102q0 103 96 103z" />
    <glyph glyph-name="uniFB60" unicode="&#x67a;" horiz-adv-x="616" arabic-form="initial" 
d="M-20 160h280v833h182v-993h-462v160zM348 1645q96 0 96 -103q0 -102 -96 -102t-96 102q0 103 96 103zM348 1387q96 0 96 -103q0 -102 -96 -102t-96 102q0 103 96 103z" />
    <glyph glyph-name="uniFB61" unicode="&#x67a;" horiz-adv-x="698" arabic-form="medial" 
d="M-20 160h280v833h182v-637q0 -90 55.5 -143t147.5 -53h74v-160h-47q-171 0 -230 117v-117h-462v160zM348 1645q96 0 96 -103q0 -102 -96 -102t-96 102q0 103 96 103zM348 1387q96 0 96 -103q0 -102 -96 -102t-96 102q0 103 96 103z" />
    <glyph glyph-name="uniFB66" unicode="&#x679;" horiz-adv-x="1593" arabic-form="isolated" 
d="M1245 160v833h174v-993h-903q-175 0 -279 107t-104 290q0 161 51 308h164q-31 -151 -31 -293q0 -110 52.5 -181t140.5 -71h735zM697 993h-113v88h31v372h82v-260q54 134 159 134q152 0 152 -179v-155h-248q-35 0 -63 57v-57zM699 1103q17 -22 59 -22h168v51
q0 106 -80 106q-96 0 -147 -135z" />
    <glyph glyph-name="uniFB67" unicode="&#x679;" horiz-adv-x="1634" arabic-form="final" 
d="M516 0q-175 0 -279 107t-104 290q0 161 51 308h164q-31 -151 -31 -293q0 -110 52.5 -181t140.5 -71h735v833h174v-637q0 -90 56 -143t147 -53h33v-160h-6q-171 0 -230 117v-117h-903zM697 993h-113v88h31v372h82v-260q54 134 159 134q152 0 152 -179v-155h-248
q-35 0 -63 57v-57zM699 1103q17 -22 59 -22h168v51q0 106 -80 106q-96 0 -147 -135z" />
    <glyph glyph-name="uniFB68" unicode="&#x679;" horiz-adv-x="616" arabic-form="initial" 
d="M-20 160h280v833h182v-993h-462v160zM213 1182h-113v88h31v372h82v-260q54 134 159 134q152 0 152 -179v-155h-248q-35 0 -63 57v-57zM215 1292q17 -22 59 -22h168v51q0 106 -80 106q-96 0 -147 -135z" />
    <glyph glyph-name="uniFB69" unicode="&#x679;" horiz-adv-x="698" arabic-form="medial" 
d="M-20 160h280v833h182v-637q0 -90 55.5 -143t147.5 -53h74v-160h-47q-171 0 -230 117v-117h-462v160zM213 1182h-113v88h31v372h82v-260q54 134 159 134q152 0 152 -179v-155h-248q-35 0 -63 57v-57zM215 1292q17 -22 59 -22h168v51q0 106 -80 106q-96 0 -147 -135z" />
    <glyph glyph-name="uniFB6B" unicode="&#x6a4;" horiz-adv-x="2114" arabic-form="final" 
d="M516 0q-175 0 -279 107t-104 290q0 161 51 308h164q-31 -151 -31 -293q0 -110 52.5 -181t140.5 -71h666q-107 117 -107 309q0 239 151 381.5t410 142.5h268v-833h236v-160h-1618zM1636 834q-182 0 -283.5 -96t-101.5 -267q0 -311 281 -311h192v674h-88zM1505 1583
q96 0 96 -102q0 -103 -96 -103t-96 103q0 102 96 102zM1345 1386q97 0 97 -102t-97 -102q-96 0 -96 102t96 102zM1663 1386q96 0 96 -102t-96 -102q-97 0 -97 102t97 102z" />
    <glyph glyph-name="uniFB6C" unicode="&#x6a4;" horiz-adv-x="1217" arabic-form="initial" 
d="M-20 160h321q-106 127 -106 301q0 244 150 388t411 144h268v-993h-1044v160zM762 834q-182 0 -283.5 -96t-101.5 -269q0 -309 280 -309h193v674h-88zM633 1583q96 0 96 -102q0 -103 -96 -103t-96 103q0 102 96 102zM473 1386q97 0 97 -102t-97 -102q-96 0 -96 102t96 102
zM791 1386q96 0 96 -102t-96 -102q-97 0 -97 102t97 102z" />
    <glyph glyph-name="uniFB6D" unicode="&#x6a4;" horiz-adv-x="1231" arabic-form="medial" 
d="M-20 160h321q-106 127 -106 301q0 244 150 388t411 144h268v-833h227v-160h-1271v160zM762 834q-182 0 -283.5 -96t-101.5 -269q0 -309 280 -309h193v674h-88zM633 1583q96 0 96 -102q0 -103 -96 -103t-96 103q0 102 96 102zM473 1386q97 0 97 -102t-97 -102
q-96 0 -96 102t96 102zM791 1386q96 0 96 -102t-96 -102q-97 0 -97 102t97 102z" />
    <glyph glyph-name="uniFB7B" unicode="&#x686;" horiz-adv-x="1288" arabic-form="final" 
d="M508 0q-227 0 -227 -203q0 -97 54 -155t144 -58q108 0 226 37l45 -137q-122 -59 -281 -59q-180 0 -278.5 101.5t-98.5 278.5q0 355 414 355h393q-80 86 -129 375q-31 181 -87.5 250t-170.5 69q-138 0 -297 -82l-72 141q158 101 371 101q177 0 278.5 -94.5t139.5 -337.5
q48 -323 147 -422h230v-160h-801zM844 -111q96 0 96 -102t-96 -102t-96 102t96 102zM1161 -111q96 0 96 -102t-96 -102t-96 102t96 102zM1004 -307q96 0 96 -103q0 -102 -96 -102q-97 0 -97 102q0 103 97 103z" />
    <glyph glyph-name="uniFB7C" unicode="&#x686;" horiz-adv-x="1147" arabic-form="initial" 
d="M868 160q-80 86 -129 375q-31 181 -87.5 250t-170.5 69q-138 0 -297 -82l-71 141q157 101 370 101q177 0 278.5 -94.5t139.5 -337.5q52 -334 154 -426v-156h-1075v160h888zM364 -152q97 0 97 -102t-97 -102q-96 0 -96 102t96 102zM682 -152q96 0 96 -102t-96 -102
q-97 0 -97 102t97 102zM524 -348q96 0 96 -103q0 -102 -96 -102t-96 102q0 103 96 103z" />
    <glyph glyph-name="uniFB7D" unicode="&#x686;" horiz-adv-x="1176" arabic-form="medial" 
d="M868 160q-80 86 -129 375q-31 181 -87.5 250t-170.5 69q-138 0 -297 -82l-71 141q157 101 370 101q177 0 278.5 -94.5t139.5 -337.5q47 -321 148 -422h147v-160h-1216v160h888zM432 -152q97 0 97 -102t-97 -102q-96 0 -96 102t96 102zM750 -152q96 0 96 -102t-96 -102
q-97 0 -97 102t97 102zM592 -348q96 0 96 -103q0 -102 -96 -102t-96 102q0 103 96 103z" />
    <glyph glyph-name="uniFB88" unicode="&#x688;" horiz-adv-x="1001" arabic-form="isolated" 
d="M51 160h682q-104 588 -434 741l66 156q419 -164 544 -901v-156h-858v160zM281 1182h-113v88h31v372h82v-260q54 134 159 134q152 0 152 -179v-155h-248q-35 0 -63 57v-57zM283 1292q17 -22 59 -22h168v51q0 106 -80 106q-96 0 -147 -135z" />
    <glyph glyph-name="uniFB89" unicode="&#x688;" horiz-adv-x="1124" arabic-form="final" 
d="M51 160h682q-104 588 -434 741l66 156q357 -141 501 -697q19 -75 90.5 -137.5t155.5 -62.5h33v-160h-27q-131 0 -209 115v-115h-858v160zM240 1182h-113v88h31v372h82v-260q54 134 159 134q152 0 152 -179v-155h-248q-35 0 -63 57v-57zM242 1292q17 -22 59 -22h168v51
q0 106 -80 106q-96 0 -147 -135z" />
    <glyph glyph-name="uniFB8B" unicode="&#x698;" horiz-adv-x="723" arabic-form="final" 
d="M508 -49q0 -207 -95 -325t-270 -118q-158 0 -278 99l82 125q86 -64 192 -64q90 0 143.5 75t53.5 198v1052h172v-637q0 -90 56 -143t147 -53h32v-160h-6q-172 0 -229 117v-166zM399 1583q96 0 96 -102q0 -103 -96 -103t-96 103q0 102 96 102zM239 1386q97 0 97 -102
t-97 -102q-96 0 -96 102t96 102zM557 1386q96 0 96 -102t-96 -102q-97 0 -97 102t97 102z" />
    <glyph glyph-name="uniFB8C" unicode="&#x691;" horiz-adv-x="682" arabic-form="isolated" 
d="M508 993v-1042q0 -207 -95 -325t-270 -118q-158 0 -278 99l82 125q86 -64 192 -64q90 0 143.5 75t53.5 198v1052h172zM285 1182h-113v88h31v372h82v-260q54 134 159 134q152 0 152 -179v-155h-248q-35 0 -63 57v-57zM287 1292q17 -22 59 -22h168v51q0 106 -80 106
q-96 0 -147 -135z" />
    <glyph glyph-name="uniFB8D" unicode="&#x691;" horiz-adv-x="723" arabic-form="final" 
d="M508 -49q0 -207 -95 -325t-270 -118q-158 0 -278 99l82 125q86 -64 192 -64q90 0 143.5 75t53.5 198v1052h172v-637q0 -90 56 -143t147 -53h32v-160h-6q-172 0 -229 117v-166zM300 1182h-113v88h31v372h82v-260q54 134 159 134q152 0 152 -179v-155h-248q-35 0 -63 57
v-57zM302 1292q17 -22 59 -22h168v51q0 106 -80 106q-96 0 -147 -135z" />
    <glyph glyph-name="uniFB8F" unicode="&#x6a9;" horiz-adv-x="1634" arabic-form="final" 
d="M516 0q-184 0 -283.5 95.5t-99.5 271.5q0 117 41 276h164q-31 -170 -31 -256q0 -106 54.5 -166.5t148.5 -60.5h735v377q0 297 -377 297h-266v167q97 207 296.5 391.5t424.5 274.5l66 -156q-200 -81 -371.5 -226t-245.5 -292h96q264 0 407.5 -109.5t143.5 -316.5v-211
q0 -90 56 -143t147 -53h33v-160h-6q-171 0 -230 117v-117h-903z" />
    <glyph glyph-name="uniFB90" unicode="&#x6a9;" horiz-adv-x="1118" arabic-form="initial" 
d="M-20 0v160h790v377q0 297 -377 297h-266v167q97 207 296.5 391.5t424.5 274.5l65 -156q-197 -80 -369.5 -225t-246.5 -293h96q262 0 406.5 -109t144.5 -317v-567h-964z" />
    <glyph glyph-name="uniFB91" unicode="&#x6a9;" horiz-adv-x="1159" arabic-form="medial" 
d="M944 356q0 -90 56 -143t147 -53h33v-160h-6q-173 0 -230 117v-117h-964v160h790v377q0 297 -377 297h-266v167q97 207 296.5 391.5t424.5 274.5l65 -156q-197 -80 -369.5 -225t-246.5 -293h96q262 0 406.5 -109t144.5 -317v-211z" />
    <glyph glyph-name="uniFB93" unicode="&#x6af;" horiz-adv-x="1634" arabic-form="final" 
d="M547 1284q64 148 259.5 327t401.5 269l60 -137q-192 -74 -390.5 -246.5t-275.5 -333.5zM868 993q264 0 407.5 -109.5t143.5 -316.5v-221q0 -83 55.5 -134.5t147.5 -51.5h33v-160h-6q-171 0 -230 117v-117h-903q-184 0 -283.5 95.5t-99.5 271.5q0 108 41 276h164
q-31 -170 -31 -256q0 -106 54.5 -166.5t148.5 -60.5h735v377q0 297 -377 297h-266v167q97 207 296.5 391.5t424.5 274.5l66 -156q-200 -81 -371.5 -226t-245.5 -292h96z" />
    <glyph glyph-name="uniFB94" unicode="&#x6af;" horiz-adv-x="1077" arabic-form="initial" 
d="M31 1284q64 148 259.5 327t401.5 269l60 -137q-191 -74 -389 -244.5t-277 -335.5zM-20 0v160h749v377q0 297 -377 297h-266v167q97 207 296.5 391.5t424.5 274.5l65 -156q-197 -80 -369.5 -225t-246.5 -293h96q262 0 406.5 -109t144.5 -317v-567h-923z" />
    <glyph glyph-name="uniFB95" unicode="&#x6af;" horiz-adv-x="1118" arabic-form="medial" 
d="M31 1284q64 148 259.5 327t401.5 269l60 -137q-191 -74 -389 -244.5t-277 -335.5zM-20 0v160h749v377q0 297 -377 297h-266v167q97 207 296.5 391.5t424.5 274.5l65 -156q-197 -80 -369.5 -225t-246.5 -293h96q262 0 406.5 -109t144.5 -317v-211q0 -90 56 -143t147 -53
h33v-160h-6q-171 0 -230 117v-117h-923z" />
    <glyph glyph-name="uniFB9F" unicode="&#x6ba;" horiz-adv-x="1417" arabic-form="final" 
d="M1202 356q0 -90 56 -143t147 -53h33v-160h-6q-171 0 -230 117v-109q0 -500 -510 -500h-147q-187 0 -299.5 132t-112.5 362q0 247 84 453h170q-70 -183 -70 -441q0 -165 69 -255.5t198 -90.5h100q344 0 344 328v997h174v-637z" />
    <glyph glyph-name="uniFBA6" unicode="&#x6c1;" horiz-adv-x="1182" arabic-form="isolated" 
d="M588 -20q-225 0 -350 122t-125 353q0 229 135.5 394t345.5 165q197 0 336 -168t139 -391q0 -475 -481 -475zM592 137q293 0 293 316q0 188 -81 295.5t-214 107.5q-124 0 -208.5 -111.5t-84.5 -291.5q0 -316 295 -316z" />
    <glyph glyph-name="uniFBA7" unicode="&#x6c1;" horiz-adv-x="1405" arabic-form="final" 
d="M1145 160h280v-160h-462v825q-166 -59 -326.5 -236t-368.5 -589h-219l172 306q70 124 157.5 242t182 206.5t191 146.5t200.5 92h195z" />
    <glyph glyph-name="uniFBA8" unicode="&#x6c1;" horiz-adv-x="616" arabic-form="initial" 
d="M-20 160h280v833h182v-993h-90q-100 -125 -100 -188q0 -68 72 -68h139v-160h-178q-85 0 -140 52.5t-55 127.5q0 107 107 236h-217v160z" />
    <glyph glyph-name="uniFBA9" unicode="&#x6c1;" horiz-adv-x="1169" arabic-form="medial" 
d="M-20 160h366q70 -255 146.5 -335.5t234.5 -80.5v416h465v-160h-283v-416h-192q-210 0 -321 93t-181 323h-235v160z" />
    <glyph glyph-name="uniFBAA" unicode="&#x6be;" horiz-adv-x="1630" arabic-form="isolated" 
d="M1456 0h-1393v160h244q-143 96 -143 293q0 209 147 323.5t414 114.5h248v-731h309v483q0 272 -126 407.5t-396 135.5q-199 0 -379 -60l-47 158q188 64 426 64q334 0 515 -181t181 -508v-659zM717 731q-371 0 -371 -285q0 -129 78.5 -207.5t206.5 -78.5h168v571h-82z" />
    <glyph glyph-name="uniFBAB" unicode="&#x6be;" horiz-adv-x="1671" arabic-form="final" 
d="M381 1126l-47 158q188 64 426 64q334 0 515 -181t181 -508v-499h244v-160h-1616v160h223q-143 96 -143 293q0 209 147 323.5t414 114.5h248v-731h309v483q0 272 -126 407.5t-396 135.5q-199 0 -379 -60zM717 731q-371 0 -371 -285q0 -129 78.5 -207.5t206.5 -78.5h168
v571h-82z" />
    <glyph glyph-name="uniFBAC" unicode="&#x6be;" horiz-adv-x="1630" arabic-form="initial" 
d="M1456 0h-1476v160h327q-143 96 -143 293q0 209 147 323.5t414 114.5h248v-731h309v483q0 272 -126 407.5t-396 135.5q-199 0 -379 -60l-47 158q188 64 426 64q334 0 515 -181t181 -508v-659zM717 731q-371 0 -371 -285q0 -129 78.5 -207.5t206.5 -78.5h168v571h-82z" />
    <glyph glyph-name="uniFBAD" unicode="&#x6be;" horiz-adv-x="1671" arabic-form="medial" 
d="M381 1126l-47 158q188 64 426 64q334 0 515 -181t181 -508v-499h244v-160h-1720v160h327q-143 96 -143 293q0 209 147 323.5t414 114.5h248v-731h309v483q0 272 -126 407.5t-396 135.5q-199 0 -379 -60zM717 731q-371 0 -371 -285q0 -129 78.5 -207.5t206.5 -78.5h168
v571h-82z" />
    <glyph glyph-name="uniFBAE" unicode="&#x6d2;" horiz-adv-x="1167" arabic-form="isolated" 
d="M1356 -416h-955q-147 0 -228 68t-81 196q0 112 75 194.5t337 186.5q198 82 254.5 141t56.5 195v80h182v-80q0 -163 -67.5 -258t-319.5 -196q-239 -99 -287.5 -145.5t-48.5 -117.5q0 -45 36.5 -74.5t86.5 -29.5h959v-160z" />
    <glyph glyph-name="uniFBAF" unicode="&#x6d2;" horiz-adv-x="803" arabic-form="final" 
d="M823 0h-305q-108 0 -176 -44t-68 -108q0 -46 33 -75t90 -29h959v-160h-955q-147 0 -228 68t-81 196q0 135 136 223.5t317 88.5h278v-160z" />
    <glyph glyph-name="uniFBE8" unicode="&#x649;" horiz-adv-x="616" arabic-form="initial" 
d="M-20 160h280v833h182v-993h-462v160z" />
    <glyph glyph-name="uniFBE9" unicode="&#x649;" horiz-adv-x="698" arabic-form="medial" 
d="M-20 160h280v833h182v-637q0 -90 55.5 -143t147.5 -53h74v-160h-47q-171 0 -230 117v-117h-462v160z" />
    <glyph glyph-name="uniFBFD" unicode="&#x6cc;" horiz-adv-x="2136" arabic-form="final" 
d="M1300 90q0 -203 -143.5 -315.5t-396.5 -112.5h-244q-175 0 -279 107t-104 290q0 162 51 308h164q-31 -149 -31 -293q0 -110 53 -181t140 -71h250q358 0 358 270v324q0 577 535 577h248v-833h256v-160h-439v834h-53q-365 0 -365 -424v-320z" />
    <glyph glyph-name="uniFC5E" unicode="&#xfc5e;" arabic-form="isolated" 
d="M-319 1661v137l112 103q103 -150 213 -150q37 0 53 6q-67 67 -67 139q0 152 184 152q176 0 176 -143q0 -111 -97 -183.5t-235 -72.5q-126 0 -206 70l-31 26zM158 1788q88 26 88 106q0 58 -74 58q-76 0 -76 -66q0 -55 62 -98zM328 1608v-109q0 -199 -176 -199
q-93 0 -144 62q-52 -102 -166 -102q-168 0 -168 198v68h107v-49q0 -63 18 -88t64 -25q90 0 90 94v119h96v-78q0 -94 78 -94q55 0 74.5 26.5t19.5 86.5v90h107z" />
    <glyph glyph-name="uniFC60" unicode="&#xfc60;" arabic-form="isolated" 
d="M-240 1747l480 70v-111l-480 -72v113zM328 1608v-109q0 -199 -176 -199q-93 0 -144 62q-52 -102 -166 -102q-168 0 -168 198v68h107v-49q0 -63 18 -88t64 -25q90 0 90 94v119h96v-78q0 -94 78 -94q55 0 74.5 26.5t19.5 86.5v90h107z" />
    <glyph glyph-name="uniFC61" unicode="&#xfc61;" arabic-form="isolated" 
d="M-276 1702v123q102 -74 190 -74q72 0 92 8q-65 71 -65 150q0 64 51 101.5t133 37.5q80 0 128 -39.5t48 -99.5q0 -98 -108.5 -179t-274.5 -81q-117 0 -194 53zM98 1788q97 38 97 110q0 54 -74 54q-76 0 -76 -60q0 -52 53 -104zM328 1608v-109q0 -199 -176 -199
q-93 0 -144 62q-52 -102 -166 -102q-168 0 -168 198v68h107v-49q0 -63 18 -88t64 -25q90 0 90 94v119h96v-78q0 -94 78 -94q55 0 74.5 26.5t19.5 86.5v90h107z" />
    <glyph glyph-name="uniFE70" unicode="&#xfe70;" arabic-form="isolated" 
d="M-240 1933l480 178v-110l-480 -180v112zM-240 1702l480 178v-111l-480 -180v113z" />
    <glyph glyph-name="uniFE71" unicode="&#xfe71;" horiz-adv-x="350" arabic-form="medial" 
d="M-20 160h391v-160h-391v160zM-66 1933l480 178v-110l-480 -180v112zM-66 1702l480 178v-111l-480 -180v113z" />
    <glyph glyph-name="uniFE72" unicode="&#xfe72;" arabic-form="isolated" 
d="M-301 1626l-66 78l160 145q112 -149 209 -149q30 0 57 10q-67 95 -67 178q0 77 51 123.5t133 46.5q80 0 128 -45.5t48 -116.5q0 -125 -102.5 -212t-239.5 -87q-115 0 -196 71l-31 26zM154 1743q92 50 92 145q0 72 -74 72q-76 0 -76 -82q0 -59 58 -135z" />
    <glyph glyph-name="uniFE74" unicode="&#xfe74;" arabic-form="isolated" 
d="M-240 -449l480 179v-111l-480 -180v112zM-240 -680l480 178v-110l-480 -181v113z" />
    <glyph glyph-name="uniFE76" unicode="&#xfe76;" arabic-form="isolated" 
d="M-240 1702l480 178v-111l-480 -180v113z" />
    <glyph glyph-name="uniFE77" unicode="&#xfe77;" horiz-adv-x="350" arabic-form="medial" 
d="M-20 160h391v-160h-391v160zM-66 1702l480 178v-111l-480 -180v113z" />
    <glyph glyph-name="uniFE78" unicode="&#xfe78;" arabic-form="isolated" 
d="M-301 1665l59 86q80 -51 146 -51q58 0 102 14q-65 88 -65 174q0 77 51 123.5t133 46.5q81 0 128.5 -46.5t47.5 -115.5q0 -112 -117 -205.5t-276 -93.5q-114 0 -209 68zM96 1749q99 52 99 139q0 72 -74 72q-76 0 -76 -82q0 -60 51 -129z" />
    <glyph glyph-name="uniFE79" unicode="&#xfe79;" horiz-adv-x="350" arabic-form="medial" 
d="M-20 160h391v-160h-391v160zM-127 1665l59 86q80 -51 146 -51q58 0 102 14q-65 88 -65 174q0 77 51 123.5t133 46.5q81 0 128.5 -46.5t47.5 -115.5q0 -112 -117 -205.5t-276 -93.5q-114 0 -209 68zM270 1749q99 52 99 139q0 72 -74 72q-76 0 -76 -82q0 -60 51 -129z" />
    <glyph glyph-name="uniFE7A" unicode="&#xfe7a;" arabic-form="isolated" 
d="M-240 -449l480 179v-111l-480 -180v112z" />
    <glyph glyph-name="uniFE7B" unicode="&#xfe7b;" horiz-adv-x="350" arabic-form="medial" 
d="M-20 160h391v-160h-391v160zM-66 -449l480 179v-111l-480 -180v112z" />
    <glyph glyph-name="uniFE7C" unicode="&#xfe7c;" arabic-form="isolated" 
d="M328 2060v-170q0 -198 -176 -198q-94 0 -144 61q-53 -102 -166 -102q-168 0 -168 198v129h107v-110q0 -63 18 -88t64 -25q90 0 90 94v181h96v-140q0 -94 78 -94q55 0 74.5 26.5t19.5 86.5v151h107z" />
    <glyph glyph-name="uniFE7D" unicode="&#xfe7d;" horiz-adv-x="350" arabic-form="medial" 
d="M-20 160h391v-160h-391v160zM502 2060v-170q0 -198 -176 -198q-94 0 -144 61q-53 -102 -166 -102q-168 0 -168 198v129h107v-110q0 -63 18 -88t64 -25q90 0 90 94v181h96v-140q0 -94 78 -94q55 0 74.5 26.5t19.5 86.5v151h107z" />
    <glyph glyph-name="uniFE7E" unicode="&#xfe7e;" arabic-form="isolated" 
d="M-2 1671q-102 0 -162.5 58t-60.5 157t60.5 157t162.5 58q100 0 164.5 -58t64.5 -155t-63 -157t-166 -60zM-2 1999q-50 0 -81.5 -30t-31.5 -83q0 -112 113 -112q49 0 81 30t32 82q0 53 -32 83t-81 30z" />
    <glyph glyph-name="uniFE7F" unicode="&#xfe7f;" horiz-adv-x="350" arabic-form="medial" 
d="M-20 160h391v-160h-391v160zM172 1671q-102 0 -162.5 58t-60.5 157t60.5 157t162.5 58q100 0 164.5 -58t64.5 -155t-63 -157t-166 -60zM172 1999q-50 0 -81.5 -30t-31.5 -83q0 -112 113 -112q49 0 81 30t32 82q0 53 -32 83t-81 30z" />
    <glyph glyph-name="uniFE82" unicode="&#x622;" horiz-adv-x="616" arabic-form="final" 
d="M356 160h281v-160h-463v1556h182v-1396zM29 1663h-93q25 211 189 211q54 0 146 -45q91 -45 122 -45q72 0 96 92h93q-25 -211 -189 -211q-50 0 -141 45q-92 45 -127 45q-72 0 -96 -92z" />
    <glyph glyph-name="uniFE84" unicode="&#x623;" horiz-adv-x="616" arabic-form="final" 
d="M356 160h281v-160h-463v1556h182v-1396zM455 1686q-34 0 -184.5 -19t-211.5 -31v95l97 14q-72 48 -72 129q0 87 56.5 135.5t152.5 48.5q74 0 135 -30l-31 -93q-48 25 -102 25q-107 0 -107 -105q0 -63 62 -96l37 6q94 14 168 21v-100z" />
    <glyph glyph-name="uniFE86" unicode="&#x624;" horiz-adv-x="1112" arabic-form="final" 
d="M954 160h179v-160h-179v-49q0 -209 -124 -326t-349 -117q-205 0 -368 105l82 137q159 -82 290 -82q137 0 217 73.5t80 199.5v59h-200q-217 0 -337 113t-120 325q0 228 152.5 361t408.5 133h268v-772zM692 772q-184 0 -284.5 -88t-100.5 -244q0 -280 281 -280h192v612h-88
zM805 1189q-34 0 -184.5 -19t-211.5 -31v95l97 14q-72 48 -72 129q0 87 56.5 135.5t152.5 48.5q74 0 135 -30l-31 -93q-48 25 -102 25q-107 0 -107 -105q0 -63 62 -96l37 6q94 14 168 21v-100z" />
    <glyph glyph-name="uniFE88" unicode="&#x625;" horiz-adv-x="616" arabic-form="final" 
d="M356 160h281v-160h-463v1556h182v-1396zM498 -467q-126 0 -396 -49v94l97 14q-72 50 -72 129q0 88 58 136.5t151 48.5q72 0 135 -31l-31 -92q-51 24 -102 24q-107 0 -107 -104q0 -65 62 -96q179 25 205 26v-100z" />
    <glyph glyph-name="uniFE8A" unicode="&#x626;" horiz-adv-x="2136" arabic-form="final" 
d="M1300 90q0 -203 -143.5 -315.5t-396.5 -112.5h-244q-175 0 -279 107t-104 290q0 162 51 308h164q-31 -149 -31 -293q0 -110 53 -181t140 -71h250q358 0 358 270v324q0 577 535 577h248v-833h256v-160h-439v834h-53q-365 0 -365 -424v-320zM637 645q-34 0 -184.5 -19
t-211.5 -31v95l97 14q-72 48 -72 129q0 87 56.5 135.5t152.5 48.5q74 0 135 -30l-31 -93q-48 25 -102 25q-107 0 -107 -105q0 -63 62 -96l37 6q94 14 168 21v-100z" />
    <glyph glyph-name="uniFE8B" unicode="&#x626;" horiz-adv-x="616" arabic-form="initial" 
d="M-20 160h280v833h182v-993h-462v160zM521 1189q-34 0 -184.5 -19t-211.5 -31v95l97 14q-72 48 -72 129q0 87 56.5 135.5t152.5 48.5q74 0 135 -30l-31 -93q-48 25 -102 25q-107 0 -107 -105q0 -63 62 -96l37 6q94 14 168 21v-100z" />
    <glyph glyph-name="uniFE8C" unicode="&#x626;" horiz-adv-x="698" arabic-form="medial" 
d="M-20 160h280v833h182v-637q0 -90 55.5 -143t147.5 -53h74v-160h-47q-171 0 -230 117v-117h-462v160zM549 1189q-34 0 -184.5 -19t-211.5 -31v95l97 14q-72 48 -72 129q0 87 56.5 135.5t152.5 48.5q74 0 135 -30l-31 -93q-48 25 -102 25q-107 0 -107 -105q0 -63 62 -96
l37 6q94 14 168 21v-100z" />
    <glyph glyph-name="uniFE8E" unicode="&#x627;" horiz-adv-x="616" arabic-form="final" 
d="M356 160h281v-160h-463v1556h182v-1396z" />
    <glyph glyph-name="uniFE90" unicode="&#x628;" horiz-adv-x="1634" arabic-form="final" 
d="M516 0q-175 0 -279 107t-104 290q0 161 51 308h164q-31 -151 -31 -293q0 -110 52.5 -181t140.5 -71h735v833h174v-637q0 -90 56 -143t147 -53h33v-160h-6q-171 0 -230 117v-117h-903zM797 -151q106 0 106 -115q0 -114 -106 -114t-106 114q0 115 106 115z" />
    <glyph glyph-name="uniFE91" unicode="&#x628;" horiz-adv-x="616" arabic-form="initial" 
d="M-20 160h280v833h182v-993h-462v160zM315 -151q106 0 106 -115q0 -114 -106 -114t-106 114q0 115 106 115z" />
    <glyph glyph-name="uniFE92" unicode="&#x628;" horiz-adv-x="698" arabic-form="medial" 
d="M-20 160h280v833h182v-637q0 -90 55.5 -143t147.5 -53h74v-160h-47q-171 0 -230 117v-117h-462v160zM360 -151q106 0 106 -115q0 -114 -106 -114t-106 114q0 115 106 115z" />
    <glyph glyph-name="uniFE94" unicode="&#x629;" horiz-adv-x="1206" arabic-form="final" 
d="M580 0q-217 0 -342 124t-125 343q0 244 154 385t407 141h309v-833h244v-160h-647zM680 834q-184 0 -284.5 -97t-100.5 -268q0 -309 280 -309h234v674h-129zM444 1411q107 0 107 -115q0 -114 -107 -114q-106 0 -106 114q0 115 106 115zM758 1411q106 0 106 -115
q0 -114 -106 -114q-107 0 -107 114q0 115 107 115z" />
    <glyph glyph-name="uniFE96" unicode="&#x62a;" horiz-adv-x="1634" arabic-form="final" 
d="M516 0q-175 0 -279 107t-104 290q0 161 51 308h164q-31 -151 -31 -293q0 -110 52.5 -181t140.5 -71h735v833h174v-637q0 -90 56 -143t147 -53h33v-160h-6q-171 0 -230 117v-117h-903zM657 1411q107 0 107 -115q0 -114 -107 -114q-106 0 -106 114q0 115 106 115zM971 1411
q106 0 106 -115q0 -114 -106 -114q-107 0 -107 114q0 115 107 115z" />
    <glyph glyph-name="uniFE97" unicode="&#x62a;" horiz-adv-x="616" arabic-form="initial" 
d="M-20 160h280v833h182v-993h-462v160zM178 1411q107 0 107 -115q0 -114 -107 -114q-106 0 -106 114q0 115 106 115zM492 1411q106 0 106 -115q0 -114 -106 -114q-107 0 -107 114q0 115 107 115z" />
    <glyph glyph-name="uniFE98" unicode="&#x62a;" horiz-adv-x="698" arabic-form="medial" 
d="M-20 160h280v833h182v-637q0 -90 55.5 -143t147.5 -53h74v-160h-47q-171 0 -230 117v-117h-462v160zM178 1411q107 0 107 -115q0 -114 -107 -114q-106 0 -106 114q0 115 106 115zM492 1411q106 0 106 -115q0 -114 -106 -114q-107 0 -107 114q0 115 107 115z" />
    <glyph glyph-name="uniFE9A" unicode="&#x62b;" horiz-adv-x="1634" arabic-form="final" 
d="M516 0q-175 0 -279 107t-104 290q0 161 51 308h164q-31 -151 -31 -293q0 -110 52.5 -181t140.5 -71h735v833h174v-637q0 -90 56 -143t147 -53h33v-160h-6q-171 0 -230 117v-117h-903zM817 1583q96 0 96 -102q0 -103 -96 -103t-96 103q0 102 96 102zM657 1386
q97 0 97 -102t-97 -102q-96 0 -96 102t96 102zM975 1386q96 0 96 -102t-96 -102q-97 0 -97 102t97 102z" />
    <glyph glyph-name="uniFE9B" unicode="&#x62b;" horiz-adv-x="616" arabic-form="initial" 
d="M-20 160h280v833h182v-993h-462v160zM346 1583q96 0 96 -102q0 -103 -96 -103t-96 103q0 102 96 102zM186 1386q97 0 97 -102t-97 -102q-96 0 -96 102t96 102zM504 1386q96 0 96 -102t-96 -102q-97 0 -97 102t97 102z" />
    <glyph glyph-name="uniFE9C" unicode="&#x62b;" horiz-adv-x="698" arabic-form="medial" 
d="M-20 160h280v833h182v-637q0 -90 55.5 -143t147.5 -53h74v-160h-47q-171 0 -230 117v-117h-462v160zM346 1583q96 0 96 -102q0 -103 -96 -103t-96 103q0 102 96 102zM186 1386q97 0 97 -102t-97 -102q-96 0 -96 102t96 102zM504 1386q96 0 96 -102t-96 -102
q-97 0 -97 102t97 102z" />
    <glyph glyph-name="uniFE9E" unicode="&#x62c;" horiz-adv-x="1206" arabic-form="final" 
d="M508 0q-227 0 -227 -203q0 -97 54 -155t144 -58q108 0 226 37l45 -137q-122 -59 -281 -59q-180 0 -278.5 101.5t-98.5 278.5q0 355 414 355h393q-80 86 -129 375q-31 181 -87.5 250t-170.5 69q-138 0 -297 -82l-72 141q158 101 371 101q177 0 278.5 -94.5t139.5 -337.5
q48 -323 147 -422h148v-160h-719zM946 -151q106 0 106 -115q0 -114 -106 -114t-106 114q0 115 106 115z" />
    <glyph glyph-name="uniFE9F" unicode="&#x62c;" horiz-adv-x="1147" arabic-form="initial" 
d="M868 160q-80 86 -129 375q-31 181 -87.5 250t-170.5 69q-138 0 -297 -82l-71 141q157 101 370 101q177 0 278.5 -94.5t139.5 -337.5q52 -334 154 -426v-156h-1075v160h888zM514 -151q106 0 106 -115q0 -114 -106 -114t-106 114q0 115 106 115z" />
    <glyph glyph-name="uniFEA0" unicode="&#x62c;" horiz-adv-x="1176" arabic-form="medial" 
d="M868 160q-80 86 -129 375q-31 181 -87.5 250t-170.5 69q-138 0 -297 -82l-71 141q157 101 370 101q177 0 278.5 -94.5t139.5 -337.5q47 -321 148 -422h147v-160h-1216v160h888zM535 -151q106 0 106 -115q0 -114 -106 -114t-106 114q0 115 106 115z" />
    <glyph glyph-name="uniFEA2" unicode="&#x62d;" horiz-adv-x="1206" arabic-form="final" 
d="M508 0q-227 0 -227 -203q0 -97 54 -155t144 -58q108 0 226 37l45 -137q-122 -59 -281 -59q-180 0 -278.5 101.5t-98.5 278.5q0 355 414 355h393q-80 86 -129 375q-31 181 -87.5 250t-170.5 69q-138 0 -297 -82l-72 141q158 101 371 101q177 0 278.5 -94.5t139.5 -337.5
q48 -323 147 -422h148v-160h-719z" />
    <glyph glyph-name="uniFEA3" unicode="&#x62d;" horiz-adv-x="1147" arabic-form="initial" 
d="M868 160q-80 86 -129 375q-31 181 -87.5 250t-170.5 69q-138 0 -297 -82l-71 141q157 101 370 101q177 0 278.5 -94.5t139.5 -337.5q52 -334 154 -426v-156h-1075v160h888z" />
    <glyph glyph-name="uniFEA4" unicode="&#x62d;" horiz-adv-x="1176" arabic-form="medial" 
d="M868 160q-80 86 -129 375q-31 181 -87.5 250t-170.5 69q-138 0 -297 -82l-71 141q157 101 370 101q177 0 278.5 -94.5t139.5 -337.5q47 -321 148 -422h147v-160h-1216v160h888z" />
    <glyph glyph-name="uniFEA6" unicode="&#x62e;" horiz-adv-x="1206" arabic-form="final" 
d="M508 0q-227 0 -227 -203q0 -97 54 -155t144 -58q108 0 226 37l45 -137q-122 -59 -281 -59q-180 0 -278.5 101.5t-98.5 278.5q0 355 414 355h393q-80 86 -129 375q-31 181 -87.5 250t-170.5 69q-138 0 -297 -82l-72 141q158 101 371 101q177 0 278.5 -94.5t139.5 -337.5
q48 -323 147 -422h148v-160h-719zM524 1411q106 0 106 -115q0 -114 -106 -114t-106 114q0 115 106 115z" />
    <glyph glyph-name="uniFEA7" unicode="&#x62e;" horiz-adv-x="1147" arabic-form="initial" 
d="M868 160q-80 86 -129 375q-31 181 -87.5 250t-170.5 69q-138 0 -297 -82l-71 141q157 101 370 101q177 0 278.5 -94.5t139.5 -337.5q52 -334 154 -426v-156h-1075v160h888zM469 1411q106 0 106 -115q0 -114 -106 -114t-106 114q0 115 106 115z" />
    <glyph glyph-name="uniFEA8" unicode="&#x62e;" horiz-adv-x="1176" arabic-form="medial" 
d="M868 160q-80 86 -129 375q-31 181 -87.5 250t-170.5 69q-138 0 -297 -82l-71 141q157 101 370 101q177 0 278.5 -94.5t139.5 -337.5q47 -321 148 -422h147v-160h-1216v160h888zM469 1411q106 0 106 -115q0 -114 -106 -114t-106 114q0 115 106 115z" />
    <glyph glyph-name="uniFEAA" unicode="&#x62f;" horiz-adv-x="1124" arabic-form="final" 
d="M51 160h682q-104 588 -434 741l66 156q357 -141 501 -697q19 -75 90.5 -137.5t155.5 -62.5h33v-160h-27q-131 0 -209 115v-115h-858v160z" />
    <glyph glyph-name="uniFEAC" unicode="&#x630;" horiz-adv-x="1124" arabic-form="final" 
d="M51 160h682q-104 588 -434 741l66 156q357 -141 501 -697q19 -75 90.5 -137.5t155.5 -62.5h33v-160h-27q-131 0 -209 115v-115h-858v160zM465 1411q106 0 106 -115q0 -114 -106 -114t-106 114q0 115 106 115z" />
    <glyph glyph-name="uniFEAE" unicode="&#x631;" horiz-adv-x="723" arabic-form="final" 
d="M508 -49q0 -207 -95 -325t-270 -118q-158 0 -278 99l82 125q86 -64 192 -64q90 0 143.5 75t53.5 198v1052h172v-637q0 -90 56 -143t147 -53h32v-160h-6q-172 0 -229 117v-166z" />
    <glyph glyph-name="uniFEB0" unicode="&#x632;" horiz-adv-x="723" arabic-form="final" 
d="M508 -49q0 -207 -95 -325t-270 -118q-158 0 -278 99l82 125q86 -64 192 -64q90 0 143.5 75t53.5 198v1052h172v-637q0 -90 56 -143t147 -53h32v-160h-6q-172 0 -229 117v-166zM418 1411q106 0 106 -115q0 -114 -106 -114t-106 114q0 115 106 115z" />
    <glyph glyph-name="uniFEB2" unicode="&#x633;" horiz-adv-x="2466" arabic-form="final" 
d="M545 -492q-187 0 -299.5 139.5t-112.5 385.5q0 274 84 483h170q-70 -187 -70 -483q0 -174 70 -269.5t197 -95.5h100q344 0 344 326v840h174v-447q0 -100 62.5 -163.5t160.5 -63.5h127v674h174v-447q0 -100 62.5 -163.5t161.5 -63.5h127v833h174v-626q0 -95 55.5 -151
t147.5 -56h32v-160h-6q-172 0 -229 117v-117h-295q-171 0 -230 117v-117h-294q-171 0 -230 117v-109q0 -500 -510 -500h-147z" />
    <glyph glyph-name="uniFEB3" unicode="&#x633;" horiz-adv-x="1679" arabic-form="initial" 
d="M-20 0v160h303v674h174v-447q0 -100 62.5 -163.5t160.5 -63.5h127v674h174v-447q0 -100 62.5 -163.5t160.5 -63.5h127v833h174v-993h-295q-172 0 -229 117v-117h-295q-172 0 -229 117v-117h-477z" />
    <glyph glyph-name="uniFEB4" unicode="&#x633;" horiz-adv-x="1720" arabic-form="medial" 
d="M-20 0v160h303v674h174v-447q0 -100 62.5 -163.5t160.5 -63.5h127v674h174v-447q0 -100 62.5 -163.5t160.5 -63.5h127v833h174v-637q0 -90 56 -143t147 -53h33v-160h-6q-171 0 -230 117v-117h-295q-172 0 -229 117v-117h-295q-172 0 -229 117v-117h-477z" />
    <glyph glyph-name="uniFEB6" unicode="&#x634;" horiz-adv-x="2466" arabic-form="final" 
d="M545 -492q-187 0 -299.5 139.5t-112.5 385.5q0 274 84 483h170q-70 -187 -70 -483q0 -174 70 -269.5t197 -95.5h100q344 0 344 326v840h174v-447q0 -100 62.5 -163.5t160.5 -63.5h127v674h174v-447q0 -100 62.5 -163.5t161.5 -63.5h127v833h174v-626q0 -95 55.5 -151
t147.5 -56h32v-160h-6q-172 0 -229 117v-117h-295q-171 0 -230 117v-117h-294q-171 0 -230 117v-109q0 -500 -510 -500h-147zM1640 1583q96 0 96 -102q0 -103 -96 -103t-96 103q0 102 96 102zM1480 1386q97 0 97 -102t-97 -102q-96 0 -96 102t96 102zM1798 1386
q96 0 96 -102t-96 -102q-97 0 -97 102t97 102z" />
    <glyph glyph-name="uniFEB7" unicode="&#x634;" horiz-adv-x="1679" arabic-form="initial" 
d="M-20 0v160h303v674h174v-447q0 -100 62.5 -163.5t160.5 -63.5h127v674h174v-447q0 -100 62.5 -163.5t160.5 -63.5h127v833h174v-993h-295q-172 0 -229 117v-117h-295q-172 0 -229 117v-117h-477zM891 1583q96 0 96 -102q0 -103 -96 -103t-96 103q0 102 96 102zM731 1386
q97 0 97 -102t-97 -102q-96 0 -96 102t96 102zM1049 1386q96 0 96 -102t-96 -102q-97 0 -97 102t97 102z" />
    <glyph glyph-name="uniFEB8" unicode="&#x634;" horiz-adv-x="1720" arabic-form="medial" 
d="M-20 0v160h303v674h174v-447q0 -100 62.5 -163.5t160.5 -63.5h127v674h174v-447q0 -100 62.5 -163.5t160.5 -63.5h127v833h174v-637q0 -90 56 -143t147 -53h33v-160h-6q-171 0 -230 117v-117h-295q-172 0 -229 117v-117h-295q-172 0 -229 117v-117h-477zM895 1583
q96 0 96 -102q0 -103 -96 -103t-96 103q0 102 96 102zM735 1386q97 0 97 -102t-97 -102q-96 0 -96 102t96 102zM1053 1386q96 0 96 -102t-96 -102q-97 0 -97 102t97 102z" />
    <glyph glyph-name="uniFEBA" unicode="&#x635;" horiz-adv-x="2454" arabic-form="final" 
d="M545 -492q-187 0 -299.5 139.5t-112.5 385.5q0 274 84 483h170q-70 -187 -70 -483q0 -174 70 -269.5t197 -95.5h100q344 0 344 326v999h174v-440q197 461 567 461q469 0 469 -520v-148q0 -83 55.5 -134.5t147.5 -51.5h33v-160h-6q-171 0 -230 117v-117h-827
q-125 0 -209 158v-150q0 -500 -510 -500h-147zM1206 336q29 -176 199 -176h659v325q0 367 -331 367q-315 0 -527 -516z" />
    <glyph glyph-name="uniFEBB" unicode="&#x635;" horiz-adv-x="1624" arabic-form="initial" 
d="M414 0h-434v160h260v772h174v-379q197 461 567 461q469 0 469 -520v-494h-827q-127 0 -209 158v-158zM418 336q27 -176 198 -176h660v325q0 367 -332 367q-314 0 -526 -516z" />
    <glyph glyph-name="uniFEBC" unicode="&#x635;" horiz-adv-x="1665" arabic-form="medial" 
d="M414 0h-434v160h260v772h174v-379q197 461 567 461q469 0 469 -520v-148q0 -83 55.5 -134.5t147.5 -51.5h33v-160h-7q-172 0 -229 117v-117h-827q-127 0 -209 158v-158zM418 336q27 -176 198 -176h660v325q0 367 -332 367q-314 0 -526 -516z" />
    <glyph glyph-name="uniFEBE" unicode="&#x636;" horiz-adv-x="2454" arabic-form="final" 
d="M545 -492q-187 0 -299.5 139.5t-112.5 385.5q0 274 84 483h170q-70 -187 -70 -483q0 -174 70 -269.5t197 -95.5h100q344 0 344 326v999h174v-440q197 461 567 461q469 0 469 -520v-148q0 -83 55.5 -134.5t147.5 -51.5h33v-160h-6q-171 0 -230 117v-117h-827
q-125 0 -209 158v-150q0 -500 -510 -500h-147zM1206 336q29 -176 199 -176h659v325q0 367 -331 367q-315 0 -527 -516zM1610 1411q106 0 106 -115q0 -114 -106 -114t-106 114q0 115 106 115z" />
    <glyph glyph-name="uniFEBF" unicode="&#x636;" horiz-adv-x="1624" arabic-form="initial" 
d="M414 0h-434v160h260v772h174v-379q197 461 567 461q469 0 469 -520v-494h-827q-127 0 -209 158v-158zM418 336q27 -176 198 -176h660v325q0 367 -332 367q-314 0 -526 -516zM829 1411q106 0 106 -115q0 -114 -106 -114t-106 114q0 115 106 115z" />
    <glyph glyph-name="uniFEC0" unicode="&#x636;" horiz-adv-x="1665" arabic-form="medial" 
d="M414 0h-434v160h260v772h174v-379q197 461 567 461q469 0 469 -520v-148q0 -83 55.5 -134.5t147.5 -51.5h33v-160h-7q-172 0 -229 117v-117h-827q-127 0 -209 158v-158zM418 336q27 -176 198 -176h660v325q0 367 -332 367q-314 0 -526 -516zM829 1411q106 0 106 -115
q0 -114 -106 -114t-106 114q0 115 106 115z" />
    <glyph glyph-name="uniFEC2" unicode="&#x637;" horiz-adv-x="1665" arabic-form="final" 
d="M414 0h-373v160h199v1396h174v-1003q197 461 567 461q469 0 469 -520v-148q0 -83 55.5 -134.5t147.5 -51.5h33v-160h-7q-172 0 -229 117v-117h-827q-127 0 -209 158v-158zM418 336q27 -176 198 -176h660v325q0 367 -332 367q-314 0 -526 -516z" />
    <glyph glyph-name="uniFEC3" unicode="&#x637;" horiz-adv-x="1624" arabic-form="initial" 
d="M414 0h-434v160h260v1396h174v-1003q197 461 567 461q469 0 469 -520v-494h-827q-127 0 -209 158v-158zM418 336q27 -176 198 -176h660v325q0 367 -332 367q-314 0 -526 -516z" />
    <glyph glyph-name="uniFEC4" unicode="&#x637;" horiz-adv-x="1665" arabic-form="medial" 
d="M414 0h-434v160h260v1396h174v-1003q197 461 567 461q469 0 469 -520v-148q0 -83 55.5 -134.5t147.5 -51.5h33v-160h-7q-172 0 -229 117v-117h-827q-127 0 -209 158v-158zM418 336q27 -176 198 -176h660v325q0 367 -332 367q-314 0 -526 -516z" />
    <glyph glyph-name="uniFEC6" unicode="&#x638;" horiz-adv-x="1665" arabic-form="final" 
d="M414 0h-373v160h199v1396h174v-1003q197 461 567 461q469 0 469 -520v-148q0 -83 55.5 -134.5t147.5 -51.5h33v-160h-7q-172 0 -229 117v-117h-827q-127 0 -209 158v-158zM418 336q27 -176 198 -176h660v325q0 367 -332 367q-314 0 -526 -516zM860 1411q106 0 106 -115
q0 -114 -106 -114t-106 114q0 115 106 115z" />
    <glyph glyph-name="uniFEC7" unicode="&#x638;" horiz-adv-x="1624" arabic-form="initial" 
d="M414 0h-434v160h260v1396h174v-1003q197 461 567 461q469 0 469 -520v-494h-827q-127 0 -209 158v-158zM418 336q27 -176 198 -176h660v325q0 367 -332 367q-314 0 -526 -516zM860 1411q106 0 106 -115q0 -114 -106 -114t-106 114q0 115 106 115z" />
    <glyph glyph-name="uniFEC8" unicode="&#x638;" horiz-adv-x="1665" arabic-form="medial" 
d="M414 0h-434v160h260v1396h174v-1003q197 461 567 461q469 0 469 -520v-148q0 -83 55.5 -134.5t147.5 -51.5h33v-160h-7q-172 0 -229 117v-117h-827q-127 0 -209 158v-158zM418 336q27 -176 198 -176h660v325q0 367 -332 367q-314 0 -526 -516zM860 1411q106 0 106 -115
q0 -114 -106 -114t-106 114q0 115 106 115z" />
    <glyph glyph-name="uniFECA" unicode="&#x639;" horiz-adv-x="1071" arabic-form="final" 
d="M354 137q-174 133 -174 389q0 237 135.5 362.5t352.5 125.5q163 0 284 -60l-55 -153q-126 53 -240 53q-290 0 -290 -338q0 -156 70.5 -256t183.5 -100h471v-160h-594q-230 0 -230 -203q0 -96 57.5 -154.5t155.5 -58.5q127 0 254 47l45 -137q-151 -69 -301 -69
q-182 0 -289.5 102.5t-107.5 267.5q0 267 272 342z" />
    <glyph glyph-name="uniFECB" unicode="&#x639;" horiz-adv-x="1079" arabic-form="initial" 
d="M-20 0v160h325q-145 130 -145 364t133.5 362t353.5 128q164 0 285 -60l-55 -153q-126 53 -240 53q-291 0 -291 -338q0 -158 69.5 -257t182.5 -99h365v-160h-983z" />
    <glyph glyph-name="uniFECC" unicode="&#x639;" horiz-adv-x="1217" arabic-form="medial" 
d="M1237 0h-250q-189 0 -379 102q-175 -102 -381 -102h-247v160h245q145 0 244 41q-126 91 -228.5 257.5t-127.5 334.5q93 125 246.5 195.5t312.5 70.5q290 0 448 -129q0 -213 -98.5 -411.5t-269.5 -315.5q118 -43 227 -43h258v-160zM309 739q61 -263 301 -446
q301 202 322 551q-79 55 -254 55q-101 0 -208 -47t-161 -113z" />
    <glyph glyph-name="uniFECE" unicode="&#x63a;" horiz-adv-x="1071" arabic-form="final" 
d="M354 137q-174 133 -174 389q0 237 135.5 362.5t352.5 125.5q163 0 284 -60l-55 -153q-126 53 -240 53q-290 0 -290 -338q0 -156 70.5 -256t183.5 -100h471v-160h-594q-230 0 -230 -203q0 -96 57.5 -154.5t155.5 -58.5q127 0 254 47l45 -137q-151 -69 -301 -69
q-182 0 -289.5 102.5t-107.5 267.5q0 267 272 342zM598 1411q106 0 106 -115q0 -114 -106 -114t-106 114q0 115 106 115z" />
    <glyph glyph-name="uniFECF" unicode="&#x63a;" horiz-adv-x="1079" arabic-form="initial" 
d="M-20 0v160h325q-145 130 -145 364t133.5 362t353.5 128q164 0 285 -60l-55 -153q-126 53 -240 53q-291 0 -291 -338q0 -158 69.5 -257t182.5 -99h365v-160h-983zM598 1411q106 0 106 -115q0 -114 -106 -114t-106 114q0 115 106 115z" />
    <glyph glyph-name="uniFED0" unicode="&#x63a;" horiz-adv-x="1217" arabic-form="medial" 
d="M1237 0h-250q-189 0 -379 102q-175 -102 -381 -102h-247v160h245q145 0 244 41q-126 91 -228.5 257.5t-127.5 334.5q93 125 246.5 195.5t312.5 70.5q290 0 448 -129q0 -213 -98.5 -411.5t-269.5 -315.5q118 -43 227 -43h258v-160zM309 739q61 -263 301 -446
q301 202 322 551q-79 55 -254 55q-101 0 -208 -47t-161 -113zM627 1472q106 0 106 -115q0 -114 -106 -114t-106 114q0 115 106 115z" />
    <glyph glyph-name="uniFED2" unicode="&#x641;" horiz-adv-x="2114" arabic-form="final" 
d="M516 0q-175 0 -279 107t-104 290q0 161 51 308h164q-31 -151 -31 -293q0 -110 52.5 -181t140.5 -71h666q-107 117 -107 309q0 239 151 381.5t410 142.5h268v-833h236v-160h-1618zM1636 834q-182 0 -283.5 -96t-101.5 -267q0 -311 281 -311h192v674h-88zM1565 1411
q106 0 106 -115q0 -114 -106 -114t-106 114q0 115 106 115z" />
    <glyph glyph-name="uniFED3" unicode="&#x641;" horiz-adv-x="1217" arabic-form="initial" 
d="M690 1411q107 0 107 -115q0 -114 -107 -114q-106 0 -106 114q0 115 106 115zM-20 160h321q-106 119 -106 309q0 239 151 381.5t410 142.5h268v-993h-1044v160zM762 834q-182 0 -283.5 -96t-101.5 -267q0 -311 280 -311h193v674h-88z" />
    <glyph glyph-name="uniFED4" unicode="&#x641;" horiz-adv-x="1231" arabic-form="medial" 
d="M690 1411q107 0 107 -115q0 -114 -107 -114q-106 0 -106 114q0 115 106 115zM-20 160h321q-106 119 -106 309q0 244 152.5 384t408.5 140h268v-833h227v-160h-1271v160zM762 834q-183 0 -284 -96.5t-101 -268.5q0 -309 280 -309h193v674h-88z" />
    <glyph glyph-name="uniFED6" unicode="&#x642;" horiz-adv-x="1794" arabic-form="final" 
d="M1815 160v-160h-236v-12q0 -480 -518 -480h-483q-221 0 -353.5 132.5t-132.5 361.5q0 265 84 483h170q-70 -195 -70 -471q0 -165 88 -255.5t250 -90.5h414q201 0 289 76.5t88 241.5v14h-188q-225 0 -346 119.5t-121 347.5q0 244 154 385t407 141h268v-833h236zM1317 834
q-184 0 -284.5 -97t-100.5 -268q0 -309 280 -309h193v674h-88zM1036 1411q107 0 107 -115q0 -114 -107 -114q-106 0 -106 114q0 115 106 115zM1350 1411q106 0 106 -115q0 -114 -106 -114q-107 0 -107 114q0 115 107 115z" />
    <glyph glyph-name="uniFED7" unicode="&#x642;" horiz-adv-x="1217" arabic-form="initial" 
d="M541 1411q106 0 106 -115q0 -114 -106 -114q-107 0 -107 114q0 115 107 115zM854 1411q107 0 107 -115q0 -114 -107 -114q-106 0 -106 114q0 115 106 115zM-20 160h321q-106 119 -106 309q0 239 151 381.5t410 142.5h268v-993h-1044v160zM762 834q-182 0 -283.5 -96
t-101.5 -267q0 -311 280 -311h193v674h-88z" />
    <glyph glyph-name="uniFED8" unicode="&#x642;" horiz-adv-x="1231" arabic-form="medial" 
d="M541 1411q106 0 106 -115q0 -114 -106 -114q-107 0 -107 114q0 115 107 115zM854 1411q107 0 107 -115q0 -114 -107 -114q-106 0 -106 114q0 115 106 115zM-20 160h321q-106 119 -106 309q0 244 152.5 384t408.5 140h268v-833h227v-160h-1271v160zM762 834
q-183 0 -284 -96.5t-101 -268.5q0 -309 280 -309h193v674h-88z" />
    <glyph glyph-name="uniFEDA" unicode="&#x643;" horiz-adv-x="1634" arabic-form="final" 
d="M1419 0h-903q-175 0 -279 107t-104 290q0 161 51 308h154q-31 -151 -31 -293q0 -108 57 -180t146 -72h735v1396h174v-1189q0 -81 51.5 -144t151.5 -63h33v-160h-27q-125 0 -209 158v-158zM981 686q-126 0 -395 -49v94l96 14q-72 50 -72 129q0 88 58 136.5t151 48.5
q72 0 135 -31l-30 -92q-56 25 -103 25q-106 0 -106 -105q0 -66 61 -96l37 5q117 17 168 21v-100z" />
    <glyph glyph-name="uniFEDB" unicode="&#x643;" horiz-adv-x="1118" arabic-form="initial" 
d="M-20 0v160h790v377q0 297 -377 297h-266v167q97 207 296.5 391.5t424.5 274.5l65 -156q-197 -80 -369.5 -225t-246.5 -293h96q262 0 406.5 -109t144.5 -317v-567h-964z" />
    <glyph glyph-name="uniFEDC" unicode="&#x643;" horiz-adv-x="1159" arabic-form="medial" 
d="M944 356q0 -90 56 -143t147 -53h33v-160h-6q-173 0 -230 117v-117h-964v160h790v377q0 297 -377 297h-266v167q97 207 296.5 391.5t424.5 274.5l65 -156q-197 -80 -369.5 -225t-246.5 -293h96q262 0 406.5 -109t144.5 -317v-211z" />
    <glyph glyph-name="uniFEDE" unicode="&#x644;" horiz-adv-x="1417" arabic-form="final" 
d="M1202 356q0 -90 56 -143t147 -53h33v-160h-6q-171 0 -230 117v-109q0 -500 -510 -500h-147q-187 0 -299.5 132t-112.5 362q0 247 84 453h170q-70 -183 -70 -441q0 -165 69 -255.5t198 -90.5h100q344 0 344 326v1562h174v-1200z" />
    <glyph glyph-name="uniFEDF" unicode="&#x644;" horiz-adv-x="616" arabic-form="initial" 
d="M-20 160h280v1396h182v-1556h-462v160z" />
    <glyph glyph-name="uniFEE0" unicode="&#x644;" horiz-adv-x="698" arabic-form="medial" 
d="M-20 160h280v1396h182v-1200q0 -90 55.5 -143t147.5 -53h74v-160h-47q-171 0 -230 117v-117h-462v160z" />
    <glyph glyph-name="uniFEE2" unicode="&#x645;" horiz-adv-x="1417" arabic-form="final" 
d="M102 -119q0 133 72 206t178 73h13q-68 113 -68 305q0 241 132.5 395t348.5 154q208 0 337.5 -131t129.5 -363q0 -105 -46.5 -207t-119.5 -153h359v-160h-1018q-146 0 -146 -150v-108q0 -240 -88 -336h-186q102 90 102 371v104zM551 160h186q154 0 239 95.5t85 266.5
q0 153 -78 243.5t-205 90.5q-128 0 -213.5 -104t-85.5 -287q0 -206 72 -305z" />
    <glyph glyph-name="uniFEE3" unicode="&#x645;" horiz-adv-x="1237" arabic-form="initial" 
d="M-59 0v160h303q-68 113 -68 305q0 241 133 395t348 154q208 0 337.5 -131t129.5 -363q0 -243 -155.5 -381.5t-393.5 -138.5h-634zM430 160h145q163 0 264 101.5t101 260.5q0 153 -78 243.5t-205 90.5q-129 0 -214 -106t-85 -285q0 -206 72 -305z" />
    <glyph glyph-name="uniFEE4" unicode="&#x645;" horiz-adv-x="1296" arabic-form="medial" 
d="M-20 0v160h264q-68 107 -68 305q0 241 133 395t348 154q208 0 337.5 -131t129.5 -363q0 -107 -45.5 -207.5t-120.5 -152.5h359v-160h-1337zM430 160h186q155 0 239.5 96.5t84.5 269.5q0 154 -78.5 242t-206.5 88q-127 0 -212 -106t-85 -285q0 -206 72 -305z" />
    <glyph glyph-name="uniFEE6" unicode="&#x646;" horiz-adv-x="1417" arabic-form="final" 
d="M1202 356q0 -90 56 -143t147 -53h33v-160h-6q-171 0 -230 117v-109q0 -500 -510 -500h-147q-187 0 -299.5 132t-112.5 362q0 247 84 453h170q-70 -183 -70 -441q0 -165 69 -255.5t198 -90.5h100q344 0 344 328v997h174v-637zM664 1183q106 0 106 -115q0 -114 -106 -114
t-106 114q0 115 106 115z" />
    <glyph glyph-name="uniFEE7" unicode="&#x646;" horiz-adv-x="616" arabic-form="initial" 
d="M-20 160h280v833h182v-993h-462v160zM350 1411q106 0 106 -115q0 -114 -106 -114t-106 114q0 115 106 115z" />
    <glyph glyph-name="uniFEE8" unicode="&#x646;" horiz-adv-x="698" arabic-form="medial" 
d="M-20 160h280v833h182v-637q0 -90 55.5 -143t147.5 -53h74v-160h-47q-171 0 -230 117v-117h-462v160zM350 1411q106 0 106 -115q0 -114 -106 -114t-106 114q0 115 106 115z" />
    <glyph glyph-name="uniFEE9" unicode="&#x647;" horiz-adv-x="1182" arabic-form="isolated" 
d="M588 -20q-225 0 -350 122t-125 353q0 229 135.5 394t345.5 165q197 0 336 -168t139 -391q0 -475 -481 -475zM592 137q293 0 293 316q0 188 -81 295.5t-214 107.5q-124 0 -208.5 -111.5t-84.5 -291.5q0 -316 295 -316z" />
    <glyph glyph-name="uniFEEA" unicode="&#x647;" horiz-adv-x="1206" arabic-form="final" 
d="M580 0q-217 0 -342 124t-125 343q0 244 154 385t407 141h309v-833h244v-160h-647zM680 834q-184 0 -284.5 -97t-100.5 -268q0 -309 280 -309h234v674h-129z" />
    <glyph glyph-name="uniFEEB" unicode="&#x647;" horiz-adv-x="1630" arabic-form="initial" 
d="M1456 0h-1476v160h327q-143 96 -143 293q0 209 147 323.5t414 114.5h248v-731h309v483q0 272 -126 407.5t-396 135.5q-199 0 -379 -60l-47 158q188 64 426 64q334 0 515 -181t181 -508v-659zM717 731q-371 0 -371 -285q0 -129 78.5 -207.5t206.5 -78.5h168v571h-82z" />
    <glyph glyph-name="uniFEEC" unicode="&#x647;" horiz-adv-x="1671" arabic-form="medial" 
d="M381 1126l-47 158q188 64 426 64q334 0 515 -181t181 -508v-499h244v-160h-1720v160h327q-143 96 -143 293q0 209 147 323.5t414 114.5h248v-731h309v483q0 272 -126 407.5t-396 135.5q-199 0 -379 -60zM717 731q-371 0 -371 -285q0 -129 78.5 -207.5t206.5 -78.5h168
v571h-82z" />
    <glyph glyph-name="uniFEEE" unicode="&#x648;" horiz-adv-x="1112" arabic-form="final" 
d="M954 160h179v-160h-179v-49q0 -209 -124 -326t-349 -117q-205 0 -368 105l82 137q159 -82 290 -82q137 0 217 73.5t80 199.5v59h-200q-218 0 -337.5 120.5t-119.5 346.5q0 244 154 385t407 141h268v-833zM692 834q-184 0 -284.5 -97t-100.5 -268q0 -309 281 -309h192v674
h-88z" />
    <glyph glyph-name="uniFEF0" unicode="&#x649;" horiz-adv-x="2136" arabic-form="final" 
d="M1300 90q0 -203 -143.5 -315.5t-396.5 -112.5h-244q-175 0 -279 107t-104 290q0 162 51 308h164q-31 -149 -31 -293q0 -110 53 -181t140 -71h250q358 0 358 270v324q0 577 535 577h248v-833h256v-160h-439v834h-53q-365 0 -365 -424v-320z" />
    <glyph glyph-name="uniFEF2" unicode="&#x64a;" horiz-adv-x="2075" arabic-form="final" 
d="M1239 150q0 -202 -142.5 -315.5t-398.5 -113.5h-243q-185 0 -284 96t-99 271q0 139 51 277h153q-30 -143 -30 -263q0 -102 55 -161.5t148 -59.5h249q359 0 359 271v264q0 577 534 577h248v-833h256v-160h-438v834h-53q-365 0 -365 -424v-260zM561 -389q107 0 107 -115
q0 -114 -107 -114q-106 0 -106 114q0 115 106 115zM874 -389q107 0 107 -115q0 -114 -107 -114q-106 0 -106 114q0 115 106 115z" />
    <glyph glyph-name="uniFEF3" unicode="&#x64a;" horiz-adv-x="616" arabic-form="initial" 
d="M-20 160h280v833h182v-993h-462v160zM157 -77q107 0 107 -115q0 -114 -107 -114q-106 0 -106 114q0 115 106 115zM471 -77q106 0 106 -115q0 -114 -106 -114q-107 0 -107 114q0 115 107 115z" />
    <glyph glyph-name="uniFEF4" unicode="&#x64a;" horiz-adv-x="698" arabic-form="medial" 
d="M-20 160h280v833h182v-637q0 -90 55.5 -143t147.5 -53h74v-160h-47q-171 0 -230 117v-117h-462v160zM178 -77q107 0 107 -115q0 -114 -107 -114q-106 0 -106 114q0 115 106 115zM492 -77q106 0 106 -115q0 -114 -106 -114q-107 0 -107 114q0 115 107 115z" />
    <glyph glyph-name=".notdef" horiz-adv-x="1229" 
d="M193 1462h841v-1462h-841v1462zM297 104h633v1254h-633v-1254z" />
    <glyph glyph-name=".null" horiz-adv-x="532" 
 />
    <glyph glyph-name="nonmarkingreturn" horiz-adv-x="1411" 
 />
    <glyph glyph-name="space" unicode=" " horiz-adv-x="532" 
 />
    <glyph glyph-name="space" unicode="&#xa0;" horiz-adv-x="532" 
 />
    <glyph glyph-name="uni060C" unicode="&#x60c;" horiz-adv-x="512" 
d="M98 0l-14 23q52 199 176 479h137q-70 -288 -100 -502h-199z" />
    <glyph glyph-name="uni061B" unicode="&#x61b;" horiz-adv-x="549" 
d="M164 868l-14 23q52 207 176 479h137q-67 -279 -101 -502h-198zM252 -20q-127 0 -127 139t127 139t127 -139t-127 -139z" />
    <glyph glyph-name="uni061F" unicode="&#x61f;" horiz-adv-x="872" 
d="M453 414v18q0 86 -30.5 138.5t-139.5 146.5q-143 124 -179 206t-36 187q0 172 106.5 272.5t294.5 100.5q170 0 367 -101l-64 -145q-175 86 -303 86q-108 0 -167.5 -59t-59.5 -156q0 -87 32.5 -150t147.5 -159q91 -77 130.5 -150.5t39.5 -197.5v-37h-139zM512 -29
q-127 0 -127 140q0 139 127 139t127 -139q0 -140 -127 -140z" />
    <glyph glyph-name="uni0640" unicode="&#x640;" horiz-adv-x="350" 
d="M-20 160h391v-160h-391v160z" />
    <glyph glyph-name="uni0647" unicode="&#x647;" horiz-adv-x="1182" 
d="M588 -20q-225 0 -350 122t-125 353q0 229 135.5 394t345.5 165q197 0 336 -168t139 -391q0 -475 -481 -475zM592 137q293 0 293 316q0 188 -81 295.5t-214 107.5q-124 0 -208.5 -111.5t-84.5 -291.5q0 -316 295 -316z" />
    <glyph glyph-name="uni064B" unicode="&#x64b;" 
d="M-240 1933l480 178v-110l-480 -180v112zM-240 1702l480 178v-111l-480 -180v113z" />
    <glyph glyph-name="uni064C" unicode="&#x64c;" 
d="M-301 1626l-66 78l160 145q112 -149 209 -149q30 0 57 10q-67 95 -67 178q0 77 51 123.5t133 46.5q80 0 128 -45.5t48 -116.5q0 -125 -102.5 -212t-239.5 -87q-115 0 -196 71l-31 26zM154 1743q92 50 92 145q0 72 -74 72q-76 0 -76 -82q0 -59 58 -135z" />
    <glyph glyph-name="uni064D" unicode="&#x64d;" 
d="M-240 -449l480 179v-111l-480 -180v112zM-240 -680l480 178v-110l-480 -181v113z" />
    <glyph glyph-name="uni064E" unicode="&#x64e;" 
d="M-240 1702l480 178v-111l-480 -180v113z" />
    <glyph glyph-name="uni064F" unicode="&#x64f;" 
d="M-301 1665l59 86q80 -51 146 -51q58 0 102 14q-65 88 -65 174q0 77 51 123.5t133 46.5q81 0 128.5 -46.5t47.5 -115.5q0 -112 -117 -205.5t-276 -93.5q-114 0 -209 68zM96 1749q99 52 99 139q0 72 -74 72q-76 0 -76 -82q0 -60 51 -129z" />
    <glyph glyph-name="uni0650" unicode="&#x650;" 
d="M-240 -449l480 179v-111l-480 -180v112z" />
    <glyph glyph-name="uni0651" unicode="&#x651;" 
d="M328 2060v-170q0 -198 -176 -198q-94 0 -144 61q-53 -102 -166 -102q-168 0 -168 198v129h107v-110q0 -63 18 -88t64 -25q90 0 90 94v181h96v-140q0 -94 78 -94q55 0 74.5 26.5t19.5 86.5v151h107z" />
    <glyph glyph-name="uni0652" unicode="&#x652;" 
d="M-2 1671q-102 0 -162.5 58t-60.5 157t60.5 157t162.5 58q100 0 164.5 -58t64.5 -155t-63 -157t-166 -60zM-2 1999q-50 0 -81.5 -30t-31.5 -83q0 -112 113 -112q49 0 81 30t32 82q0 53 -32 83t-81 30z" />
    <glyph glyph-name="uni0653" unicode="&#x653;" 
d="M-231 1663h-93q25 211 189 211q54 0 146 -45q91 -45 122 -45q72 0 96 92h93q-25 -211 -189 -211q-50 0 -141 45q-92 45 -127 45q-72 0 -96 -92z" />
    <glyph glyph-name="uni0654" unicode="&#x654;" 
d="M193 1686q-34 0 -184.5 -19t-211.5 -31v95l97 14q-72 48 -72 129q0 87 56.5 135.5t152.5 48.5q74 0 135 -30l-31 -93q-48 25 -102 25q-107 0 -107 -105q0 -63 62 -96l37 6q94 14 168 21v-100z" />
    <glyph glyph-name="uni0655" unicode="&#x655;" 
d="M193 -467q-126 0 -396 -49v94l97 14q-72 50 -72 129q0 88 58 136.5t151 48.5q72 0 135 -31l-31 -92q-51 24 -102 24q-107 0 -107 -104q0 -65 62 -96q179 25 205 26v-100z" />
    <glyph glyph-name="uni0656" unicode="&#x656;" 
d="M-59 -395h116v-398h-116v398z" />
    <glyph glyph-name="uni0660" unicode="&#x660;" horiz-adv-x="973" 
d="M666 0h-367v383h367v-383z" />
    <glyph glyph-name="uni0661" unicode="&#x661;" horiz-adv-x="1128" 
d="M655 0h-182v1380h182v-1380z" />
    <glyph glyph-name="uni0662" unicode="&#x662;" horiz-adv-x="1128" 
d="M582 0l-430 1235v145h817v-166h-621l430 -1214h-196z" />
    <glyph glyph-name="uni0663" unicode="&#x663;" horiz-adv-x="1128" 
d="M522 0l-436 1380h195l92 -309q30 -10 67 -10q111 0 111 319h182q0 -219 -43 -307q42 -12 92 -12q84 0 114 75t30 244h182v-28q0 -231 -71 -338t-246 -107q-124 0 -193 47q-49 -45 -100 -45q-60 0 -84 21l303 -930h-195z" />
    <glyph glyph-name="uni0664" unicode="&#x664;" horiz-adv-x="1128" 
d="M801 688l-127 -129q-159 -161 -205.5 -224.5t-46.5 -105.5q0 -38 62.5 -67t164.5 -29q200 0 316 43v-151q-135 -45 -332 -45q-181 0 -294.5 67t-113.5 164q0 69 98 196t265 257q-207 162 -259.5 219.5t-52.5 89.5q0 89 138 222t372 212l56 -156q-145 -49 -265 -139.5
t-120 -114.5q0 -29 184 -178z" />
    <glyph glyph-name="uni0665" unicode="&#x665;" horiz-adv-x="1128" 
d="M561 -20q-250 0 -362.5 137t-112.5 415q0 349 138.5 608t342.5 259q202 0 338.5 -259t136.5 -608q0 -282 -109 -417t-372 -135zM565 137q154 0 221.5 100.5t67.5 299.5q0 294 -83 500t-208 206q-116 0 -202.5 -215t-86.5 -491q0 -199 68.5 -299.5t222.5 -100.5z" />
    <glyph glyph-name="uni0666" unicode="&#x666;" horiz-adv-x="1128" 
d="M887 0h-182v1214h-635v166h817v-1380z" />
    <glyph glyph-name="uni0667" unicode="&#x667;" horiz-adv-x="1128" 
d="M872 1380h191l-387 -1380h-227l-386 1380h189l248 -938q41 -157 61 -270q14 93 64 270z" />
    <glyph glyph-name="uni0668" unicode="&#x668;" horiz-adv-x="1128" 
d="M625 938q-59 224 -64 270q-12 -73 -61 -270l-248 -938h-189l386 1380h227l387 -1380h-191z" />
    <glyph glyph-name="uni0669" unicode="&#x669;" horiz-adv-x="1128" 
d="M780 0v551h-231q-222 0 -344.5 112t-122.5 320q0 194 111.5 306t291.5 112q248 0 357.5 -160.5t109.5 -505.5v-735h-172zM778 711q0 275 -64 402.5t-229 127.5q-107 0 -169 -68.5t-62 -191.5q0 -270 291 -270h233z" />
    <glyph glyph-name="uni066A" unicode="&#x66a;" horiz-adv-x="1178" 
d="M1073 1380l-811 -1380h-158l811 1380h158zM203 1245h215v-215h-215v215zM752 381h215v-215h-215v215z" />
    <glyph glyph-name="uni066B" unicode="&#x66b;" horiz-adv-x="575" 
d="M430 238l14 -23q-54 -208 -176 -479h-137q62 255 100 502h199z" />
    <glyph glyph-name="uni066C" unicode="&#x66c;" horiz-adv-x="575" 
d="M430 788l14 -22q-54 -208 -176 -479h-137q62 255 100 501h199z" />
    <glyph glyph-name="uni066D" unicode="&#x66d;" horiz-adv-x="1128" 
d="M664 1556l-43 -393l397 111l26 -193l-378 -28l245 -326l-178 -96l-176 358l-158 -358l-184 96l242 326l-375 28l29 193l391 -111l-43 393h205z" />
    <glyph glyph-name="uni0670" unicode="&#x670;" 
d="M-59 2058h116v-397h-116v397z" />
    <glyph glyph-name="uni0679" unicode="&#x679;" horiz-adv-x="1593" 
d="M1245 160v833h174v-993h-903q-175 0 -279 107t-104 290q0 161 51 308h164q-31 -151 -31 -293q0 -110 52.5 -181t140.5 -71h735zM697 993h-113v88h31v372h82v-260q54 134 159 134q152 0 152 -179v-155h-248q-35 0 -63 57v-57zM699 1103q17 -22 59 -22h168v51
q0 106 -80 106q-96 0 -147 -135z" />
    <glyph glyph-name="uni067A" unicode="&#x67a;" horiz-adv-x="1593" 
d="M1245 160v833h174v-993h-903q-175 0 -279 107t-104 290q0 161 51 308h164q-31 -151 -31 -293q0 -110 52.5 -181t140.5 -71h735zM801 1481q96 0 96 -103q0 -102 -96 -102t-96 102q0 103 96 103zM801 1223q96 0 96 -103q0 -102 -96 -102t-96 102q0 103 96 103z" />
    <glyph glyph-name="uni067B" unicode="&#x67b;" horiz-adv-x="1593" 
d="M1245 160v833h174v-993h-903q-175 0 -279 107t-104 290q0 161 51 308h164q-31 -151 -31 -293q0 -110 52.5 -181t140.5 -71h735zM815 -111q96 0 96 -103q0 -102 -96 -102t-96 102q0 103 96 103zM815 -369q96 0 96 -103q0 -102 -96 -102t-96 102q0 103 96 103z" />
    <glyph glyph-name="uni0688" unicode="&#x688;" horiz-adv-x="1001" 
d="M51 160h682q-104 588 -434 741l66 156q419 -164 544 -901v-156h-858v160zM281 1182h-113v88h31v372h82v-260q54 134 159 134q152 0 152 -179v-155h-248q-35 0 -63 57v-57zM283 1292q17 -22 59 -22h168v51q0 106 -80 106q-96 0 -147 -135z" />
    <glyph glyph-name="uni0691" unicode="&#x691;" horiz-adv-x="682" 
d="M508 993v-1042q0 -207 -95 -325t-270 -118q-158 0 -278 99l82 125q86 -64 192 -64q90 0 143.5 75t53.5 198v1052h172zM285 1182h-113v88h31v372h82v-260q54 134 159 134q152 0 152 -179v-155h-248q-35 0 -63 57v-57zM287 1292q17 -22 59 -22h168v51q0 106 -80 106
q-96 0 -147 -135z" />
    <glyph glyph-name="uni06BE" unicode="&#x6be;" horiz-adv-x="1630" 
d="M1456 0h-1393v160h244q-143 96 -143 293q0 209 147 323.5t414 114.5h248v-731h309v483q0 272 -126 407.5t-396 135.5q-199 0 -379 -60l-47 158q188 64 426 64q334 0 515 -181t181 -508v-659zM717 731q-371 0 -371 -285q0 -129 78.5 -207.5t206.5 -78.5h168v571h-82z" />
    <glyph glyph-name="uni06C1" unicode="&#x6c1;" horiz-adv-x="1182" 
d="M588 -20q-225 0 -350 122t-125 353q0 229 135.5 394t345.5 165q197 0 336 -168t139 -391q0 -475 -481 -475zM592 137q293 0 293 316q0 188 -81 295.5t-214 107.5q-124 0 -208.5 -111.5t-84.5 -291.5q0 -316 295 -316z" />
    <glyph glyph-name="uni06D2" unicode="&#x6d2;" horiz-adv-x="1167" 
d="M1356 -416h-955q-147 0 -228 68t-81 196q0 112 75 194.5t337 186.5q198 82 254.5 141t56.5 195v80h182v-80q0 -163 -67.5 -258t-319.5 -196q-239 -99 -287.5 -145.5t-48.5 -117.5q0 -45 36.5 -74.5t86.5 -29.5h959v-160z" />
    <glyph glyph-name="uni06F0" unicode="&#x6f0;" horiz-adv-x="973" 
d="M666 0h-367v383h367v-383z" />
    <glyph glyph-name="uni06F1" unicode="&#x6f1;" horiz-adv-x="1128" 
d="M655 0h-182v1380h182v-1380z" />
    <glyph glyph-name="uni06F2" unicode="&#x6f2;" horiz-adv-x="1128" 
d="M582 0l-430 1235v145h817v-166h-621l430 -1214h-196z" />
    <glyph glyph-name="uni06F3" unicode="&#x6f3;" horiz-adv-x="1128" 
d="M522 0l-436 1380h195l92 -309q30 -10 67 -10q111 0 111 319h182q0 -219 -43 -307q42 -12 92 -12q84 0 114 75t30 244h182v-28q0 -231 -71 -338t-246 -107q-124 0 -193 47q-49 -45 -100 -45q-60 0 -84 21l303 -930h-195z" />
    <glyph glyph-name="uni06F4" unicode="&#x6f4;" horiz-adv-x="1128" 
d="M1085 1294q0 -366 -356 -366q-200 0 -336 61l324 -989h-195l-436 1380h195l65 -227q87 -40 215 -68q-82 54 -82 166q0 84 54.5 133.5t154.5 49.5q62 0 123 -21l-29 -113q-39 15 -86 15q-75 0 -75 -88q0 -112 127 -148q167 26 167 240h170v-25z" />
    <glyph glyph-name="uni06F5" unicode="&#x6f5;" horiz-adv-x="1128" 
d="M561 102q-61 -116 -184 -116q-291 0 -291 485q0 357 140 642.5t341 285.5q199 0 337 -285.5t138 -642.5q0 -250 -70 -367.5t-218 -117.5q-126 0 -193 116zM500 319h131q6 -174 100 -174q123 0 123 330q0 303 -84 535.5t-207 232.5q-114 0 -201.5 -242.5t-87.5 -525.5
q0 -330 129 -330q91 0 97 174z" />
    <glyph glyph-name="uni06F6" unicode="&#x6f6;" horiz-adv-x="1128" 
d="M168 0q108 345 375 571q-348 83 -348 428q0 191 117.5 296.5t305.5 105.5q153 0 281 -62l-61 -151q-107 53 -215 53q-240 0 -240 -252q0 -243 291 -293q104 88 215 140l65 -154q-490 -280 -616 -682h-170z" />
    <glyph glyph-name="uni06F7" unicode="&#x6f7;" horiz-adv-x="1128" 
d="M872 1380h191l-387 -1380h-227l-386 1380h189l248 -938q41 -157 61 -270q14 93 64 270z" />
    <glyph glyph-name="uni06F8" unicode="&#x6f8;" horiz-adv-x="1128" 
d="M625 938q-59 224 -64 270q-12 -73 -61 -270l-248 -938h-189l386 1380h227l387 -1380h-191z" />
    <glyph glyph-name="uni06F9" unicode="&#x6f9;" horiz-adv-x="1128" 
d="M780 0v551h-231q-222 0 -344.5 112t-122.5 320q0 194 111.5 306t291.5 112q248 0 357.5 -160.5t109.5 -505.5v-735h-172zM778 711q0 275 -64 402.5t-229 127.5q-107 0 -169 -68.5t-62 -191.5q0 -270 291 -270h233z" />
    <glyph glyph-name="uni200C" unicode="&#x200c;" 
d="M33 2h-64v1348h64v-1348z" />
    <glyph glyph-name="uni200D" unicode="&#x200d;" 
d="M-39 1321l-94 96l39 39l96 -94l96 94l39 -39l-96 -96l96 -94l-39 -39l-65 63v-1249h-64v1247l-63 -61l-39 39z" />
    <glyph glyph-name="uni200E" unicode="&#x200e;" 
d="M205 1321l-115 -162v127h-59v-1284h-62v1348h121v133z" />
    <glyph glyph-name="uni200F" unicode="&#x200f;" 
d="M-90 1483v-133h121v-1348h-62v1284h-59v-127l-115 162z" />
    <glyph glyph-name="uni274A" unicode="&#x274a;" horiz-adv-x="1106" 
d="M496 420l-250 -256l-92 86l264 252l-361 -6v129l361 -11l-262 256l96 82l248 -256l-11 365h129l-6 -363l248 258l92 -86l-262 -256l359 11v-129l-359 6l260 -252l-96 -82l-246 254l8 -365h-129z" />
    <glyph glyph-name="uniFE73" unicode="&#xfe73;" horiz-adv-x="516" 
d="M516 0q-175 0 -279 107t-104 290q0 161 51 308h164q-31 -151 -31 -293q0 -108 54.5 -180t144.5 -72v-160z" />
    <glyph glyph-name="uniFE75" unicode="&#xfe75;" 
 />
    <glyph glyph-name="uniFEFD" unicode="&#xfefd;" 
 />
    <glyph glyph-name="uniFEFE" unicode="&#xfefe;" 
 />
    <glyph glyph-name="uniFEFF" unicode="&#xfeff;" 
 />
    <glyph glyph-name="baseform1" horiz-adv-x="1593" 
d="M1245 160v833h174v-993h-903q-175 0 -279 107t-104 290q0 161 51 308h164q-31 -151 -31 -293q0 -110 52.5 -181t140.5 -71h735z" />
    <glyph glyph-name="baseform1final" horiz-adv-x="1634" 
d="M516 0q-175 0 -279 107t-104 290q0 161 51 308h164q-31 -151 -31 -293q0 -110 52.5 -181t140.5 -71h735v833h174v-637q0 -90 56 -143t147 -53h33v-160h-6q-171 0 -230 117v-117h-903z" />
    <glyph glyph-name="baseform2initial" horiz-adv-x="1217" 
d="M-20 160h321q-106 127 -106 301q0 244 150 388t411 144h268v-993h-1044v160zM762 834q-182 0 -283.5 -96t-101.5 -269q0 -309 280 -309h193v674h-88z" />
    <glyph glyph-name="baseform2medial" horiz-adv-x="1231" 
d="M-20 160h321q-106 127 -106 301q0 244 150 388t411 144h268v-833h227v-160h-1271v160zM762 834q-182 0 -283.5 -96t-101.5 -269q0 -309 280 -309h193v674h-88z" />
    <glyph glyph-name="baseform2isolated" horiz-adv-x="2073" 
d="M516 0q-175 0 -279 107t-104 290q0 161 51 308h164q-31 -151 -31 -293q0 -110 52.5 -181t140.5 -71h666q-107 117 -107 309q0 239 151 381.5t410 142.5h268v-993h-1382zM1636 834q-182 0 -283.5 -96t-101.5 -267q0 -311 281 -311h192v674h-88z" />
    <glyph glyph-name="baseform2final" horiz-adv-x="2114" 
d="M516 0q-175 0 -279 107t-104 290q0 161 51 308h164q-31 -151 -31 -293q0 -110 52.5 -181t140.5 -71h666q-107 117 -107 309q0 239 151 381.5t410 142.5h268v-833h236v-160h-1618zM1636 834q-182 0 -283.5 -96t-101.5 -267q0 -311 281 -311h192v674h-88z" />
    <glyph glyph-name="baseform3isolated" horiz-adv-x="1753" 
d="M1405 0h-188q-225 0 -346 119.5t-121 347.5q0 244 154 385t407 141h268v-1005q0 -480 -518 -480h-483q-221 0 -353.5 132.5t-132.5 361.5q0 265 84 483h170q-70 -195 -70 -471q0 -165 88 -255.5t250 -90.5h414q201 0 289 76.5t88 241.5v14zM1317 834q-184 0 -284.5 -97
t-100.5 -268q0 -309 280 -309h193v674h-88z" />
    <glyph glyph-name="baseform3final" horiz-adv-x="1794" 
d="M1815 160v-160h-236v-12q0 -480 -518 -480h-483q-221 0 -353.5 132.5t-132.5 361.5q0 265 84 483h170q-70 -195 -70 -471q0 -165 88 -255.5t250 -90.5h414q201 0 289 76.5t88 241.5v14h-188q-225 0 -346 119.5t-121 347.5q0 244 154 385t407 141h268v-833h236zM1317 834
q-184 0 -284.5 -97t-100.5 -268q0 -309 280 -309h193v674h-88z" />
    <glyph glyph-name="baseform4final" horiz-adv-x="1112" 
d="M954 160h179v-160h-179v-49q0 -209 -124 -326t-349 -117q-205 0 -368 105l82 137q159 -82 290 -82q137 0 217 73.5t80 199.5v59h-200q-217 0 -337 113t-120 325q0 228 152.5 361t408.5 133h268v-772zM692 772q-184 0 -284.5 -88t-100.5 -244q0 -280 281 -280h192v612h-88
z" />
    <glyph glyph-name="threedotsbelow" 
d="M-160 -152q97 0 97 -102t-97 -102q-96 0 -96 102t96 102zM158 -152q96 0 96 -102t-96 -102q-97 0 -97 102t97 102zM0 -348q96 0 96 -103q0 -102 -96 -102t-96 102q0 103 96 103z" />
    <glyph glyph-name="threedotsabove" 
d="M0 1583q96 0 96 -102q0 -103 -96 -103t-96 103q0 102 96 102zM-160 1386q97 0 97 -102t-97 -102q-96 0 -96 102t96 102zM158 1386q96 0 96 -102t-96 -102q-97 0 -97 102t97 102z" />
    <glyph glyph-name="twodots" 
d="M-160 1411q107 0 107 -115q0 -114 -107 -114q-106 0 -106 114q0 115 106 115zM154 1411q106 0 106 -115q0 -114 -106 -114q-107 0 -107 114q0 115 107 115z" />
    <glyph glyph-name="onedot" 
d="M0 1411q106 0 106 -115q0 -114 -106 -114t-106 114q0 115 106 115z" />
    <glyph glyph-name="markFEC1" 
d="M-106 1182h-113v88h31v372h82v-260q54 134 159 134q152 0 152 -179v-155h-248q-35 0 -63 57v-57zM-104 1292q17 -22 59 -22h168v51q0 106 -80 106q-96 0 -147 -135z" />
    <glyph glyph-name="twodotsvertical" 
d="M0 1481q96 0 96 -103q0 -102 -96 -102t-96 102q0 103 96 103zM0 1223q96 0 96 -103q0 -102 -96 -102t-96 102q0 103 96 103z" />
  </font>
</defs></svg>
