<?xml version="1.0" standalone="no"?>
<!DOCTYPE svg PUBLIC "-//W3C//DTD SVG 1.1//EN" "http://www.w3.org/Graphics/SVG/1.1/DTD/svg11.dtd" >
<!--
2016-12-19: Created.
-->
<svg xmlns="http://www.w3.org/2000/svg">
<metadata>
Created by FontForge 20120731 at Mon Dec 19 14:20:53 2016
 By Apache
Created by Apache with FontForge 2.0 (http://fontforge.sf.net)
</metadata>
<defs>
<font id="Flaticon" horiz-adv-x="512" >
  <font-face 
    font-family="Flaticon"
    font-weight="500"
    font-stretch="normal"
    units-per-em="512"
    panose-1="2 0 6 3 0 0 0 0 0 0"
    ascent="448"
    descent="-64"
    bbox="-0.00817025 -64.002 512.004 448"
    underline-thickness="25.6"
    underline-position="-51.2"
    unicode-range="U+0020-F116"
  />
    <missing-glyph />
    <glyph glyph-name="space" unicode=" " horiz-adv-x="200" 
 />
    <glyph glyph-name="uniF111" unicode="&#xf111;" 
d="M512 233.29h-24.7744v-231.226h24.7744v-66.0645h-66.0645v24.7744h-231.226v-24.7744h-66.0645v66.0645h24.7734v107.354h-107.354v-24.7734h-66.0645v66.0645h24.7744v231.226h-24.7744v66.0645h66.0645v-24.7744h231.226v24.7744h66.0645v-66.0645h-24.7734v-107.354
h107.354v24.7734h66.0645v-66.0645zM313.807 431.484v-33.0332h33.0322v33.0332h-33.0322zM16.5166 398.451h33.0322v33.0332h-33.0322v-33.0332zM49.5488 101.161v33.0322h-33.0322v-33.0322h33.0322zM66.0645 125.936h107.354v107.354h-24.7734v66.0645h66.0645v-24.7734
h107.354v107.354h-24.7744v24.7744h-231.226v-24.7744h-24.7744v-231.226h24.7744v-24.7744zM189.936 233.29v-107.354h107.354v24.7744h24.7744v107.354h-107.354v-24.7744h-24.7744zM165.161 249.807h33.0322v33.0322h-33.0322v-33.0322zM313.807 134.193v-33.0322
h33.0322v33.0322h-33.0322zM198.193 -47.4834v33.0322h-33.0322v-33.0322h33.0322zM445.936 -22.71v24.7744h24.7744v231.226h-24.7744v24.7744h-107.354v-107.354h24.7734v-66.0645h-66.0645v24.7734h-107.354v-107.354h24.7744v-24.7744h231.226zM495.483 -14.4512
h-33.0322v-33.0322h33.0322v33.0322zM462.451 249.807h33.0322v33.0322h-33.0322v-33.0322zM404.646 357.161v24.7744h16.5156v-24.7744h-16.5156zM404.646 315.871v24.7744h16.5156v-24.7744h-16.5156zM421.161 340.646v16.5156h24.7744v-16.5156h-24.7744z
M379.871 340.646v16.5156h24.7744v-16.5156h-24.7744zM90.8389 43.3545v24.7744h16.5156v-24.7744h-16.5156zM90.8389 2.06445v24.7744h16.5156v-24.7744h-16.5156zM107.354 26.8389v16.5156h24.7744v-16.5156h-24.7744zM66.0645 26.8389v16.5156h24.7744v-16.5156h-24.7744
z" />
    <glyph glyph-name="uniF106" unicode="&#xf106;" 
d="M497.512 235.576c7.56055 0 13.6641 -6.12793 13.6641 -13.6719s-6.11133 -13.6641 -13.6641 -13.6641h-34.584v-34.5684c0 -7.55176 -6.11133 -13.6719 -13.6719 -13.6719c-7.54395 0 -13.6562 6.12012 -13.6562 13.6719v34.5684h-34.5596
c-7.55176 0 -13.6641 6.12012 -13.6641 13.6641s6.1123 13.6719 13.6641 13.6719h34.5596v34.5674c0 7.54395 6.1123 13.6641 13.6562 13.6641c7.56055 0 13.6719 -6.12012 13.6719 -13.6641v-34.5674h34.584zM347.992 235.576c15.7598 0 18.6875 -12.168 19.1836 -15.9043
c7.48047 -52.5195 -0.463867 -97.5596 -24.2715 -137.704c-8.75195 -14.752 -18.5439 -26.5996 -29.8887 -36.2715c-19.4795 -18.5039 -43.5596 -31.6807 -70.9912 -38.624c-18.6729 -4.7207 -36.8086 -7.07227 -54.3604 -7.07227c-42.8076 0 -82.1602 14 -117.496 41.8965
c-21.4883 16.9756 -38.3604 38 -50.1436 62.4951c-9.25684 17.208 -15.5605 37.3604 -18.3848 59.3359c-4.67969 36.1445 0.616211 71.1123 15.7842 103.904c0.536133 1.12793 2.69629 5.36035 4.48828 8.74414c7.16016 14.5518 16.9121 28.2324 29.7441 41.6396
c29.3281 30.7764 64.7041 49.6807 105.128 56.1367c58.4561 9.2959 110.256 -5.14453 154.176 -42.96c1.63965 -1.39258 6.92773 -5.86426 7.22363 -13.416c0.18457 -5.04004 -1.84766 -9.7041 -6.07129 -13.8799c-11.0479 -10.8164 -21.8887 -21.6807 -32.7441 -32.5762
l-10.584 -10.5928c-8.45605 -9.01562 -18.5283 -7.10352 -24.8242 -1.33594c-31.6475 28.9922 -82.2236 27.7285 -115.136 -2.91113c-11.376 -10.5684 -19.624 -23.1602 -25.208 -38.5283c-6.30371 -18.792 -6.4082 -38.2559 -0.167969 -59.1045
c5.06348 -12.7275 10.9678 -22.9277 18.2314 -30.96c21.4639 -23.6953 47.3604 -33.5361 79.1924 -30.3193c13.8877 1.43164 27 5.9834 40.0879 13.8799c10.4004 8.04004 17.7363 16.7041 22.4004 26.4639c0.151367 0.311523 0.303711 0.631836 0.456055 0.927734
c-16.5205 -0.0634766 -32.96 -0.0400391 -49.3682 -0.0400391l-20.4082 0.0078125c-13.7998 0 -20.2158 6.5127 -20.2158 20.4326l0.015625 16.3193c0.0166016 13.5605 0.0478516 27.0723 -0.0878906 40.6006c-0.015625 2.48828 -0.0556641 9.08008 5.12012 14.2637
c3.43164 3.45605 8.0957 5.19238 13.8477 5.19238h0.0878906c51.752 -0.167969 103.448 -0.112305 155.185 -0.0400391zM318.36 96.5283c19.0801 32.1436 26.168 68.3516 21.6553 110.496c-46.0713 -0.0566406 -91.8799 -0.0878906 -137.64 0.0234375
c0.0400391 -10.5918 0.0244141 -21.0635 0 -31.5273v-8.16016l12.1045 -0.0166016c21.1992 0 42.4238 -0.0234375 63.624 0.144531c7.19922 -0.280273 12.1836 -2.2002 15.6152 -6.77637c5.12012 -6.80762 2.85645 -14.3516 2.10449 -16.8477
c-1.75977 -5.83984 -3.71973 -12.04 -6.71191 -18.2803c-6.75195 -14.0879 -17.0078 -26.2803 -31.4082 -37.2559c-0.383789 -0.303711 -0.78418 -0.583984 -1.2002 -0.824219c-16.7754 -10.2637 -34.5039 -16.4395 -52.6719 -18.3115
c-40.7842 -4.25684 -75.6562 9.03125 -103.304 39.5518c-9.64844 10.6797 -17.2803 23.6318 -24.0166 40.7998c-8.26367 27.4482 -8.08008 53.2725 0.167969 77.8564c7.2168 19.7754 18.1924 36.4717 32.7207 49.9834c40.9912 38.1602 102.92 41.7119 145.567 9.89648
l4.19238 4.20801c8.26367 8.28809 16.5439 16.584 24.8555 24.8154c-35.9033 27.4883 -76.0957 37.1445 -122.735 29.6719c-34.0967 -5.45605 -64.0479 -21.4873 -88.9844 -47.6553c-9.42383 -9.87988 -16.8242 -19.7764 -22.4639 -30.0723
c-0.152344 -0.375977 -0.351562 -0.759766 -0.543945 -1.12012c-0.295898 -0.543945 -0.975586 -1.84766 -1.80762 -3.4082c-0.496094 -1.03223 -0.976562 -2.06348 -1.46484 -3.0957c-0.383789 -0.87207 -0.879883 -1.67969 -1.41602 -2.44043
c-0.583984 -1.15137 -1.04004 -2.08008 -1.27148 -2.55176c-12.8477 -27.792 -17.3438 -57.4961 -13.3604 -88.248c2.4082 -18.7754 7.48047 -35.1357 15.4961 -50.04c10.1758 -21.1514 24.3281 -38.792 42.3926 -53.04c43.1191 -34.0234 91.2236 -43.7041 147.176 -29.5518
c22.6318 5.71191 42.4482 16.5439 58.9033 32.168c9.49609 8.10449 17.2881 17.624 24.4248 29.6084z" />
    <glyph glyph-name="uniF116" unicode="&#xf116;" 
d="M268.268 8.84082c-0.0107422 0 0 0 0 0c-58.2246 0 -121.612 1.83887 -188.392 5.43848c-39.4512 2.16309 -70.0547 32.5781 -74.4102 73.9775c-7.28711 69.1592 -7.28711 138.978 0 207.517c4.34668 41.0557 34.9082 71.4707 74.3213 73.9492
c115.171 7.24805 233.676 7.24805 352.396 0c39.875 -2.41895 69.75 -32.1162 74.3613 -73.9092c7.2666 -66.1699 7.27734 -135.979 0.00976562 -207.527c-4.19922 -41.3711 -34.0449 -71.1064 -74.2627 -73.9893c-50.6133 -3.61719 -105.801 -5.45605 -164.024 -5.45605z
M254.648 355.504c-58.0381 0 -116.459 -1.8291 -173.642 -5.41797c-30.1191 -1.88867 -52.6191 -24.5547 -55.9912 -56.3857c-7.13965 -67.1621 -7.13965 -135.585 0 -203.387c3.37207 -32.0879 25.8428 -54.7432 55.9131 -56.3955
c66.4258 -3.5791 129.459 -5.40918 187.32 -5.40918c57.7617 0 112.477 1.81934 162.628 5.39844c30.3457 2.18262 52.8945 24.8301 56.0908 56.3662c7.13965 70.1729 7.13965 138.595 0.00976562 203.388c-3.51074 31.9297 -26.0195 54.6055 -55.9922 56.4248
c-58.9541 3.59863 -118.29 5.41797 -176.337 5.41797zM205.912 261.662l129.606 -67.9404l-129.606 -67.0244v134.965z" />
    <glyph glyph-name="uniF108" unicode="&#xf108;" 
d="M422.847 315.589c6.08398 0 11.0186 -4.93262 11.0195 -11.0186v-166.424c0 -6.08594 -4.93457 -11.0195 -11.0195 -11.0195s-11.0186 4.93359 -11.0186 11.0195v0v155.405h-311.655v-155.406c0 -6.08594 -4.93359 -11.0195 -11.0186 -11.0195
s-11.0195 4.93359 -11.0195 11.0195v166.424c0 6.08691 4.93457 11.0195 11.0195 11.0195h333.692zM502.084 98.7969c5.47754 0 9.91699 -4.43848 9.91602 -9.91699v-19.4678c0 -26.9766 -21.9473 -48.9238 -48.9238 -48.9238h-414.152
c-26.9766 0 -48.9238 21.9473 -48.9238 48.9238v19.4678c0 5.47852 4.44043 9.91699 9.91699 9.91699h20.2949v231.406c0 18.3652 14.9414 33.3076 33.3086 33.3076h384.96c18.3662 0 33.3086 -14.9424 33.3086 -33.3076v-231.406h20.2949zM52.249 330.203v-231.403h149.245
c5.5459 0.118164 10.1475 -4.3623 10.1475 -9.91504c0 -8.37012 6.80762 -15.1807 15.1787 -15.1807h58.3613c8.36914 0 15.1787 6.80957 15.1787 15.1807c0 4.75293 3.37305 8.83887 8.04102 9.73633c0.719727 0.139648 1.44531 0.199219 2.14844 0.175781h149.2v231.406
c0 6.21484 -5.05469 11.2705 -11.2715 11.2705h-384.958c-6.21484 0 -11.2715 -5.05664 -11.2715 -11.2705zM492.167 69.4121l0.000976562 9.55078h-173.404c-4.28809 -14.4893 -17.7207 -25.0938 -33.583 -25.0938h-58.3613c-15.8623 0 -29.2949 10.6035 -33.582 25.0938
h-173.403v-9.55078c0 -16.041 13.0498 -29.0898 29.0898 -29.0898h414.153c16.0391 0 29.0898 13.0488 29.0898 29.0898v0zM272.331 251.541c4.30371 -4.30469 4.30371 -11.2812 0 -15.584l-69.2988 -69.2998c-2.15137 -2.14941 -4.9707 -3.22656 -7.79102 -3.22656
c-2.81934 0 -5.63867 1.0752 -7.79102 3.22656c-4.30273 4.30371 -4.30273 11.2803 0 15.583l69.2969 69.3008c4.30566 4.30273 11.2803 4.30273 15.584 0zM313.405 211.381c4.30371 -4.30469 4.30371 -11.2812 -0.000976562 -15.584l-27.6055 -27.6064
c-2.15234 -2.15234 -4.9707 -3.22656 -7.79102 -3.22656c-2.81934 0 -5.63965 1.07422 -7.79102 3.22656c-4.30371 4.30371 -4.30371 11.2812 0 15.584l27.6055 27.6064c4.30469 4.30273 11.2793 4.30273 15.583 0z" />
    <glyph glyph-name="uniF109" unicode="&#xf109;" 
d="M69.1201 443.733c17.9199 0 34.9873 -6.82617 47.7871 -20.4795c12.7998 -12.7998 20.4795 -29.8672 19.627 -47.7871c0 -18.7725 -7.68066 -35.8398 -20.4805 -48.6396s-29.0127 -19.627 -46.0801 -19.627h-1.70703
c-17.0664 -0.853516 -34.9863 6.82715 -47.7861 19.627c-12.8008 12.7998 -20.4805 29.8672 -20.4805 48.6396c0 17.9199 6.82715 34.9863 20.4805 48.6396c12.7998 12.7998 29.8662 19.627 48.6396 19.627zM104.107 338.773
c10.2393 9.38672 15.3594 23.0391 15.3594 36.6924s-5.12012 26.4531 -15.3594 36.6934c-9.3877 9.38672 -22.1875 14.5068 -34.9873 14.5068c-14.5059 0 -27.3057 -5.12012 -36.6934 -14.5068c-10.2402 -10.2402 -15.3594 -23.04 -15.3594 -36.6934
s5.11914 -27.3057 15.3594 -36.6924c9.3877 -9.3877 23.04 -14.5078 35.8398 -14.5078c13.6533 -0.852539 26.4531 5.12012 35.8408 14.5078zM102.4 290.133c13.6523 0 25.5996 -11.9453 25.5996 -25.5996v-299.521c0 -12.7998 -11.9473 -24.7471 -25.5996 -24.7471
h-68.2676c-13.6523 0 -25.5996 11.9473 -25.5996 25.6006v298.667c0 14.5068 11.0938 25.5996 24.7471 25.5996h69.1201zM110.933 -34.9873v299.521c0 4.26562 -4.26562 8.5332 -8.53223 8.5332h-69.1201c-4.26758 0 -7.68066 -4.2666 -7.68066 -8.5332v-298.667
c0 -4.2666 4.2666 -8.5332 8.5332 -8.5332h68.2676c4.26562 0 8.53223 3.41309 8.53223 7.67969zM392.533 298.667c67.4141 0 119.467 -52.9072 119.468 -121.173v-220.16c0 -8.53418 -8.53418 -17.0674 -17.0674 -17.0674h-85.333
c-8.5332 0 -17.0664 8.53418 -17.0664 17.0674v183.467c0 15.3604 -3.41406 27.3076 -11.9473 34.9873c-9.38672 9.38672 -22.1865 14.5068 -35.8398 14.5068c-26.4531 0 -46.9326 -22.1865 -46.9326 -50.3467v-184.32c0 -9.38672 -9.3877 -15.3604 -17.0674 -15.3604
h-93.8672c-7.67969 0 -17.0664 5.97363 -17.0664 15.3604v318.293c0 9.38574 9.38672 16.2129 17.0664 16.2129h85.333c8.53418 0 17.0674 -8.53418 17.0674 -17.0664v-11.9473c20.4795 23.04 52.0527 37.5469 85.333 37.5469h17.9199zM494.933 -41.8125v219.306
c0 58.0264 -44.374 104.106 -101.547 104.106h-17.9199c-31.5742 0 -61.4395 -15.3594 -78.5068 -39.2529l-0.852539 -0.852539l-23.04 -23.04v53.7598l-0.853516 0.853516h-84.4795v-315.733h93.8662v182.613c0 37.5459 28.1602 66.5596 64 67.4131
c17.9199 0 34.9873 -6.82715 47.7871 -19.627c11.0938 -11.0938 16.2129 -26.4531 16.2129 -46.9336l0.853516 -183.466h83.627z" />
    <glyph glyph-name="uniF113" unicode="&#xf113;" 
d="M486.348 234.582c0.294922 -0.796875 1.19824 -125.527 0.668945 -126.795c-2.8916 -27.21 -13.3135 -67.0264 -42.9385 -99.6436c-31.0137 -34.1348 -76.5742 -52.2803 -135.483 -54.0137c-5.24609 -10.7266 -16.2676 -18.1318 -28.9854 -18.1318h-39.5732
c-33.7773 1.54785 -32.25 34.0527 -32.25 35.8555c0 17.7812 14.4688 32.249 32.25 32.249h39.5732c16.5205 0 30.1758 -12.4932 32.0283 -28.5273c51.1025 2.16699 90.3125 17.9219 116.649 46.9121c22.6709 24.9629 31.8555 55.4248 35.4678 78.7402h-20.2793
c-26.3232 0 -47.7393 21.4072 -47.7393 47.7305v44.8633c0 26.3242 21.416 47.7295 47.7393 47.7295h20.7529c-12.2393 104.094 -100.986 185.115 -208.315 185.115s-196.066 -81.0215 -208.306 -185.113h20.7539c26.3223 0 47.7285 -21.4062 47.7285 -47.7295v-44.8633
c0 -26.3242 -21.4062 -47.7305 -47.7285 -47.7305h-32.876c-5.89453 0 -10.666 4.77051 -10.666 10.668c0 0 0.245117 121.53 0.669922 122.685c9.05859 119.2 108.943 213.418 230.424 213.418c121.482 0 221.376 -94.2178 230.435 -213.418zM68.3613 220.219
l-22.166 -0.000976562c-0.0175781 -1.10352 -0.0419922 -97.6553 -0.0419922 -97.6553h22.208c14.5527 0 26.3965 11.8428 26.3965 26.3965v44.8633c0 14.5537 -11.8447 26.3965 -26.3965 26.3965zM279.611 -42.666c6.02051 0 11.9062 4.67773 10.916 14.5215
c-0.601562 5.98926 -3.84961 10.916 -10.916 10.916h-39.5732c-6.87988 0 -10.1738 -4.94141 -10.916 -10.916c-1.1416 -9.19336 4.89453 -14.5215 10.916 -14.5215h39.5732zM443.477 122.563l22.207 0.000976562s-0.0234375 96.5518 -0.0419922 97.6553h-22.165
c-14.5635 0 -26.4062 -11.8428 -26.4062 -26.3965v-44.8633c0 -14.5537 11.8428 -26.3965 26.4062 -26.3965zM197.27 262.083c8.94238 9.06934 15.3027 16.1836 19.0752 21.3447c3.78223 5.16895 5.66895 10.3877 5.66895 15.6826
c0 5.28809 -2.01367 9.78809 -6.03906 13.501c-4.03613 3.71484 -9.13672 5.57617 -15.3037 5.57617c-10.8369 0 -19.8379 -5.54297 -27.0107 -16.624l-17.9492 10.3887c5.79395 8.68848 12.1875 15.2354 19.1758 19.6436c6.98828 4.40625 15.9883 6.61328 27.0107 6.61328
c11.0127 0 20.6826 -3.49219 28.998 -10.4805c8.30664 -6.99609 12.46 -16.5293 12.46 -28.6182c0 -6.80078 -1.75977 -13.2891 -5.28711 -19.4561c-3.52734 -6.1748 -10.0078 -14.1104 -19.4561 -23.8037l-30.9775 -31.5439h59.8828v-21.3438h-90.2939v18.8896z
M313.06 334.994h24.3623l-47.7871 -78.5781h31.5449v24.1758h21.1572v-24.1758h15.8701v-20.208h-15.8701v-33.2461h-21.1572v33.2461h-56.668v19.6416zM217.597 96.5869l0.000976562 -33.5908h-13.0605v86.4287h13.0605v-35.6895
c1.86914 3.80664 4.68652 6.80078 8.45996 8.9834c3.77246 2.17383 7.83203 3.26465 12.1895 3.26465c6.99512 0 12.6553 -2.13965 16.9678 -6.4209c4.31445 -4.27148 6.47168 -10.4551 6.47168 -18.543v-38.0234h-13.0615v34.0576
c0 11.4355 -4.74609 17.1465 -14.2285 17.1465c-4.50879 0 -8.44141 -1.49902 -11.7832 -4.49219c-3.3418 -2.99609 -5.0166 -7.36719 -5.0166 -13.1211zM279.883 125.054h13.0605v-12.4873c2.09961 3.8916 4.95801 7.07129 8.5791 9.56738
c3.61035 2.4873 7.44336 3.77344 11.4873 3.84863l0.118164 -13.1787h-0.702148c-6.45508 0 -11.3184 -2.09766 -14.584 -6.30273c-3.26562 -4.19531 -4.89844 -9.83789 -4.89844 -16.9092v-26.5957h-13.0605v62.0576z" />
    <glyph glyph-name="uniF10A" unicode="&#xf10a;" 
d="M481.092 420.062c17.043 0 30.9092 -13.8652 30.9072 -30.9082v-310.821c0 -17.043 -13.8672 -30.9092 -30.9102 -30.9092h-154.26v-22.4883c0 -20.6172 16.7734 -37.3916 37.3906 -37.3916h33.998c6.51758 0 11.8027 -5.28418 11.8027 -11.8027
c0 -6.51953 -5.28516 -11.8027 -11.8027 -11.8027h-284.437c-6.51758 0 -11.8027 5.2832 -11.8027 11.8027c0 6.51855 5.28516 11.8027 11.8027 11.8027h33.9971c20.6172 0 37.3906 16.7744 37.3906 37.3916v22.4893h-154.26c-17.043 0 -30.9092 13.8662 -30.9092 30.9092
v310.82c0 17.043 13.8662 30.9082 30.9092 30.9082h450.183zM195.92 -12.458h120.162c-8.04688 10.335 -12.8574 23.3086 -12.8574 37.3916v22.4893h-94.4473v-22.4893c0 -14.083 -4.81055 -27.0557 -12.8574 -37.3916zM488.395 78.333v62.0332h-464.789v-62.0332
c0 -4.02734 3.27637 -7.30371 7.30371 -7.30371h450.182c4.02832 0 7.30371 3.27734 7.30371 7.30371zM488.395 163.974l0.000976562 225.181c0 4.02734 -3.27734 7.30371 -7.30469 7.30371h-450.181c-4.02832 0 -7.30371 -3.27734 -7.30371 -7.30371v-225.181h464.788z
M243.266 105.694c0 8.49219 4.24609 12.7383 12.7383 12.7383c8.49155 0 12.7373 -4.24609 12.7373 -12.7383s-4.24576 -12.7383 -12.7373 -12.7383c-8.49219 0 -12.7383 4.24609 -12.7383 12.7383zM276.238 338.746c4.60938 -4.61035 4.60938 -12.084 0 -16.6934
l-83.4141 -83.4141c-2.30469 -2.30469 -5.32422 -3.45703 -8.3457 -3.45703c-3.02246 0 -6.04102 1.15234 -8.34766 3.45703c-4.6084 4.61035 -4.6084 12.084 0 16.6934l83.415 83.4141c4.61133 4.6084 12.083 4.6084 16.6924 0zM325.679 290.406
c4.60938 -4.6084 4.60938 -12.083 0 -16.6914l-33.2305 -33.2285c-2.30469 -2.30469 -5.3252 -3.45703 -8.3457 -3.45703s-6.04102 1.15234 -8.3457 3.45703c-4.60938 4.60938 -4.60938 12.083 0 16.6934l33.2295 33.2285
c4.61328 4.60742 12.084 4.60742 16.6924 -0.00195312z" />
    <glyph glyph-name="uniF10D" unicode="&#xf10d;" 
d="M151.451 -64c-7.46973 0 -13.627 5.32324 -14.6514 12.6602l-0.177734 1.21191c-3.52344 24.1426 -8.07031 70.4932 1.24512 109.808l35.3135 149.688c-2.90039 7.21387 -8.4043 23.8311 -8.4043 45.5498c0 47.0742 28.6992 83.9414 65.3359 83.9414
c29.3438 0 49.0518 -21.4404 49.0518 -53.3535c0 -18.083 -6.87988 -40.3916 -14.1719 -64.0117c-3.91211 -12.7051 -7.96875 -25.8213 -10.9473 -38.3809c-2.43359 -10.3154 -0.457031 -20.1631 5.55664 -27.7656c6.41309 -8.10254 16.6396 -12.7383 28.0322 -12.7383
c43.7822 0 78.085 60.8115 78.085 138.463c0 59.6436 -40.5928 96.6914 -105.938 96.6914c-82.7412 0 -127.402 -63.7012 -127.402 -123.636c0 -19.9287 5.05664 -35.1797 15.9287 -47.9629c6.64648 -7.91406 9.43555 -14.0498 6.30176 -25.7432
c-0.755859 -2.84473 -2.02344 -7.83594 -3.21094 -12.5947l-2.53418 -9.94727c-3.37891 -13.0049 -16.4736 -19.6523 -29.0107 -14.5059c-40.415 16.4736 -64.5342 60.5117 -64.5342 117.766c-0.00390625 91.8467 79.3594 186.86 212.152 186.86
c118.443 0 189.215 -87.5996 189.215 -172.286c0 -118.154 -68.5146 -203.908 -162.905 -203.908c-23.5752 0 -47.1621 8.77051 -63.2686 22.4521c-5.10254 -20.1523 -12.3262 -48.5625 -14.5156 -56.5547c-10.9932 -39.8799 -40.1143 -79.8301 -52.1191 -95.1572
c-3.44531 -4.44629 -7.75781 -6.5459 -12.4258 -6.5459zM230.113 316.629c-24.1748 0 -43.1035 -27.0996 -43.1035 -61.7119c0 -23.3311 7.71289 -39.4482 7.80273 -39.6045l1.73535 -3.56738l-0.889648 -3.90234l-36.1562 -153.278
c-5.3584 -22.6406 -6.37012 -52.2539 -3.00098 -84.6865c13.1494 18.4951 30.5449 46.416 38.0693 73.7266c3.35742 12.248 19.5527 76.4385 19.708 77.0957l7.11328 28.1777l13.5166 -25.7217c7.51465 -14.3047 31.5889 -29.1113 58.877 -29.1113
c82.8193 0 140.675 74.7061 140.675 181.68c0 73.7598 -62.4561 150.055 -166.983 150.055c-131.005 0 -189.926 -96.2695 -189.926 -164.628c0 -48.2393 18.1963 -83.4863 49.9414 -96.8799l2.34473 8.99219c1.22266 4.86816 2.52344 10.0029 3.30176 12.9053
c0.5 1.87793 0.555664 2.56836 0.567383 2.75684c-0.0878906 -0.145508 -0.457031 0.623047 -2.37793 2.90039c-14.2393 16.7627 -21.1748 37.1582 -21.1748 62.3125c0 83.1523 64.3242 145.864 149.634 145.864c77.8613 0 128.17 -46.6846 128.17 -118.922
c0 -91.6123 -43.1172 -160.693 -100.314 -160.693c-18.2402 0 -34.8135 7.70312 -45.4619 21.1641c-10.3271 13.0488 -13.7822 29.6328 -9.75977 46.6943c3.14551 13.2822 7.31445 26.7656 11.3486 39.8145c6.78027 21.9756 13.1943 42.7275 13.1943 57.4541
c-0.0292969 9.35156 -2.64258 31.1143 -26.8506 31.1143z" />
    <glyph glyph-name="uniF10B" unicode="&#xf10b;" 
d="M490.46 386.422c13.8896 -13.8887 21.54 -32.3574 21.54 -52.002c0 -19.6436 -7.65137 -38.1113 -21.541 -52.002l-121.618 -121.617c-2.28613 -2.28711 -5.28125 -3.43066 -8.2793 -3.43066c-2.99707 0 -5.99316 1.14355 -8.28027 3.43066
c-4.57324 4.57422 -4.57324 11.9873 0 16.5605l121.617 121.621c9.4668 9.46582 14.6807 22.0527 14.6807 35.4404c0 10.2451 -3.06445 20.0146 -8.73828 28.2812c-1.75488 -12.7432 -7.5127 -25.0332 -17.2881 -34.8076l-142.675 -142.675
c-0.00292969 -0.00195312 -0.00585938 -0.00585938 -0.0078125 -0.0078125c-0.00195312 -0.00292969 -0.00585938 -0.00683594 -0.0078125 -0.00878906l-191.258 -191.257c-0.0136719 -0.015625 -0.0292969 -0.0273438 -0.0439453 -0.0410156
c-0.213867 -0.211914 -0.44043 -0.411133 -0.671875 -0.607422c-0.0673828 -0.0576172 -0.130859 -0.121094 -0.199219 -0.175781c-0.212891 -0.172852 -0.439453 -0.333008 -0.666992 -0.492188c-0.0947266 -0.0664062 -0.185547 -0.139648 -0.28125 -0.203125
c-0.161133 -0.104492 -0.333008 -0.198242 -0.50293 -0.295898c-0.170898 -0.0996094 -0.338867 -0.206055 -0.512695 -0.296875c-0.0986328 -0.0517578 -0.204102 -0.09375 -0.304688 -0.141602c-0.253906 -0.12207 -0.506836 -0.244141 -0.767578 -0.347656
c-0.0771484 -0.0292969 -0.158203 -0.0537109 -0.236328 -0.0830078c-0.288086 -0.106445 -0.578125 -0.208984 -0.87207 -0.292969c-0.0195312 -0.00585938 -0.0361328 -0.0126953 -0.0546875 -0.0185547l-94.1826 -26.4316l-9.31934 -9.31934
c-2.28711 -2.28711 -5.2832 -3.42969 -8.28027 -3.42969s-5.99316 1.14258 -8.28027 3.42969c-4.57227 4.57422 -4.57227 11.9883 0 16.5605l9.32031 9.32031l26.4297 94.1807c0.0117188 0.0400391 0.0273438 0.0761719 0.0390625 0.115234
c0.0605469 0.205078 0.132812 0.40625 0.204102 0.606445c0.0605469 0.172852 0.117188 0.34668 0.18457 0.515625c0.0634766 0.152344 0.137695 0.302734 0.206055 0.454102c0.0957031 0.208008 0.1875 0.416992 0.291992 0.616211
c0.0498047 0.0947266 0.107422 0.183594 0.15918 0.276367c0.140625 0.248047 0.280273 0.494141 0.436523 0.728516c0.0341797 0.0517578 0.0722656 0.0986328 0.106445 0.148438c0.18457 0.268555 0.373047 0.530273 0.577148 0.78125
c0.03125 0.0371094 0.0664062 0.0732422 0.0976562 0.111328c0.21582 0.254883 0.4375 0.504883 0.671875 0.739258c0.0078125 0.00976562 0.0136719 0.0175781 0.0214844 0.0253906l191.265 191.264l0.000976562 0.000976562l0.000976562 0.000976562l142.681 142.68
c11.5439 11.5449 26.8926 17.9023 43.2168 17.9023c16.3203 0 31.6631 -6.35449 43.2051 -17.8916c0.00390625 -0.00292969 0.00878906 -0.00683594 0.0117188 -0.00976562zM40.1035 -8.125l57.7969 16.2197l-41.5771 41.5781zM120.328 18.7871l174.705 174.703
l-53.3135 53.3145l-174.705 -174.704zM445.995 344.454c14.6875 14.6865 14.6982 38.5771 0.0341797 53.2803l-0.0341797 0.0341797l-0.0107422 0.0117188c-7.11816 7.1123 -16.5811 11.0303 -26.6455 11.0303c-10.0693 0 -19.5381 -3.92188 -26.6562 -11.042
l-134.403 -134.402l53.3145 -53.3135z" />
    <glyph glyph-name="uniF107" unicode="&#xf107;" 
d="M486.4 448c14.5059 0 25.5996 -11.0938 25.5996 -25.5996v-315.733v-76.8008c0 -5.11914 -3.41309 -8.5332 -8.5332 -8.5332h-170.667v-85.333h-17.0664v85.333h-119.467v-85.333h-17.0664v85.333h-170.667c-5.12012 0 -8.5332 3.41406 -8.5332 8.5332v76.8008v315.733
c0 14.5059 11.0938 25.5996 25.5996 25.5996h460.801zM17.0664 422.4v-307.2h477.867v307.2c0 5.11914 -3.41406 8.5332 -8.5332 8.5332h-460.801c-5.11914 0 -8.5332 -3.41406 -8.5332 -8.5332zM494.934 38.4004v59.7324h-477.867v-59.7324h170.667h136.533h170.667z
M443.733 379.733c5.12012 0 8.5332 -3.41309 8.5332 -8.5332v-51.2002c0 -5.12012 -3.41309 -8.5332 -8.5332 -8.5332h-51.2002c-5.12012 0 -8.5332 3.41309 -8.5332 8.5332v17.0664h-53.7598c17.0664 -13.6533 28.1602 -35.8398 28.1602 -59.7334v-51.1992h17.0664
c5.12012 0 8.5332 -3.41406 8.5332 -8.53418v-51.1992c0 -5.12012 -3.41309 -8.53418 -8.5332 -8.53418h-51.2002c-5.12012 0 -8.5332 3.41406 -8.5332 8.53418v51.1992c0 5.12012 3.41309 8.53418 8.5332 8.53418h17.0664v51.1992
c0 29.8672 -22.1865 54.6133 -51.1992 58.8799v-16.2129c0 -5.12012 -3.41406 -8.5332 -8.53418 -8.5332h-51.1992c-5.12012 0 -8.53418 3.41309 -8.53418 8.5332v16.2129c-29.0127 -4.2666 -51.1992 -28.1592 -51.1992 -58.8799v-51.1992h17.0664
c5.12012 0 8.5332 -3.41406 8.5332 -8.53418v-51.1992c0 -5.12012 -3.41309 -8.53418 -8.5332 -8.53418h-51.2002c-5.12012 0 -8.5332 3.41406 -8.5332 8.53418v51.1992c0 5.12012 3.41309 8.53418 8.5332 8.53418h17.0664v51.1992
c0 23.8936 11.0938 46.0801 28.1602 59.7334h-53.7598v-17.0664c0 -5.12012 -3.41309 -8.5332 -8.5332 -8.5332h-51.2002c-5.12012 0 -8.5332 3.41309 -8.5332 8.5332v51.2002c0 5.12012 3.41309 8.5332 8.5332 8.5332h51.2002c5.12012 0 8.5332 -3.41309 8.5332 -8.5332
v-17.0664h93.8662v17.0664c0 5.12012 3.41406 8.5332 8.53418 8.5332h51.1992c5.12012 0 8.53418 -3.41309 8.53418 -8.5332v-17.0664h93.8662v17.0664c0 5.12012 3.41309 8.5332 8.5332 8.5332h51.2002zM110.934 328.533v34.1338h-34.1338v-34.1338h34.1338zM179.2 174.934
v34.1328h-34.1338v-34.1328h34.1338zM273.066 328.533v34.1338h-34.1328v-34.1338h34.1328zM366.934 174.934v34.1328h-34.1338v-34.1328h34.1338zM435.2 328.533v34.1338h-34.1338v-34.1338h34.1338zM247.467 337.066v17.0674h17.0664v-17.0674h-17.0664zM409.6 337.066
v17.0674h17.0674v-17.0674h-17.0674zM85.333 337.066v17.0674h17.0674v-17.0674h-17.0674zM153.6 183.467v17.0664h17.0674v-17.0664h-17.0674zM341.333 183.467v17.0664h17.0674v-17.0664h-17.0674z" />
    <glyph glyph-name="uniF100" unicode="&#xf100;" 
d="M357.586 391.004c23.0488 -23.9023 33.293 -52.0732 35.001 -70l0.852539 -9.39062h-274.879l0.852539 9.39062c2.18359 27.291 19.7246 64.7021 56.4141 88.1348l-12.877 27.1094c-1.70605 4.26758 0 9.38965 4.26855 11.0977
c4.26758 1.70703 9.38965 0 11.0977 -4.26855l12.2617 -25.8145c18.2158 8.56348 40.1992 13.8613 66.2754 13.8613c25.7793 0 46.8516 -5.82031 63.6963 -13.9014l12.2793 25.8535c1.70703 4.26855 6.8291 5.97559 11.0977 4.26855s5.97656 -6.8291 4.26855 -11.0977
l-12.9414 -27.2432c9.06738 -5.8418 16.4785 -12.1465 22.332 -18zM138.193 328.687l236.465 -0.000976562c-4.92871 20.8135 -21.1045 50.0586 -51.6807 68.3496c-0.761719 0.0810547 -1.58594 0.283203 -2.09961 0.796875
c-1.11621 0.447266 -2.05273 1.13184 -2.80469 1.9707c-16.25 8.6582 -36.2324 14.25 -60.3662 14.25c-75.9766 0 -111.83 -48.6592 -119.514 -85.3662zM59.6572 294.539c23.9023 0 42.6826 -18.7803 42.6836 -42.6826v-119.515
c0 -23.9023 -18.7812 -42.6836 -42.6836 -42.6836c-23.9033 0 -42.6836 18.7822 -42.6836 42.6836v119.514c0 23.9033 18.7812 42.6836 42.6836 42.6836zM85.2676 132.344v119.513c0 14.5127 -11.0977 25.6104 -25.6104 25.6104s-25.6104 -11.0977 -25.6104 -25.6104
v-119.513c0 -14.5127 11.0977 -25.6104 25.6104 -25.6104s25.6104 11.0977 25.6104 25.6104zM452.343 294.539c23.9023 0 42.6836 -18.7803 42.6836 -42.6826v-119.515c0 -23.9023 -18.7803 -42.6836 -42.6836 -42.6836s-42.6836 18.7822 -42.6836 42.6836v119.514
c0 23.9033 18.7812 42.6836 42.6836 42.6836zM477.953 132.344v119.513c0 14.5127 -11.0977 25.6104 -25.6104 25.6104s-25.6104 -11.0977 -25.6104 -25.6104v-119.513c0 -14.5127 11.0977 -25.6104 25.6104 -25.6104s25.6104 11.0977 25.6104 25.6104zM119.413 46.9775
v247.562h273.172v-247.562h-34.1465v-76.8301c0 -18.7803 -15.3662 -34.1465 -34.1465 -34.1465s-34.1465 15.3662 -34.1465 34.1465v76.8301h-68.293v-76.8301c0 -18.7803 -15.3662 -34.1465 -34.1465 -34.1465s-34.1465 15.3662 -34.1465 34.1465v76.8301h-34.1465z
M136.487 277.467l-0.000976562 -213.416h34.1455v-93.9033c0 -9.39062 7.68359 -17.0742 17.0742 -17.0742s17.0732 7.68359 17.0732 17.0742v93.9033h102.44v-93.9033c0 -9.39062 7.68262 -17.0742 17.0732 -17.0742s17.0742 7.68359 17.0742 17.0742v93.9033h34.1455
v213.416h-239.025zM213.317 379.906c9.38965 0 17.0723 -7.68262 17.0732 -17.0732c0 -9.39062 -7.68262 -17.0742 -17.0732 -17.0742c-9.3916 0 -17.0742 7.68359 -17.0742 17.0742s7.68262 17.0732 17.0742 17.0732zM298.684 379.906
c9.39062 0 17.0732 -7.68262 17.0732 -17.0732s-7.68262 -17.0742 -17.0732 -17.0742c-9.3916 0 -17.0742 7.68359 -17.0742 17.0742s7.68262 17.0732 17.0742 17.0732z" />
    <glyph glyph-name="uniF114" unicode="&#xf114;" 
d="M173.201 -8.90039c-49.6592 0 -98.8564 13.7461 -142.256 39.7441l-30.9453 18.5303l36.0586 -0.607422c1.16797 -0.0585938 3.04883 -0.154297 6.00977 -0.154297c13.7266 0 57.4541 2.20898 102.29 27.5107c-33.7041 10.0215 -61.5537 36.0762 -73.0225 70.1875
l-5.68164 16.8896l15.4736 -4.02246c-24.7998 19.0518 -41.0254 48.3379 -42.8008 80.9814l-0.849609 15.626l14.3447 -6.26074c2.61426 -1.14746 5.27539 -2.16113 7.97754 -3.03809c-20.373 28.5156 -32.7012 72.5791 -6.99316 119.383l7.08008 12.8984l8.99902 -11.6436
c43.1201 -55.7471 107.056 -89.7402 176.779 -94.4082c-0.424805 4.33203 -0.723633 8.31543 -0.723633 9.55957c0 51.7441 39.376 105.262 105.262 105.262c27.6572 0 54.2803 -10.9873 73.8926 -30.3281c26.2861 6.17383 51.4053 21.501 51.6758 21.666l22.7842 14.0264
l-8.60449 -25.3408c-4.12891 -12.1348 -10.418 -23.3154 -18.4824 -33.0771c4.39844 1.4375 8.71973 3.08691 13.167 5.02441l27.3672 13.3711l-11.499 -24.6953c-9.49219 -20.4023 -25.3203 -37.2354 -44.9805 -48c4.32129 -67.5342 -23.4502 -142.882 -73.4082 -198.215
c-37.0811 -41.084 -103.12 -90.1826 -207.155 -90.8496zM71.8066 31.5283c32.1611 -13.8809 66.6562 -21.126 101.384 -21.126l1.64941 0.00878906c97.0039 0.617188 158.479 46.2832 192.956 84.4824c48.0771 53.2588 74.1426 126.078 68.0068 190.052l-0.646484 6.79102
l6.17285 2.87402c9.79102 4.5625 18.5596 10.8994 25.9199 18.6074c-8.2373 -2.08301 -17.0254 -3.63672 -27.1553 -4.86133l-7.39844 -0.898438l-5.76758 14.624l6.71387 5.1709c9.4043 5.50879 17.6045 12.6846 24.2314 21.0869
c-10.4863 -4.4668 -22.8623 -8.83594 -35.2383 -11.1416l-5.28613 -0.984375l-3.61719 3.97461c-16.2646 17.8457 -39.4062 28.0703 -63.5215 28.0703c-53.8076 0 -85.9688 -43.707 -85.9688 -85.9678c0 -2.55664 1.27246 -14.1904 1.72559 -17.1807l4.37988 -12.4531
l-13.9287 0.298828c-74.6631 1.61035 -144.126 34.3311 -192.889 90.3291c-19.293 -50.6641 13.1006 -91.1396 28.5723 -103.265l22.6211 -17.7393l-28.7373 0.500977c-9 0.154297 -17.8076 1.37988 -26.3447 3.65625c7.5918 -33.8584 34.3506 -61.0615 69.1152 -68.5273
l38.0557 -8.17969l-37.4668 -10.5449c-6.53125 -1.83203 -13.9395 -2.75879 -22.0225 -2.75879c-3.78027 0 -7.39746 0.203125 -10.7363 0.511719c15.0684 -26.5273 43.1289 -44.3545 74.1709 -45.8682l27.126 -1.33203l-21.875 -16.0762
c-37.4951 -27.5791 -76.3896 -38.1992 -104.201 -42.1348z" />
    <glyph glyph-name="uniF102" unicode="&#xf102;" 
d="M437.521 202.813c3.26953 -2.74707 5.17188 -6.79492 5.17285 -11.0625c0 -4.26953 -1.87012 -8.31934 -5.13965 -11.0654l-287.181 -241.3c-2.65625 -2.22949 -5.89062 -3.38574 -9.22852 -3.38574c-2.07031 0 -4.01562 0.446289 -5.96387 1.35352
c-5.09277 2.37207 -8.07324 7.48047 -8.07324 13.0977v482.599c0 5.61719 2.98145 10.7256 8.07324 13.0986c5.09375 2.37109 10.8223 1.57715 15.125 -2.03516zM156.01 -18.5391l250.3 210.289l-250.3 210.285v-420.574zM83.7568 448
c7.98145 0 14.4502 -6.46875 14.4502 -14.4502v-482.645c0 -7.98145 -6.46875 -14.4502 -14.4502 -14.4502c-7.98047 0 -14.4492 6.46875 -14.4492 14.4502v482.645c0 7.98145 6.46875 14.4502 14.4492 14.4502z" />
    <glyph glyph-name="uniF10C" unicode="&#xf10c;" 
d="M503.173 395.034c4.87207 0 8.82715 -3.94531 8.82715 -8.82715v-388.414c0 -4.88184 -3.95508 -8.82715 -8.82715 -8.82715h-494.346c-4.87207 0 -8.82715 3.94531 -8.82715 8.82715v388.414c0 4.88184 3.95508 8.82715 8.82715 8.82715h494.346zM494.345 6.62109
v370.758h-476.689v-370.758h476.689zM141.241 199.609c-27.1094 0 -49.1611 22.0518 -49.1611 49.1611s22.0518 49.1602 49.1611 49.1602s49.1611 -22.0508 49.1611 -49.1689c0 -27.1006 -22.0518 -49.1523 -49.1611 -49.1523zM141.241 280.275
c-17.3721 0 -31.5059 -14.1504 -31.5059 -31.5137c0 -17.3643 14.1338 -31.4971 31.5059 -31.4971c17.373 0 31.5059 14.1416 31.5059 31.5059c0 17.3633 -14.1328 31.5049 -31.5059 31.5049zM61.793 41.9307c-2.44531 0 -4.88184 1.00684 -6.62891 2.99316
c-3.22266 3.66309 -2.86914 9.24219 0.793945 12.4639l150.219 132.265c3.49609 3.07129 8.77539 2.90332 12.0762 -0.388672l41.8691 -41.8691l86.458 94.6934c1.58008 1.73047 3.78711 2.7627 6.12598 2.86914c2.32227 0.0527344 4.62598 -0.733398 6.35645 -2.31348
l105.931 -97.1035c3.60156 -3.29199 3.83984 -8.87988 0.546875 -12.4727c-3.29199 -3.59277 -8.87988 -3.84082 -12.4727 -0.547852l-99.4082 91.127l-81.0459 -88.752l42.4346 -42.4346c3.45117 -3.45117 3.45117 -9.03027 0 -12.4824
c-3.45215 -3.45117 -9.03125 -3.45117 -12.4824 0l-90.9414 90.9336l-144.005 -126.782c-1.67676 -1.47363 -3.76074 -2.19824 -5.82617 -2.19824z" />
    <glyph glyph-name="uniF10F" unicode="&#xf10f;" 
d="M59.7334 115.2c18.8242 0 34.1328 -15.3086 34.1328 -34.1338c0 -18.8242 -15.3086 -34.1328 -34.1328 -34.1328s-34.1338 15.3086 -34.1338 34.1328c0 18.8252 15.3096 34.1338 34.1338 34.1338zM59.7334 64c9.41211 0 17.0664 7.6543 17.0664 17.0664
s-7.6543 17.0664 -17.0664 17.0664s-17.0664 -7.6543 -17.0664 -17.0664s7.6543 -17.0664 17.0664 -17.0664zM477.867 123.733c4.70996 0 8.5332 -3.81445 8.5332 -8.5332v-34.1338c0 -4.71875 -3.82324 -8.5332 -8.5332 -8.5332
c-4.71094 0 -8.53418 3.81445 -8.53418 8.5332v34.1338c0 4.71875 3.82324 8.5332 8.53418 8.5332zM477.867 64c4.70996 0 8.5332 -3.81445 8.5332 -8.5332v-8.5332c0 -4.71875 -3.82324 -8.5332 -8.5332 -8.5332c-4.71094 0 -8.53418 3.81445 -8.53418 8.5332v8.5332
c0 4.71875 3.82324 8.5332 8.53418 8.5332zM307.2 396.8c4.70996 0 8.5332 -3.81445 8.5332 -8.5332s-3.82324 -8.5332 -8.5332 -8.5332h-8.5332c-4.71094 0 -8.5332 3.81445 -8.5332 8.5332s3.82227 8.5332 8.5332 8.5332h8.5332zM435.2 396.8h8.5332
c4.70996 0 8.5332 -3.81445 8.5332 -8.5332s-3.82324 -8.5332 -8.5332 -8.5332h-8.5332c-4.71094 0 -8.5332 3.81445 -8.5332 8.5332s3.82227 8.5332 8.5332 8.5332zM469.333 396.8h8.53418c4.70996 0 8.5332 -3.81445 8.5332 -8.5332s-3.82324 -8.5332 -8.5332 -8.5332
h-8.53418c-4.70996 0 -8.5332 3.81445 -8.5332 8.5332s3.82324 8.5332 8.5332 8.5332zM341.333 396.8c4.71094 0 8.53418 -3.81445 8.53418 -8.5332s-3.82324 -8.5332 -8.53418 -8.5332h-8.5332c-4.70996 0 -8.5332 3.81445 -8.5332 8.5332s3.82324 8.5332 8.5332 8.5332
h8.5332zM401.066 396.8h8.5332c4.71094 0 8.53418 -3.81445 8.53418 -8.5332s-3.82324 -8.5332 -8.53418 -8.5332h-8.5332c-4.70996 0 -8.5332 3.81445 -8.5332 8.5332s3.82324 8.5332 8.5332 8.5332zM375.467 396.8c4.70996 0 8.5332 -3.81445 8.5332 -8.5332
s-3.82324 -8.5332 -8.5332 -8.5332h-8.5332c-4.71094 0 -8.5332 3.81445 -8.5332 8.5332s3.82227 8.5332 8.5332 8.5332h8.5332zM273.066 396.8c4.71094 0 8.5332 -3.81445 8.5332 -8.5332s-3.82227 -8.5332 -8.5332 -8.5332h-8.5332
c-4.70996 0 -8.5332 3.81445 -8.5332 8.5332s3.82324 8.5332 8.5332 8.5332h8.5332zM511.138 196.412c0.520508 -1.10156 0.862305 -2.30469 0.862305 -3.60156v-4.2666v-214.955c0 -20.7188 -16.8623 -37.5889 -37.5977 -37.5889h-436.813
c-20.7266 0 -37.5889 16.8701 -37.5889 37.5977v214.946c0 20.7188 16.8623 37.5898 37.5889 37.5898h194.108c1.48438 2.5 4.10449 4.2666 7.22754 4.2666c3.14844 0 5.82812 -1.74121 7.30469 -4.2666h20.3262h7.79102h23.3555h7.79102h23.3555h7.79102h23.3564h7.79102
h23.3555h7.78223h23.3643h7.78223h23.3564h7.79004h13.1934c4.20605 0 8.18262 -0.853516 11.9717 -2.13379c0.307617 -0.0771484 0.614258 -0.0341797 0.921875 -0.145508c0.375 -0.135742 0.725586 -0.332031 1.10059 -0.486328
c0.503906 -0.204102 0.981445 -0.43457 1.47656 -0.65625c1.63867 -0.750977 3.2168 -1.60449 4.73535 -2.57715c0.102539 -0.0683594 0.213867 -0.111328 0.316406 -0.179688v6.75879c0 4.71875 3.82227 8.5332 8.5332 8.5332c4.70996 0 8.5332 -3.81445 8.5332 -8.5332
v-8.47363c0 -4.11328 -2.96973 -7.38965 -6.84375 -8.19238c2.83301 -4.04492 4.91504 -8.64453 5.98145 -13.6357zM243.2 209.066h-12.7998h-110.934v-256h324.267v256h-13.6621h-7.78223h-23.3643h-7.78223h-23.3555h-7.79102h-23.3564h-7.79102h-23.3555h-7.79102
h-23.3555h-7.79102h-23.3555zM17.0664 -26.4111c0 -11.3145 9.20801 -20.5225 20.5225 -20.5225h64.8115v256h-64.8115c-11.3145 0 -20.5225 -9.20703 -20.5225 -20.5225v-214.955zM494.934 -26.4111v214.955c0 6.97168 -3.50781 13.1162 -8.83203 16.8281
c-1.33984 0.929688 -2.78223 1.67188 -4.29199 2.26074c-2.30469 0.896484 -4.7793 1.43359 -7.39844 1.43359h-13.1934h-0.417969v-256h13.6113c11.3145 0 20.5225 9.20801 20.5225 20.5225zM494.934 252.16v8.47363c0 4.71875 3.82227 8.5332 8.5332 8.5332
c4.70996 0 8.5332 -3.81445 8.5332 -8.5332v-8.47363c0 -4.71875 -3.82324 -8.5332 -8.5332 -8.5332c-4.71094 0 -8.5332 3.81445 -8.5332 8.5332zM494.934 319.982v8.47461c0 4.71875 3.82227 8.5332 8.5332 8.5332c4.70996 0 8.5332 -3.81445 8.5332 -8.5332v-8.47363
c0 -4.71973 -3.82324 -8.53418 -8.5332 -8.53418c-4.71094 0 -8.5332 3.81445 -8.5332 8.5332zM398.532 430.934c-4.70996 0 -8.5332 3.81445 -8.5332 8.5332s3.82324 8.5332 8.5332 8.5332h8.48242c4.70996 0 8.5332 -3.81445 8.5332 -8.5332
s-3.82324 -8.5332 -8.5332 -8.5332h-8.48242zM466.363 430.934c-4.70996 0 -8.52441 3.81445 -8.52441 8.5332s3.82324 8.5332 8.5332 8.5332h8.04688c4.71094 0 8.74707 -3.81445 8.74707 -8.5332s-3.60938 -8.5332 -8.32031 -8.5332h-8.48242zM432.452 430.934
c-4.71875 0 -8.5332 3.81445 -8.5332 8.5332s3.82324 8.5332 8.5332 8.5332h8.47363c4.71094 0 8.5332 -3.81445 8.5332 -8.5332s-3.82227 -8.5332 -8.5332 -8.5332h-8.47363zM493.397 418.201c-0.750977 1.85254 -1.77539 3.57617 -3.04688 5.1377
c-2.96875 3.65234 -2.40625 9.02832 1.25488 11.998c3.66113 2.96875 9.02832 2.42285 12.0059 -1.24609c2.3125 -2.85059 4.19043 -6.02441 5.58105 -9.4043c1.7832 -4.36816 -0.298828 -9.35254 -4.65918 -11.1357
c-1.05762 -0.443359 -2.15918 -0.639648 -3.23438 -0.639648c-3.36133 0 -6.54492 1.98828 -7.90137 5.29004zM503.467 345.361c-4.71094 0 -8.5332 3.81445 -8.5332 8.5332v8.48242c0 4.71875 3.82227 8.5332 8.5332 8.5332c4.70996 0 8.5332 -3.81445 8.5332 -8.5332
v-8.48242c0 -4.71875 -3.82324 -8.5332 -8.5332 -8.5332zM494.934 286.062v8.47363c0 4.71973 3.82227 8.53418 8.5332 8.53418c4.70996 0 8.5332 -3.81445 8.5332 -8.53418v-8.47363c0 -4.71875 -3.82324 -8.5332 -8.5332 -8.5332
c-4.71094 0 -8.5332 3.81445 -8.5332 8.5332zM503.467 404.812c4.70996 0 8.5332 -3.81445 8.5332 -8.5332v-8.47363c0 -4.71875 -3.82324 -8.5332 -8.5332 -8.5332c-4.71094 0 -8.5332 3.81445 -8.5332 8.5332v8.47363c0 4.71875 3.82227 8.5332 8.5332 8.5332z
M238.934 340.685c-4.71094 0 -8.5332 3.81445 -8.5332 8.5332v8.47363c0 4.71973 3.82227 8.5332 8.5332 8.5332c4.70996 0 8.5332 -3.81348 8.5332 -8.5332v-8.47363c0 -4.71875 -3.82324 -8.5332 -8.5332 -8.5332zM238.934 306.765
c-4.71094 0 -8.5332 3.81445 -8.5332 8.5332v8.48242c0 4.71875 3.82227 8.5332 8.5332 8.5332c4.70996 0 8.5332 -3.81445 8.5332 -8.5332v-8.48242c0 -4.71875 -3.82324 -8.5332 -8.5332 -8.5332zM238.934 238.941c-4.71094 0 -8.5332 3.81445 -8.5332 8.53418v8.47363
c0 4.71875 3.82227 8.5332 8.5332 8.5332c4.70996 0 8.5332 -3.81445 8.5332 -8.5332v-8.47363c0 -4.71973 -3.82324 -8.53418 -8.5332 -8.53418zM364.621 430.934c-4.71094 0 -8.5332 3.81445 -8.5332 8.5332s3.82227 8.5332 8.5332 8.5332h8.48145
c4.71094 0 8.53418 -3.81445 8.53418 -8.5332s-3.82324 -8.5332 -8.53418 -8.5332h-8.48145zM238.934 374.597c-4.71094 0 -8.5332 3.82227 -8.5332 8.54102v8.47363c0 4.71973 3.82227 8.53418 8.5332 8.53418c4.70996 0 8.5332 -3.81445 8.5332 -8.53418v-8.48145
c0 -4.71973 -3.82324 -8.5332 -8.5332 -8.5332zM238.934 272.854c-4.71094 0 -8.5332 3.81445 -8.5332 8.5332v8.48242c0 4.71875 3.82227 8.5332 8.5332 8.5332c4.70996 0 8.5332 -3.81445 8.5332 -8.5332v-8.48242c0 -4.71875 -3.82324 -8.5332 -8.5332 -8.5332z
M330.709 430.934c-4.70996 0 -8.5332 3.81445 -8.5332 8.5332s3.82324 8.5332 8.5332 8.5332h8.47363c4.71094 0 8.53418 -3.81445 8.53418 -8.5332s-3.82324 -8.5332 -8.53418 -8.5332h-8.47363zM296.789 430.934c-4.70996 0 -8.5332 3.81445 -8.5332 8.5332
s3.82324 8.5332 8.5332 8.5332h8.48242c4.70996 0 8.5332 -3.81445 8.5332 -8.5332s-3.82324 -8.5332 -8.5332 -8.5332h-8.48242zM237.756 408.679c-4.59082 1.06641 -7.44922 5.64844 -6.3916 10.2393c0.828125 3.56738 2.17578 6.98926 4.00195 10.1807
c2.33789 4.07031 7.56055 5.49512 11.6484 3.14844c4.08691 -2.33789 5.50391 -7.56055 3.15723 -11.6475c-0.990234 -1.73242 -1.72363 -3.58398 -2.17578 -5.5293c-0.913086 -3.93457 -4.4209 -6.60547 -8.30371 -6.60547
c-0.639648 0 -1.28809 0.0595703 -1.93652 0.213867zM262.903 430.489c-4.06152 0 -7.66309 2.91016 -8.40527 7.05762c-0.819336 4.6416 2.27832 9.0625 6.9209 9.88184c2.15039 0.383789 4.36035 0.571289 6.57031 0.571289h3.37109
c4.70996 0 8.5332 -3.81445 8.5332 -8.5332s-3.82324 -8.5332 -8.5332 -8.5332h-3.37109c-1.21973 0 -2.42383 -0.111328 -3.59277 -0.307617c-0.50293 -0.09375 -0.998047 -0.136719 -1.49316 -0.136719zM34.1338 260.267c-4.71094 0 -8.53418 3.81445 -8.53418 8.5332
c0 61.167 49.7666 110.934 110.934 110.934h22.0674l-36.6338 36.6338c-3.33594 3.33594 -3.33594 8.72949 0 12.0654c3.33691 3.33691 8.72949 3.33691 12.0664 0l51.1914 -51.1914c0.793945 -0.78418 1.41602 -1.73145 1.85156 -2.78125
c0.862305 -2.08203 0.862305 -4.4375 0 -6.51953c-0.435547 -1.0498 -1.05762 -1.99707 -1.85156 -2.78223l-51.1914 -51.1914c-1.66406 -1.66406 -3.84863 -2.5 -6.0332 -2.5s-4.36914 0.835938 -6.0332 2.5c-3.33594 3.33691 -3.33594 8.72949 0 12.0664l36.6338 36.6338
h-22.0674c-51.7549 0 -93.8662 -42.1123 -93.8662 -93.8672c0 -4.71875 -3.82324 -8.5332 -8.5332 -8.5332z" />
    <glyph glyph-name="uniF105" unicode="&#xf105;" 
d="M296.309 -64h-110.177v229.561h-60.6953v105.428h60.6934v59.2002c0 54.3496 34.0029 117.812 129.875 117.812c33.7969 0 58.6084 -3.16699 59.6455 -3.30371l10.1719 -1.32227l-2.44922 -98.6621l-11.209 0.103516c-0.0234375 0 -25.21 0.239258 -52.6855 0.239258
c-20.4473 0 -23.1592 -5.04688 -23.1592 -25.1182v-48.9717h90.2422l-5 -105.427h-85.2314v-229.538h-0.0214844zM208.9 -41.2168h64.6123v229.549h86.2793l2.84863 59.8721h-89.1279v71.7559c0 23.6943 5.45605 47.9014 45.9414 47.9014
c16.2676 0 31.7256 -0.0800781 41.6689 -0.160156l1.37891 55.4648c-10.0586 0.900391 -26.793 2.05078 -46.5225 2.05078c-78.9531 0 -107.091 -49.0859 -107.091 -95.0283v-81.9844h-60.6914v-59.8721h60.6934v-229.549h0.00976562z" />
    <glyph glyph-name="uniF112" unicode="&#xf112;" 
d="M375.035 222.876c7.25879 -18.3662 10.9404 -37.7617 10.9404 -57.6533c0 -86.4619 -70.3418 -156.803 -156.803 -156.803c-86.4697 0 -156.815 70.3418 -156.815 156.804s70.3486 156.804 156.816 156.804c19.9668 0 39.4092 -3.70703 57.7832 -11.0195
c6.19824 -2.46582 9.22363 -9.49023 6.75684 -15.6885c-2.4668 -6.19727 -9.49219 -9.22656 -15.6885 -6.75684c-15.5205 6.1748 -31.9561 9.30566 -48.8525 9.30566c-73.1465 0 -132.658 -59.5049 -132.658 -132.646c0 -73.1396 59.5117 -132.645 132.658 -132.645
c73.1426 0 132.646 59.5049 132.646 132.645c0 16.8369 -3.11133 33.2451 -9.25 48.7705c-2.45215 6.2041 0.587891 13.2217 6.79199 15.6748c6.20605 2.4502 13.2227 -0.587891 15.6748 -6.79199zM449.506 228.393c5.85547 -20.4639 8.82422 -41.7168 8.82422 -63.1689
c0 -126.366 -102.8 -229.173 -229.158 -229.173c-126.366 0 -229.172 102.808 -229.172 229.173c0 126.366 102.806 229.173 229.172 229.174c21.502 0 42.7949 -2.98438 63.2842 -8.86816c6.41309 -1.83984 10.1182 -8.53027 8.27734 -14.9434
s-8.53027 -10.1172 -14.9434 -8.27734c-18.3223 5.26172 -37.3721 7.92871 -56.6182 7.92871c-113.045 0 -205.013 -91.9678 -205.013 -205.013s91.9688 -205.014 205.013 -205.014c113.037 0 204.999 91.9697 204.999 205.014c0 19.2021 -2.65527 38.2207 -7.89062 56.5225
c-1.83496 6.41309 1.87598 13.0996 8.29004 14.9355c6.41797 1.83105 13.1006 -1.87598 14.9355 -8.29004zM313.278 172.599c0.217773 -2.42969 0.328125 -4.91309 0.329102 -7.37402c0 -46.5576 -37.877 -84.4336 -84.4346 -84.4336
c-46.5645 0 -84.4492 37.876 -84.4492 84.4336c0 46.5664 37.8848 84.4482 84.4492 84.4482c2.59375 0 5.15918 -0.115234 7.62305 -0.341797c6.64355 -0.614258 11.5322 -6.49512 10.9199 -13.1377c-0.613281 -6.64453 -6.48926 -11.5303 -13.1377 -10.9199
c-1.73145 0.158203 -3.54883 0.239258 -5.40625 0.239258c-33.2441 0 -60.2891 -27.0449 -60.291 -60.29c0 -33.2344 27.0459 -60.2744 60.29 -60.2744c33.2354 0 60.2754 27.0381 60.2754 60.2744c0 1.74902 -0.078125 3.50879 -0.231445 5.22852
c-0.59375 6.64453 4.31348 12.5127 10.958 13.1055c6.64258 0.567383 12.5127 -4.3125 13.1055 -10.958zM510.149 366.736c3.75195 -9.05762 1.69531 -19.3887 -5.24023 -26.3232l-70.377 -70.3789c-6.83984 -6.83984 -15.9395 -10.6084 -25.6182 -10.6084h-68.3555
l-98.1709 -98.1709c-2.35742 -2.3584 -5.4502 -3.53809 -8.54102 -3.53809s-6.18262 1.17969 -8.54102 3.53809c-4.7168 4.71777 -4.7168 12.3672 0 17.084l98.1699 98.1699v68.3555c0 9.67871 3.76758 18.7764 10.6094 25.6182l70.376 70.377
c6.93359 6.93359 17.2666 8.99023 26.3252 5.23828c9.06152 -3.75293 14.918 -12.5156 14.918 -22.3252v-42.1182h42.1191c9.80859 0 18.5732 -5.85645 22.3262 -14.918zM347.635 344.865l-0.000976562 -44.1992l73.9111 73.9111v49.1875l-70.376 -70.3652
c-2.27832 -2.27734 -3.5332 -5.30957 -3.53418 -8.53418zM417.45 287.118l70.3701 70.3701l-49.1924 0.00585938l-73.9092 -73.9092h44.1963c3.17871 0 6.29102 1.28906 8.53516 3.5332z" />
    <glyph glyph-name="uniF115" unicode="&#xf115;" 
d="M234.452 406.626l275.824 41.374v-249.105h-275.824v207.731zM493.038 216.134v211.18l-241.347 -35.3398v-175.84h241.347zM1.72461 196.309v176.701l215.488 31.8926v-208.594h-215.488zM18.9639 358.356v-144.809h181.01v171.529zM234.452 -22.627v201.698h275.824
v-243.072zM251.691 161.832v-169.805l241.347 -36.2021v206.007h-241.347zM1.72461 10.9893v168.082h215.488v-199.975zM18.9639 161.832v-136.188l181.01 -26.7207v162.909h-181.01z" />
    <glyph glyph-name="uniF101" unicode="&#xf101;" 
d="M183.93 8.06543c-14.5488 0 -28.2168 5.67188 -38.4844 15.9404l-130.943 131.064c-2.0332 2.20215 -3.80957 4.45117 -5.3584 6.78418c-0.701172 1.04102 -1.31934 2.21289 -1.92285 3.3877l-0.917969 1.69336c-0.787109 1.37988 -1.54883 2.78125 -2.16504 4.28125
c-0.615234 1.5 -1.07617 3.05957 -1.51074 4.64453l-0.458984 1.53516c-0.43457 1.29492 -0.833984 2.6123 -1.10059 3.96777c-0.689453 3.46973 -1.05273 7.02637 -1.06543 10.5459c0 3.5791 0.363281 7.1709 1.06543 10.7393
c0.242188 1.24609 0.617188 2.50293 1.04004 3.74902l0.533203 1.78906c0.43457 1.54883 0.881836 3.07129 1.49902 4.57129c0.642578 1.53516 1.37988 2.89062 2.1416 4.24512l0.882812 1.65625c0.617188 1.20996 1.24609 2.40625 2.01953 3.55469
c1.83789 2.77051 3.94238 5.35742 6.22852 7.72852l0.533203 0.543945l129.518 129.507c10.2803 10.2803 23.9463 15.9404 38.4834 15.9404c14.5488 0 28.2158 -5.66016 38.4834 -15.9521c10.2803 -10.2676 15.9414 -23.9346 15.9414 -38.4834
c0 -14.5371 -5.66113 -28.2031 -15.9414 -38.4834l-36.5977 -36.5986h271.747c30.0059 0 54.4248 -24.4189 54.4248 -54.4248s-24.4189 -54.4248 -54.4248 -54.4248h-271.763l36.6094 -36.6094c10.2812 -10.2803 15.9414 -23.9346 15.9414 -38.4834
s-5.66016 -28.2031 -15.9414 -38.4834c-10.291 -10.2676 -23.959 -15.9258 -38.4961 -15.9258zM33.7432 169.911l128.815 -128.791c11.418 -11.418 31.3252 -11.4424 42.7539 0c5.70801 5.7207 8.85254 13.3037 8.85254 21.3828s-3.14453 15.6631 -8.85254 21.3838
l-77.8984 77.8984h330.15c16.6787 0 30.2354 13.5566 30.2354 30.2354c0 16.666 -13.5566 30.2354 -30.2354 30.2354h-330.15l77.8984 77.8877c5.70801 5.70801 8.85254 13.3047 8.85254 21.3838c0 8.07812 -3.14453 15.6738 -8.85254 21.3828
c-11.4053 11.418 -31.3359 11.4287 -42.7539 0l-129.506 -129.518c-1.42676 -1.42578 -2.67188 -2.96387 -3.77344 -4.6084l-1.9834 -3.71289c-0.290039 -0.507812 -0.592773 -1.00293 -0.822266 -1.53516c-0.205078 -0.508789 -0.349609 -1.15039 -0.532227 -1.77832
l-0.895508 -2.96387c-0.665039 -2.86621 -0.87207 -4.86328 -0.87207 -6.78418c0 -1.9834 0.21875 -3.9668 0.604492 -5.92578l1.17188 -3.84668c0.158203 -0.604492 0.290039 -1.20996 0.533203 -1.77832c0.242188 -0.568359 0.556641 -1.06543 0.833008 -1.57129
l1.48926 -2.77051c1.52441 -2.47852 2.73242 -3.91797 4.02637 -5.26172z" />
    <glyph glyph-name="uniF103" unicode="&#xf103;" 
d="M405.966 260.533c58.6133 -0.849609 106.033 -48.7939 106.034 -107.602c0 -59.3398 -48.2773 -107.615 -107.616 -107.615h-48.9014c-6.0293 0 -10.9189 4.88867 -10.9189 10.9189c0 6.03125 4.88965 10.9189 10.9189 10.9189h48.9014
c47.2979 0 85.7783 38.4805 85.7783 85.7773c0 47.2979 -38.4814 85.7773 -85.7783 85.7773c-2.87402 0 -5.80371 -0.146484 -8.70801 -0.439453c-3.20898 -0.319336 -6.3877 0.787109 -8.69629 3.03027c-2.3125 2.24219 -3.51465 5.3916 -3.28711 8.60352
c0 0 0.449219 6.23242 0.449219 8.6416c0 66.9346 -54.4541 121.39 -121.389 121.39c-29.5146 0 -57.9453 -10.7344 -80.0566 -30.2266c-21.9053 -19.3105 -36.1348 -45.8174 -40.0664 -74.6377c-0.792969 -5.7998 -6.02051 -9.93555 -11.8418 -9.39551
c-3.43555 0.322266 -6.52539 0.479492 -9.44824 0.479492c-54.8662 0 -99.502 -44.6357 -99.502 -99.501c0 -54.8643 44.6357 -99.501 99.502 -99.501h44.5342c6.02832 0 10.9189 -4.8877 10.9189 -10.9189c0 -6.03027 -4.89062 -10.9189 -10.9189 -10.9189h-44.5342
c-66.9062 0 -121.34 54.4336 -121.34 121.339c0 66.9062 54.4336 121.339 121.339 121.34c0.456055 0 0.913086 -0.00390625 1.37402 -0.00878906c6.31055 30.1289 22.2471 57.5713 45.543 78.1055c26.1016 23.0107 59.6631 35.6826 94.498 35.6826
c78.3105 0 142.144 -63.1787 143.212 -141.239zM262.755 350.452c6.0293 0 10.9189 -4.8877 10.9189 -10.9199c0 -6.03125 -4.88867 -10.9189 -10.9189 -10.9189c-34.792 0 -64.5742 -26.001 -69.2764 -60.4795c-0.74707 -5.47461 -5.92676 -10.2314 -12.2949 -9.34375
c-5.97168 0.833008 -10.1582 6.32031 -9.34277 12.2949c6.17188 45.2461 45.2559 79.3672 90.9141 79.3672zM313.278 37.7178c4.0166 -4.49805 3.62793 -11.4014 -0.871094 -15.418l-39.7188 -35.4824c-3.42383 -3.05957 -7.71875 -4.58984 -12.0127 -4.58984
c-4.29492 0 -8.58887 1.5293 -12.0146 4.59082l-39.7168 35.4824c-4.49805 4.01953 -4.88574 10.9199 -0.868164 15.418c4.0166 4.49512 10.9209 4.88574 15.417 0.868164l26.2646 -23.4629v134.329c0 6.03125 4.8877 10.9199 10.9189 10.9199
c6.02832 0 10.9189 -4.88867 10.9189 -10.9199v-134.33l26.2646 23.4629c4.49805 4.01855 11.4014 3.62793 15.418 -0.868164z" />
    <glyph glyph-name="uniF104" unicode="&#xf104;" 
d="M511.979 195.008c0.862305 -68.8721 -25.2207 -133.864 -73.3984 -182.904c-47.7471 -48.6094 -111.554 -75.6631 -179.563 -76.0938h-3.2334c-67.2559 0 -130.523 25.7598 -178.701 72.752c-48.8252 47.7471 -76.2012 111.77 -77.0635 180.21
c-1.72461 141.086 111.769 257.273 252.962 258.998c68.6562 0.862305 133.541 -25.2207 182.689 -73.5068c48.8242 -47.8545 75.8779 -111.661 76.3086 -179.455zM427.048 23.5283c45.1602 45.9141 69.5186 106.811 68.7646 171.371
c-0.431641 63.4834 -25.7598 123.194 -71.459 168.031c-45.2686 44.5137 -104.979 68.8721 -168.139 68.8721h-3.01758c-132.355 -1.61719 -238.627 -110.476 -237.011 -242.615c0.754883 -64.1299 26.4062 -124.164 72.2129 -168.785
c45.8076 -44.7295 106.38 -68.8721 170.402 -68.1172c63.8066 0.430664 123.518 25.6514 168.246 71.2432zM369.17 372.523c34.0586 -21.4492 61.2197 -51.8428 78.7881 -88.0576c1.93945 -3.98828 0.214844 -8.83789 -3.77246 -10.7783
c-1.07812 -0.539062 -2.26367 -0.753906 -3.44922 -0.753906v0c-3.01758 0 -5.92773 1.72461 -7.3291 4.52637c-32.6582 67.7939 -102.393 111.661 -177.516 111.661s-144.75 -43.8672 -177.516 -111.661c-1.93945 -3.9873 -6.79004 -5.71191 -10.7783 -3.77246
c-3.9873 1.94043 -5.71191 6.79004 -3.77148 10.7783c17.46 36.2148 44.7285 66.7168 78.7871 88.0576c34.0596 21.3398 73.1836 32.6572 113.278 32.6572s79.3271 -11.3174 113.278 -32.6572zM336.404 284.682c3.125 3.125 8.29883 3.125 11.4248 0
c3.12598 -3.12598 3.12598 -8.29883 0 -11.4248l-83.6387 -83.6387c-1.50879 -1.61621 -3.55664 -2.37109 -5.71191 -2.37109c-2.04785 0 -4.0957 0.754883 -5.71289 2.37109c-3.125 3.12598 -3.125 8.2998 0 11.4248zM298.573 200.073
c4.41895 0 8.08301 -3.66504 8.08301 -8.08398c0 -27.376 -22.2021 -49.6865 -50.4414 -50.7646h-0.21582v0c-27.915 0 -50.6562 22.3105 -50.7646 49.7949c-0.430664 13.5801 4.74219 26.9453 14.1191 36.7539c9.26953 9.5918 21.6641 14.9814 34.9219 14.9814
c4.41895 0 8.08301 -3.66504 8.08301 -8.08398s-3.66406 -8.08301 -8.08301 -8.08301c-8.83887 0 -17.0303 -3.55762 -23.2812 -10.0244c-6.4668 -6.68262 -9.91602 -15.8438 -9.59277 -25.1123v-0.324219c0 -18.5381 15.4131 -33.627 34.3828 -33.7354
c19.5078 0.754883 34.7051 15.9521 34.7051 34.5977c0 4.41895 3.66504 8.08398 8.08398 8.08398z" />
    <glyph glyph-name="uniF110" unicode="&#xf110;" 
d="M450.173 84.752c4.38379 -1.42676 7.47559 -5.36816 7.81543 -10c0.113281 -1.59668 -0.0341797 -4.29199 -0.588867 -5.79785c-25.1523 -68.4365 -73.5098 -111.754 -79.1387 -116.636c-10.373 -10.6787 -23.7139 -16.3193 -38.6172 -16.3193
c-22.9111 0 -42.5371 13.251 -43.3633 13.8174c-7.75781 5.51465 -17.5879 8.24414 -29.3652 8.24414c-18.2334 0 -35.3115 -6.5459 -39.2754 -8.16504c-12.4912 -8.48242 -25.3672 -12.7861 -38.2783 -12.7861c-21.0303 0 -35.2764 11.6191 -38.708 14.7227
c-43.4531 32.1855 -80.0547 117.938 -81.5957 121.584c-52.457 162.92 47.9609 223.812 58.21 229.521c14.0879 9.33105 30.4863 14.0645 48.7422 14.0645c34.3477 0 66.4092 -16.749 79.5566 -24.6084c31.5967 18.0742 61.6758 27.2363 89.4893 27.2363
c66.5117 0 97.3496 -52.1172 98.6289 -54.3369c1.5625 -2.72949 1.93555 -5.97949 1.00781 -8.99219c-0.917969 -3 -3.05859 -5.49219 -5.88965 -6.8623c-31.2451 -15.0957 -50.6445 -45.8086 -50.6445 -80.123c0 -38.584 24.9268 -72.5703 62.0146 -84.5635z
M363.131 -30.7842c0.464844 0.396484 44.3027 38.1758 69.252 98.1074c-40.4531 17.7578 -66.9072 57.4287 -66.9072 102.015c0 38.6172 19.5352 73.5664 51.7656 94.0186c-10.6348 12.6729 -34.0205 33.6465 -72.2188 33.6465
c-25.4014 0 -53.6123 -9.2627 -83.8379 -27.542c-3.80469 -2.29883 -8.61816 -2.15137 -12.2764 0.362305c-0.362305 0.249023 -36.1826 24.5527 -72.9209 24.5527c-13.8613 0 -26.1602 -3.53418 -36.5332 -10.498
c-0.397461 -0.272461 -0.81543 -0.521484 -1.24609 -0.736328c-3.91895 -1.99316 -96.3975 -51.2334 -47.9502 -201.82c0.0458984 0 35.6855 -83.4199 74.292 -111.574c0.475586 -0.350586 0.916992 -0.723633 1.33594 -1.14355
c0.0224609 -0.0107422 9.34277 -8.82129 23.4766 -8.82129c8.52734 0 17.3721 3.15918 26.3076 9.39941c0.577148 0.396484 1.2002 0.758789 1.8457 1.04199c0.951172 0.429688 23.7031 10.5088 49.3867 10.5088c16.5801 0 30.8154 -4.14453 42.3223 -12.3213
c0.0107422 0 14.666 -9.73926 30.418 -9.73926c8.99219 0 16.3984 3.17188 22.6152 9.7168c0.272461 0.293945 0.578125 0.566406 0.873047 0.827148zM252.521 311.646c-2.97754 0 -5.85449 1.17773 -7.97266 3.2832c-2.32129 2.29883 -3.5332 5.48145 -3.3291 8.73145
c6.87402 112.06 107.269 124.154 108.277 124.269c3.06836 0.350586 6.1709 -0.623047 8.5498 -2.63965c2.36621 -2.00488 3.79395 -4.91504 3.96387 -8.01758c6.16016 -116.442 -107.563 -125.514 -108.719 -125.593
c-0.260742 -0.0224609 -0.521484 -0.0332031 -0.770508 -0.0332031zM339.462 422.731c-21.6758 -6.2168 -64.6992 -26.0127 -74.1104 -86.2275c24.0088 5.53809 71.291 24.292 74.1104 86.2275z" />
    <glyph glyph-name="uniF10E" unicode="&#xf10e;" 
d="M388.805 199.049c2.3291 -1.58789 3.72852 -4.22461 3.72852 -7.04883s-1.39941 -5.46094 -3.72852 -7.04883l-187.733 -128c-1.44238 -0.981445 -3.12402 -1.48438 -4.80469 -1.48438c-1.36523 0 -2.73926 0.324219 -3.98535 0.989258
c-2.79883 1.47656 -4.54785 4.37793 -4.54785 7.54395v256c0 3.16602 1.74902 6.06738 4.54004 7.54297c2.79883 1.47656 6.17773 1.28027 8.79785 -0.494141zM204.8 80.1533l164.054 111.847l-164.054 111.847v-223.693zM256 448c141.158 0 256 -114.842 256 -256
s-114.842 -256 -256 -256s-256 114.842 -256 256s114.842 256 256 256zM256 -46.9336c131.746 0 238.934 107.188 238.934 238.934s-107.188 238.934 -238.934 238.934s-238.934 -107.188 -238.934 -238.934s107.188 -238.934 238.934 -238.934z" />
  </font>
</defs></svg>
