<?xml version="1.0" encoding="UTF-8"?>
<svg width="149px" height="150px" viewBox="0 0 149 150" version="1.1" xmlns="http://www.w3.org/2000/svg" xmlns:xlink="http://www.w3.org/1999/xlink">
    <!-- Generator: sketchtool 52 (66869) - http://www.bohemiancoding.com/sketch -->
    <title>8112FC36-8142-4B31-95AD-709BA0219E77</title>
    <desc>Created with sketchtool.</desc>
    <defs>
        <path d="M53,32.1089576 C44.7656623,35.2681388 35.834871,37 26.5005699,37 C17.1651287,37 8.23433771,35.2681388 0,32.1089576 L6.09140375,14.3214684 L10.9973547,0 L42.0026453,0 L46.9085962,14.3214684 L53,32.1089576 Z" id="path-1"></path>
    </defs>
    <g id="UI" stroke="none" stroke-width="1" fill="none" fill-rule="evenodd">
        <g id="Landing-Page" transform="translate(-1046.000000, -5025.000000)">
            <g id="Group-21" transform="translate(135.000000, 4795.000000)">
                <g id="Group-19-Copy-2" transform="translate(800.000000, 180.000000)">
                    <g id="computer_illustration" transform="translate(111.000000, 50.000000)">
                        <path d="M149,75.4994299 C149,82.6523329 147.993143,89.5703408 146.1117,96.1166211 C143.678368,104.581973 139.783211,112.43044 134.72042,119.370113 C126.282434,130.931293 114.599246,139.97134 101.009528,145.147018 C92.7722294,148.281616 83.8382272,150 74.5005701,150 C65.1617725,150 56.2277706,148.281616 47.9904723,145.147018 C34.4007545,139.97134 22.7175656,130.931293 14.2795801,119.370113 C9.2167888,112.43044 5.32163226,104.581973 2.88829955,96.1166211 C1.00685699,89.5703408 0,82.6523329 0,75.4994299 C0,68.3476671 1.00685699,61.4330801 2.88829955,54.8856593 C7.50182526,38.8341024 17.3662865,25.0015075 30.5021774,15.3742224 C42.8330387,6.33645568 58.0396568,1 74.5005701,1 C90.9603432,1 106.166961,6.33645568 118.497823,15.3742224 C131.633714,25.0015075 141.498175,38.8341024 146.1117,54.8856593 C147.993143,61.4330801 149,68.3476671 149,75.4994299 Z" id="Path" fill="#282828"></path>
                        <g id="Group-20" transform="translate(48.000000, 113.000000)">
                            <mask id="mask-2" fill="white">
                                <use xlink:href="#path-1"></use>
                            </mask>
                            <use id="Path" fill="#624FB5" xlink:href="#path-1"></use>
                            <polygon id="Path" fill="#56459F" mask="url(#mask-2)" points="47 14.1026026 2 24 10.4889263 0 42.0121041 0"></polygon>
                        </g>
                        <path d="M146,23.9434775 L146,95.7455895 C143.570463,104.211276 139.681382,112.060053 134.626488,119 L14.3735124,119 C9.31861804,112.060053 5.42953719,104.211276 3,95.7455895 L3,23.9434775 C3,19.0047806 6.99609903,15 11.926898,15 L137.070825,15 C142.001624,15 146,19.0047806 146,23.9434775 Z" id="Path" fill="#624FB5"></path>
                        <path d="M11.8585054,101 C10.2822244,101 9,99.7239602 9,98.1566755 L9,24.8421913 C9,23.2749063 10.2822244,22 11.8585054,22 L137.141495,22 C138.717776,22 140,23.2749063 140,24.8421913 L140,98.1566755 C140,99.7239602 138.717776,101 137.141495,101 L11.8585054,101 Z" id="Path" fill="#FFFFFF"></path>
                        <path d="M128,24.0926392 L128,86.7526595 C128,87.6013662 127.872064,88.419397 127.634467,89.1885733 C126.589273,92.5549969 123.434269,95 119.704693,95 L21.2907374,95 C21.138813,95 20.989173,94.9965918 20.8406755,94.9875025 C19.7589272,94.9295586 18.7297244,94.6636985 17.7941892,94.2296878 C14.9613111,92.9208386 13,90.0645477 13,86.7526595 L13,24.0926392 C13,19.0685668 17.0939657,15 22.1406008,15 L118.858257,15 C123.906034,15 128,19.0685668 128,24.0926392 Z" id="Path" fill="#E97763"></path>
                        <path d="M127,24.1920886 L127,87.5374437 C127,88.395433 126.872419,89.2224109 126.635483,90 L31.2688308,90 C26.7032605,90 23,86.2659652 23,81.6624551 L23,18.3136542 C23,17.1432511 23.2152925,16.0256822 23.6139824,15 L117.883668,15 C122.917414,15 127,19.1130662 127,24.1920886 Z" id="Path" fill="#FF8D79"></path>
                        <path d="M130,43.1009408 L130,87.6752822 C130,92.2751503 126.293352,96 121.720185,96 L20.4492214,96 C20.2975807,96 20.1482202,95.9965598 20,95.9873853 L20,51.1779473 C20,47.1560728 22.5687721,43.7374223 26.1511431,42.5011577 C27.0815106,42.1743156 28.0814279,42 29.1246707,42 L125.658285,42 C126.101806,42 126.533925,42.0298173 126.959203,42.0917451 C128.044632,42.2477117 129.069632,42.5963429 130,43.1009408 Z" id="Path" fill="#F48673"></path>
                        <path d="M141,41.0925101 L141,103.752776 C141,108.308689 137.286343,112 132.707955,112 L34.2920443,112 C29.7102302,112 26,108.308689 26,103.752776 L26,41.0925101 C26,37.1092112 28.5736294,33.7212487 32.1627743,32.4976285 C33.0949011,32.1726929 34.0967092,32 35.1419246,32 L131.858075,32 C136.908237,32 141,36.0696454 141,41.0925101 Z" id="Path" fill="#FFBC45"></path>
                        <path d="M141,41.1200424 L141,87.7230825 C140.319308,87.905415 139.605439,88 138.867546,88 L40.3067342,88 C35.7192112,88 32,84.295232 32,79.7278036 L32,32.4991353 C32.9335209,32.1732158 33.9368272,32 34.9836059,32 L131.844403,32 C136.902118,32 141,36.0819683 141,41.1200424 Z" id="Path" fill="#F4A441"></path>
                        <path d="M32,71.7517574 L32,9.09238095 C32,4.07072364 36.0928235,0 41.141743,0 L137.858257,0 C142.906034,0 147,4.07072364 147,9.09238095 L147,71.7517574 C147,76.3076048 143.286417,80 138.706978,80 L40.2941643,80 C35.7135831,80 32,76.3076048 32,71.7517574 Z" id="Path" fill="#EDEDED"></path>
                        <path d="M137.471967,75 L43.5280331,75 C41.0276973,75 39,72.9499753 39,70.419548 L39,10 L142,10 L142,70.419548 C142,72.9488288 139.972302,75 137.471967,75 Z" id="Path" fill="#FFFFFF"></path>
                        <path d="M142,8.64116813 L142,24 L39,24 L39,8.64116813 C39,6.63289499 40.576594,5 42.5170177,5 L138.482982,5 C140.423406,5 142,6.63289499 142,8.64116813 Z" id="Path" fill="#624FB5"></path>
                        <path d="M53,15.0000002 C53,17.7614226 50.7614226,20 47.9999998,20 C45.2385774,20 43,17.7614226 43,15.0000002 C43,12.2385774 45.2385774,10 47.9999998,10 C50.7614226,10 53,12.2385774 53,15.0000002 Z" id="Path" fill="#FFFFFF"></path>
                        <path d="M65,15.0000002 C65,17.7614226 62.7614226,20 60.0000002,20 C57.2385777,20 55,17.7614226 55,15.0000002 C55,12.2385774 57.2385777,10 60.0000002,10 C62.7614226,10 65,12.2385774 65,15.0000002 Z" id="Path" fill="#FFFFFF"></path>
                        <path d="M78,15.0000002 C78,17.7614226 75.7614226,20 72.9999998,20 C70.2385774,20 68,17.7614226 68,15.0000002 C68,12.2385774 70.2385774,10 72.9999998,10 C75.7614226,10 78,12.2385774 78,15.0000002 Z" id="Path" fill="#FFFFFF"></path>
                        <g id="Group" transform="translate(46.000000, 33.000000)" fill="#EFEFEF">
                            <path d="M21.7351747,0.193891972 L3.90364154,0.193891972 C1.77334582,0.193891972 0.046756953,1.9308895 0.046756953,4.07402761 L0.046756953,41.7441542 L25.592059,41.7441542 L25.592059,4.07402761 C25.592059,1.9308895 23.8654704,0.193891972 21.7351747,0.193891972 Z" id="Path"></path>
                            <path d="M52.2971632,0.193891972 L34.4667707,0.193891972 C32.336475,0.193891972 30.6098861,1.9308895 30.6098861,4.07402761 L30.6098861,41.7441542 L56.1540478,41.7441542 L56.1540478,4.07402761 C56.1540478,1.9308895 54.4274592,0.193891972 52.2971632,0.193891972 Z" id="Path"></path>
                            <path d="M82.8602924,0.193891972 L65.0287596,0.193891972 C62.8996042,0.193891972 61.171875,1.9308895 61.171875,4.07402761 L61.171875,41.7441542 L86.717177,41.7441542 L86.717177,4.07402761 C86.717177,1.9308895 84.9905884,0.193891972 82.8602924,0.193891972 Z" id="Path"></path>
                        </g>
                        <g id="money-note" transform="translate(74.000000, 40.000000)" fill="#58BB85">
                            <g id="Filled_Icons">
                                <g id="Group">
                                    <path d="M24.0869565,0 L2,0 C0.8954305,2.02906125e-16 -1.3527075e-16,0.8954305 0,2 L0,15.2941176 C1.3527075e-16,16.3986871 0.8954305,17.2941176 2,17.2941176 L24.0869565,17.2941176 C25.191526,17.2941176 26.0869565,16.3986871 26.0869565,15.2941176 L26.0869565,2 C26.0869565,0.8954305 25.191526,-2.02906125e-16 24.0869565,0 Z M8.55193831,14.2756592 L3.2334433,9.2387316 C2.83461714,8.86101976 2.60869565,8.33590002 2.60869565,7.78660179 L2.60869565,4.47058824 C2.60869565,3.36601874 3.50412615,2.47058824 4.60869565,2.47058824 L16.1597659,2.47058824 C16.6713845,2.47058824 17.1635499,2.66665604 17.5350182,3.01845843 L22.8535132,8.05538605 C23.2523394,8.43309789 23.4782609,8.95821763 23.4782609,9.50751586 L23.4782609,12.8235294 C23.4782609,13.9280989 22.5828304,14.8235294 21.4782609,14.8235294 L9.92719065,14.8235294 C9.41557199,14.8235294 8.92340666,14.6274616 8.55193831,14.2756592 Z" id="Shape" fill-rule="nonzero"></path>
                                    <ellipse id="Oval" cx="12.6630435" cy="8.50588235" rx="3.91304348" ry="3.70588235"></ellipse>
                                    <path d="M27.173913,6.10434783 L27.173913,17.3882353 C27.173913,17.94052 26.7261978,18.3882353 26.173913,18.3882353 L6.23529412,18.3882353 C5.55306001,18.3882353 5,18.9412953 5,19.6235294 L5,19.6235294 C5,20.3057635 5.55306001,20.8588235 6.23529412,20.8588235 L27.7826087,20.8588235 C28.8871782,20.8588235 29.7826087,19.963393 29.7826087,18.8588235 L29.7826087,6.10434783 C29.7826087,5.38397641 29.1986323,4.8 28.4782609,4.8 L28.4782609,4.8 C27.7578895,4.8 27.173913,5.38397641 27.173913,6.10434783 Z" id="Path"></path>
                                </g>
                            </g>
                        </g>
                    </g>
                </g>
            </g>
        </g>
    </g>
</svg>