<?xml version="1.0" encoding="UTF-8"?>
<svg width="21px" height="22px" viewBox="0 0 21 22" version="1.1" xmlns="http://www.w3.org/2000/svg" xmlns:xlink="http://www.w3.org/1999/xlink">
    <!-- Generator: sketchtool 52 (66869) - http://www.bohemiancoding.com/sketch -->
    <title>05F8C925-B6C6-4CEE-837F-9BF9DC581DFF</title>
    <desc>Created with sketchtool.</desc>
    <g id="UI" stroke="none" stroke-width="1" fill="none" fill-rule="evenodd">
        <g id="Landing-Page---Form-Active" transform="translate(-901.000000, -5440.000000)">
            <g id="Group-25" transform="translate(370.000000, 5420.000000)">
                <g id="Group-23-Copy" transform="translate(371.000000, 0.000000)">
                    <g id="Group-24" transform="translate(51.000000, 20.000000)">
                        <g id="ic_idea" transform="translate(107.000000, 0.000000)">
                            <g id="Frame_-_24px">
                                <rect id="Rectangle" x="0" y="0" width="24" height="24"></rect>
                            </g>
                            <g id="Filled_Icons" transform="translate(2.000000, 0.000000)">
                                <g id="Group">
                                    <rect id="Rectangle" fill="#FFBC45" x="14.001" y="0" width="2" height="2"></rect>
                                    <rect id="Rectangle" fill="#FFBC45" transform="translate(19.330417, 3.500529) rotate(60.007099) translate(-19.330417, -3.500529) " x="18.3304023" y="2.50051449" width="2.00002922" height="2.00002922"></rect>
                                    <rect id="Rectangle" fill="#FFBC45" transform="translate(10.671503, 3.499883) rotate(29.992901) translate(-10.671503, -3.499883) " x="9.67148849" y="2.49986829" width="2.00002922" height="2.00002922"></rect>
                                    <g transform="translate(0.000000, 2.000000)" fill="#624FB5">
                                        <circle id="Oval" cx="5.001" cy="3" r="3"></circle>
                                        <path d="M5.001,6 C2.244,6 0.001,8.243 0.001,11 L0.001,14 C0.001,14.552 0.449,15 1.001,15 L2.001,15 L2.001,19 C2.001,19.552 2.449,20 3.001,20 L7.001,20 C7.553,20 8.001,19.552 8.001,19 L8.001,15 L9.001,15 C9.553,15 10.001,14.552 10.001,14 L10.001,11 C10.001,8.243 7.758,6 5.001,6 Z" id="Path"></path>
                                    </g>
                                    <path d="M18.501,6.5 C18.501,4.57 16.931,3 15.001,3 C13.071,3 11.501,4.57 11.501,6.5 C11.501,7.686 12.097,8.731 13.001,9.364 L13.001,11 L17.001,11 L17.001,9.364 C17.905,8.731 18.501,7.686 18.501,6.5 Z" id="Path" fill="#FFBC45"></path>
                                    <rect id="Rectangle" fill="#FFBC45" x="14.001" y="12" width="2" height="2"></rect>
                                </g>
                            </g>
                        </g>
                    </g>
                </g>
            </g>
        </g>
    </g>
</svg>