<?xml version="1.0" encoding="UTF-8"?>
<svg width="342px" height="225px" viewBox="0 0 342 225" version="1.1" xmlns="http://www.w3.org/2000/svg" xmlns:xlink="http://www.w3.org/1999/xlink">
    <!-- Generator: sketchtool 52 (66869) - http://www.bohemiancoding.com/sketch -->
    <title>D2EDAF65-8428-4443-9164-0DF78F095052</title>
    <desc>Created with sketchtool.</desc>
    <defs>
        <path d="M10.5040911,24.8613604 L9.39770063,24.8613604 C9.50826181,23.7932065 9.5650996,22.7100859 9.5650996,21.6151494 C9.5650996,13.1928033 6.31600228,5.72832968 1.30804781,1.08390837 C1.05811725,0.85231748 0.815194081,0.615212525 0.578499715,0.371805777 L10.5040911,0.371805777 L10.5040911,24.8613604 Z" id="path-1"></path>
    </defs>
    <g id="UI" stroke="none" stroke-width="1" fill="none" fill-rule="evenodd">
        <g id="Landing-Page" transform="translate(-551.000000, -1189.000000)">
            <g id="services" transform="translate(0.000000, 834.000000)">
                <g id="Back-end-Development-Copy" transform="translate(535.000000, 247.000000)">
                    <g id="Group-4">
                        <g id="ic_service_illustration_2" transform="translate(16.000000, 108.000000)">
                            <path d="M227.937265,0 C214.775868,0 202.558485,2.71408899 192.453782,7.35541581 C184.788172,10.8766921 176.230994,11.8802011 167.984573,10.0992268 C110.377042,-2.34021736 46.50505,25.9215052 46.50505,69.7544335 C46.50505,75.6839749 47.7324242,81.4203232 50.0243578,86.8563227 C31.2881141,94.5535417 18.3944223,110.637061 18.3944223,129.235219 C18.3944223,155.310809 43.7371958,176.450199 74.9992321,176.450199 C105.10356,176.450199 129.714449,156.84775 131.496803,132.111215 C134.180119,132.268428 136.893179,132.352119 139.636768,132.352119 C176.389112,132.352119 208.165425,118.041753 223.312695,97.2598091 C228.741164,89.8113165 236.855298,84.7014769 245.898573,82.8954736 C271.923134,77.6995966 290.904382,61.5018822 290.904382,42.3225807 C290.904382,18.9485648 262.71313,0 227.937265,0" id="Fill-4" fill="#BCDDD9"></path>
                            <polygon id="Fill-5" fill="#AD99BD" points="0 172.36255 70.8525896 172.36255 70.8525896 171 0 171"></polygon>
                            <polygon id="Fill-6" fill="#EC989D" points="285.454183 159.418327 339.2749 159.418327 339.2749 158.055777 285.454183 158.055777"></polygon>
                            <path d="M301.804781,43.2317462 C301.804781,35.4489843 298.453941,27.405387 293.114811,24.5722298 C289.208626,22.4996464 285.855439,19.4792831 283.849941,15.5338552 C280.210478,8.37772461 275.57687,4.0876494 270.527927,4.0876494 C261.448434,4.0876494 253.70646,17.9518691 250.691173,37.4322726 C249.906651,42.4962376 247.549956,47.2453203 243.777524,50.7082421 C238.478284,55.5724683 235.039841,63.3928282 235.039841,72.2142317 C235.039841,85.2152666 242.759131,96.7014201 253.273135,98.6494605 C256.997855,99.3403216 260.358081,101.232748 263.175477,103.769039 C265.465687,105.83144 267.942837,106.960159 270.527927,106.960159 C279.913252,106.960159 287.869541,92.1481597 290.654086,71.6306812 C291.283738,66.9943921 293.277503,62.6635859 296.424977,59.2045806 C299.684303,55.6233821 301.804781,49.803543 301.804781,43.2317462" id="Fill-7" fill="#FADEDA"></path>
                            <polygon id="Fill-8" fill="#EFACB0" points="268.422311 140.342629 269.784861 140.342629 269.784861 35.4262948 268.422311 35.4262948"></polygon>
                            <polyline id="Fill-9" fill="#EFACB0" points="250.027888 75.7369882 269.035141 100.14741 280.003984 87.6647459 279.036535 86.8085144 269.095216 98.121883 251.04449 74.940239 250.027888 75.7369882"></polyline>
                            <polyline id="Fill-10" fill="#EFACB0" points="285.180681 44.9641434 268.832453 63.6238794 263.072793 59.0918 262.290837 60.127749 268.992874 65.4023904 286.135458 45.8356059 285.180681 44.9641434"></polyline>
                            <path d="M337.333845,83.3984672 C336.347527,82.8837832 335.253356,82.6369849 334.081029,82.6369849 C330.194374,82.6362039 326.88216,79.7550673 326.668015,75.8773651 C325.821595,60.5899246 320.113145,47.689243 312.499272,47.689243 C306.93072,47.689243 302.106204,54.8471766 299.75139,65.2884657 C298.922946,68.9623249 295.35282,71.3553318 291.634199,70.750832 C289.24187,70.3618903 287.134808,70.6914754 285.485735,71.8458045 C276.666711,78.0157636 285.853064,102.524559 301.248061,116.817777 C303.017493,118.460236 303.909243,120.857929 303.508307,123.236878 C302.110893,131.521805 303.431715,138.067429 307.636461,140.260498 C314.629781,143.907803 326.945466,134.135056 335.147065,118.433682 C343.347882,102.731526 344.327166,87.0457721 337.333845,83.3984672" id="Fill-11" fill="#EFACB0"></path>
                            <polygon id="Fill-12" fill="#EC989D" points="312.023904 158.055777 313.386454 158.055777 313.386454 82.4342629 312.023904 82.4342629"></polygon>
                            <polyline id="Fill-13" fill="#EC989D" points="328.650715 102.87251 312.023904 130.129584 313.111012 130.804781 329.737052 103.547707"></polyline>
                            <polyline id="Fill-14" fill="#EC989D" points="293.629482 84.5040701 312.292936 112.410359 313.386454 111.702322 294.723792 83.7968127"></polyline>
                            <path d="M49.7330677,77.2655379 C49.7330677,69.8949227 52.9124907,62.2781514 57.9795495,59.5946598 C61.6860092,57.631663 64.86856,54.7715642 66.7718349,51.0354624 C70.2249416,44.2587475 74.6226482,40.1952191 79.4136774,40.1952191 C88.0300232,40.1952191 95.3764765,53.3251044 98.2392083,71.7735231 C98.9828461,76.569268 101.219233,81.0664999 104.799016,84.3454547 C109.828541,88.9528706 113.091633,96.3578696 113.091633,104.713109 C113.091633,117.024819 105.765511,127.90179 95.788566,129.747569 C92.2541361,130.401641 89.0653297,132.193501 86.3918306,134.596453 C84.2179998,136.548509 81.8682295,137.61753 79.4136774,137.61753 C70.5072268,137.61753 62.9566837,123.590543 60.3144627,104.159844 C59.7178322,99.7688891 57.8247227,95.6678512 54.8384422,92.3928037 C51.7450341,89.000539 49.7330677,83.4897694 49.7330677,77.2655379" id="Fill-15" fill="#EDDEE6"></path>
                            <polygon id="Fill-16" fill="#BFADC8" points="79.7091633 169.63745 81.0717131 169.63745 81.0717131 70.1713147 79.7091633 70.1713147"></polygon>
                            <polyline id="Fill-17" fill="#BFADC8" points="97.8143647 106.960159 80.584728 128.889224 71.0947373 118.186755 70.1713147 118.996343 80.6420006 130.804781 98.7848606 107.713591 97.8143647 106.960159"></polyline>
                            <polyline id="Fill-18" fill="#BFADC8" points="64.0398406 79.8412084 80.692263 98.1035857 87.2031873 93.1801228 86.4426542 92.2136249 80.8484935 96.4435109 64.9677068 79.0278884 64.0398406 79.8412084"></polyline>
                            <path d="M51.7288576,105.79794 C50.854047,105.34363 49.8850018,105.125467 48.8452807,105.125467 C45.4002231,105.124685 42.4648172,102.579454 42.2747776,99.154534 C41.5240424,85.652687 36.464433,74.2589641 29.7164548,74.2589641 C24.7801356,74.2589641 20.5042435,80.5809907 18.4169485,89.8032519 C17.6827044,93.0475423 14.5179945,95.1611401 11.2213562,94.6270715 C9.10107911,94.2837976 7.23366468,94.5746812 5.77224406,95.5943377 C-2.04451085,101.042932 6.0981385,122.690301 19.7440849,135.314024 C21.3115193,136.764532 22.1015189,138.882821 21.7465688,140.983126 C20.5081699,148.300569 21.679034,154.081489 25.40601,156.01915 C31.6042867,159.239982 42.5205727,150.608871 49.789982,136.741074 C57.0593913,122.872494 57.9271343,109.019554 51.7288576,105.79794" id="Fill-19" fill="#BFADC8"></path>
                            <polygon id="Fill-20" fill="#AD99BD" points="29.2948207 171.681275 30.6573705 171.681275 30.6573705 104.916335 29.2948207 104.916335"></polygon>
                            <polyline id="Fill-21" fill="#AD99BD" points="44.003234 122.629482 29.2948207 146.562385 30.2557302 147.155378 44.9641434 123.222475"></polyline>
                            <polyline id="Fill-22" fill="#AD99BD" points="12.9442231 106.221449 29.0328038 130.804781 29.9760956 130.180941 13.8867411 105.59761"></polyline>
                            <path d="M290.276947,88.5657371 L195.472837,88.5657371 C193.620634,88.5657371 192.119522,90.0722432 192.119522,91.9303197 L192.119522,203.742987 C192.119522,205.601064 193.620634,207.10757 195.472837,207.10757 L290.276947,207.10757 C292.12837,207.10757 293.629482,205.601064 293.629482,203.742987 L293.629482,91.9303197 C293.629482,90.0722432 292.12837,88.5657371 290.276947,88.5657371" id="Fill-23" fill="#E2DDE7"></path>
                            <polygon id="Fill-24" fill="#FFFFFE" points="202.338645 196.888446 284.091633 196.888446 284.091633 103.553785 202.338645 103.553785"></polygon>
                            <path d="M207.550933,98.1035857 L203.258655,98.1035857 C202.750921,98.1035857 202.338645,97.7328574 202.338645,97.2753788 L202.338645,94.8441431 C202.338645,94.3866645 202.750921,94.0159363 203.258655,94.0159363 L207.550933,94.0159363 C208.058666,94.0159363 208.47012,94.3866645 208.47012,94.8441431 L208.47012,97.2753788 C208.47012,97.7328574 208.058666,98.1035857 207.550933,98.1035857" id="Fill-25" fill="#B0AFCC"></path>
                            <path d="M215.725533,98.1035857 L211.43383,98.1035857 C210.925342,98.1035857 210.513944,97.7328574 210.513944,97.2753788 L210.513944,94.8441431 C210.513944,94.3866645 210.925342,94.0159363 211.43383,94.0159363 L215.725533,94.0159363 C216.233198,94.0159363 216.645418,94.3866645 216.645418,94.8441431 L216.645418,97.2753788 C216.645418,97.7328574 216.233198,98.1035857 215.725533,98.1035857" id="Fill-26" fill="#B0AFCC"></path>
                            <path d="M224.582806,98.1035857 L220.290527,98.1035857 C219.782794,98.1035857 219.370518,97.7328574 219.370518,97.2753788 L219.370518,94.8441431 C219.370518,94.3866645 219.782794,94.0159363 220.290527,94.0159363 L224.582806,94.0159363 C225.090539,94.0159363 225.501992,94.3866645 225.501992,94.8441431 L225.501992,97.2753788 C225.501992,97.7328574 225.090539,98.1035857 224.582806,98.1035857" id="Fill-27" fill="#B0AFCC"></path>
                            <polygon id="Fill-28" fill="#B0AFCC" points="230.952191 96.7410359 284.091633 96.7410359 284.091633 94.6972112 230.952191 94.6972112"></polygon>
                            <path d="M211.876494,183.944223 L273.87251,183.944223 L273.87251,153.286853 L211.876494,153.286853 L211.876494,183.944223 Z M212.565044,183.259623 L273.184738,183.259623 L273.184738,153.971453 L212.565044,153.971453 L212.565044,183.259623 Z" id="Fill-29" fill="#B0AFCC"></path>
                            <polygon id="Fill-30" fill="#B0AFCC" points="227.545817 115.135458 273.191235 115.135458 273.191235 110.366534 227.545817 110.366534"></polygon>
                            <polygon id="Fill-31" fill="#B0AFCC" points="227.545817 123.992032 273.191235 123.992032 273.191235 119.223108 227.545817 119.223108"></polygon>
                            <polygon id="Fill-32" fill="#B0AFCC" points="227.545817 132.848606 273.191235 132.848606 273.191235 128.079681 227.545817 128.079681"></polygon>
                            <polygon id="Fill-33" fill="#B0AFCC" points="227.545817 141.705179 273.191235 141.705179 273.191235 136.936255 227.545817 136.936255"></polygon>
                            <path d="M218.163251,115.135458 L215.127585,115.135458 C213.708313,115.135458 212.557769,114.0679 212.557769,112.750996 C212.557769,111.434092 213.708313,110.366534 215.127585,110.366534 L218.163251,110.366534 C219.583328,110.366534 220.733068,111.434092 220.733068,112.750996 C220.733068,114.0679 219.583328,115.135458 218.163251,115.135458" id="Fill-34" fill="#B0AFCC"></path>
                            <path d="M218.163251,123.992032 L215.127585,123.992032 C213.708313,123.992032 212.557769,122.924474 212.557769,121.60757 C212.557769,120.290666 213.708313,119.223108 215.127585,119.223108 L218.163251,119.223108 C219.583328,119.223108 220.733068,120.290666 220.733068,121.60757 C220.733068,122.924474 219.583328,123.992032 218.163251,123.992032" id="Fill-35" fill="#B0AFCC"></path>
                            <path d="M218.163251,132.848606 L215.127585,132.848606 C213.708313,132.848606 212.557769,131.780468 212.557769,130.46377 C212.557769,129.147819 213.708313,128.079681 215.127585,128.079681 L218.163251,128.079681 C219.583328,128.079681 220.733068,129.147819 220.733068,130.46377 C220.733068,131.780468 219.583328,132.848606 218.163251,132.848606" id="Fill-36" fill="#B0AFCC"></path>
                            <path d="M218.163251,141.705179 L215.127585,141.705179 C213.708313,141.705179 212.557769,140.637042 212.557769,139.320344 C212.557769,138.004393 213.708313,136.936255 215.127585,136.936255 L218.163251,136.936255 C219.583328,136.936255 220.733068,138.004393 220.733068,139.320344 C220.733068,140.637042 219.583328,141.705179 218.163251,141.705179" id="Fill-37" fill="#B0AFCC"></path>
                            <path d="M141.705179,189.94145 L141.705179,127.361149 C141.705179,125.500218 140.204056,123.992032 138.352618,123.992032 L43.5477801,123.992032 C41.6963425,123.992032 40.1952191,125.500218 40.1952191,127.361149 L40.1952191,189.94145 C40.1952191,192.649757 42.3798062,194.844622 45.0762109,194.844622 L136.824188,194.844622 C139.519812,194.844622 141.705179,192.649757 141.705179,189.94145" id="Fill-38" fill="#FADEDA"></path>
                            <polygon id="Fill-39" fill="#FFFFFE" points="49.7330677 187.350598 131.486056 187.350598 131.486056 138.98008 49.7330677 138.98008"></polygon>
                            <path d="M54.9446562,133.52988 L50.6529534,133.52988 C50.1452884,133.52988 49.7330677,133.159152 49.7330677,132.701674 L49.7330677,130.271179 C49.7330677,129.812959 50.1452884,129.442231 50.6529534,129.442231 L54.9446562,129.442231 C55.4523212,129.442231 55.8645418,129.812959 55.8645418,130.271179 L55.8645418,132.701674 C55.8645418,133.159152 55.4523212,133.52988 54.9446562,133.52988" id="Fill-40" fill="#EFACB0"></path>
                            <path d="M63.8011064,133.52988 L59.5088277,133.52988 C59.0010945,133.52988 58.5896414,133.159152 58.5896414,132.701674 L58.5896414,130.271179 C58.5896414,129.812959 59.0010945,129.442231 59.5088277,129.442231 L63.8011064,129.442231 C64.3088395,129.442231 64.7211155,129.812959 64.7211155,130.271179 L64.7211155,132.701674 C64.7211155,133.159152 64.3088395,133.52988 63.8011064,133.52988" id="Fill-41" fill="#EFACB0"></path>
                            <path d="M71.9764052,133.52988 L67.6849494,133.52988 C67.1763933,133.52988 66.7649402,133.159152 66.7649402,132.701674 L66.7649402,130.271179 C66.7649402,129.812959 67.1763933,129.442231 67.6849494,129.442231 L71.9764052,129.442231 C72.4849612,129.442231 72.8964143,129.812959 72.8964143,130.271179 L72.8964143,132.701674 C72.8964143,133.159152 72.4849612,133.52988 71.9764052,133.52988" id="Fill-42" fill="#EFACB0"></path>
                            <polygon id="Fill-43" fill="#EFACB0" points="78.3466135 132.167331 131.486056 132.167331 131.486056 130.123506 78.3466135 130.123506"></polygon>
                            <polygon id="Fill-44" fill="#EFACB0" points="75.6215139 150.561753 121.266932 150.561753 121.266932 145.792829 75.6215139 145.792829"></polygon>
                            <polygon id="Fill-45" fill="#EFACB0" points="75.6215139 159.418327 121.266932 159.418327 121.266932 154.649402 75.6215139 154.649402"></polygon>
                            <polygon id="Fill-46" fill="#EFACB0" points="75.6215139 168.2749 121.266932 168.2749 121.266932 163.505976 75.6215139 163.505976"></polygon>
                            <polygon id="Fill-47" fill="#EFACB0" points="75.6215139 177.131474 121.266932 177.131474 121.266932 172.36255 75.6215139 172.36255"></polygon>
                            <path d="M66.2392014,150.561753 L63.2030296,150.561753 C61.7838969,150.561753 60.6334661,149.494774 60.6334661,148.176918 C60.6334661,146.859807 61.7838969,145.792829 63.2030296,145.792829 L66.2392014,145.792829 C67.6583342,145.792829 68.8087649,146.859807 68.8087649,148.176918 C68.8087649,149.494774 67.6583342,150.561753 66.2392014,150.561753" id="Fill-48" fill="#EFACB0"></path>
                            <path d="M66.2392014,159.418327 L63.2030296,159.418327 C61.7838969,159.418327 60.6334661,158.351515 60.6334661,157.034611 C60.6334661,155.716961 61.7838969,154.649402 63.2030296,154.649402 L66.2392014,154.649402 C67.6583342,154.649402 68.8087649,155.716961 68.8087649,157.034611 C68.8087649,158.351515 67.6583342,159.418327 66.2392014,159.418327" id="Fill-49" fill="#EFACB0"></path>
                            <path d="M66.2392014,168.2749 L63.2030296,168.2749 C61.7838969,168.2749 60.6334661,167.207342 60.6334661,165.891185 C60.6334661,164.573534 61.7838969,163.505976 63.2030296,163.505976 L66.2392014,163.505976 C67.6583342,163.505976 68.8087649,164.573534 68.8087649,165.891185 C68.8087649,167.207342 67.6583342,168.2749 66.2392014,168.2749" id="Fill-50" fill="#EFACB0"></path>
                            <path d="M66.2392014,177.131474 L63.2030296,177.131474 C61.7838969,177.131474 60.6334661,176.063916 60.6334661,174.747758 C60.6334661,173.430108 61.7838969,172.36255 63.2030296,172.36255 L66.2392014,172.36255 C67.6583342,172.36255 68.8087649,173.430108 68.8087649,174.747758 C68.8087649,176.063916 67.6583342,177.131474 66.2392014,177.131474" id="Fill-51" fill="#EFACB0"></path>
                            <path d="M221.62671,207.10757 L130.592413,207.10757 C126.194273,207.10757 122.629482,203.543246 122.629482,199.146648 L122.629482,44.0677097 C122.629482,39.6711117 126.194273,36.1075697 130.592413,36.1075697 L221.62671,36.1075697 C226.02485,36.1075697 229.589641,39.6711117 229.589641,44.0677097 L229.589641,199.146648 C229.589641,203.543246 226.02485,207.10757 221.62671,207.10757" id="Fill-52" fill="#716FA5"></path>
                            <path d="M216.012599,207.10757 L121.898969,207.10757 C117.411443,207.10757 113.772908,203.473695 113.772908,198.991915 L113.772908,44.223224 C113.772908,39.7414448 117.411443,36.1075697 121.898969,36.1075697 L216.012599,36.1075697 C220.500908,36.1075697 224.139442,39.7414448 224.139442,44.223224 L224.139442,198.991915 C224.139442,203.473695 220.500908,207.10757 216.012599,207.10757" id="Fill-53" fill="#817DAF"></path>
                            <path d="M210.353868,198.932271 L127.558482,198.932271 C124.459838,198.932271 121.948207,196.414144 121.948207,193.308271 L121.948207,49.9068684 C121.948207,46.8009954 124.459838,44.2828685 127.558482,44.2828685 L210.353868,44.2828685 C213.452512,44.2828685 215.964143,46.8009954 215.964143,49.9068684 L215.964143,193.308271 C215.964143,196.414144 213.452512,198.932271 210.353868,198.932271" id="Fill-54" fill="#9D9AC0"></path>
                            <path d="M184.402303,50.4143426 L152.827991,50.4143426 C150.071429,50.4143426 147.836653,48.2131823 147.836653,45.4988538 L147.836653,42.2390438 L189.394422,42.2390438 L189.394422,45.4988538 C189.394422,48.2131823 187.159647,50.4143426 184.402303,50.4143426" id="Fill-55" fill="#817DAF"></path>
                            <path d="M91.6314741,206.754115 C86.3707148,206.754115 82.1058641,202.490126 82.1058641,197.229472 C82.1058641,191.968041 86.3707148,187.704053 91.6314741,187.704053 C96.8922334,187.704053 101.157084,191.968041 101.157084,197.229472 C101.157084,202.490126 96.8922334,206.754115 91.6314741,206.754115 Z M111.047809,201.425877 L111.047809,193.03229 L107.413752,193.03229 C107.037762,191.61614 106.47533,190.276895 105.755976,189.04019 L108.328093,186.467348 L102.393813,180.532411 L99.8216964,183.105253 C98.5834137,182.385914 97.2441419,181.823493 95.8279629,181.44751 L95.8279629,177.812749 L87.4349854,177.812749 L87.4349854,181.44751 C86.0188063,181.823493 84.6795345,182.385914 83.4420286,183.105253 L80.8691351,180.532411 L74.9340788,186.467348 L77.5069724,189.04019 C76.7876187,190.276895 76.2251866,191.61614 75.8491962,193.03229 L72.2151394,193.03229 L72.2151394,201.425877 L75.8491962,201.425877 C76.2251866,202.842028 76.7876187,204.181273 77.5069724,205.418754 L74.9340788,207.990819 L80.8691351,213.925756 L83.4420286,211.352914 C84.6795345,212.072254 86.0188063,212.635451 87.4349854,213.010657 L87.4349854,216.645418 L95.8279629,216.645418 L95.8279629,213.010657 C97.2441419,212.635451 98.5834137,212.072254 99.8216964,211.352914 L102.393813,213.925756 L108.328093,207.990819 L105.755976,205.418754 C106.47533,204.181273 107.037762,202.842028 107.413752,201.425877 L111.047809,201.425877 Z" id="Fill-56" fill="#817DAF"></path>
                            <path d="M65.061753,209.184109 C61.0932389,209.184109 57.8756523,205.966522 57.8756523,201.998008 C57.8756523,198.029494 61.0932389,194.811907 65.061753,194.811907 C69.0302671,194.811907 72.2478537,198.029494 72.2478537,201.998008 C72.2478537,205.966522 69.0302671,209.184109 65.061753,209.184109 Z M79.7091633,205.163698 L79.7091633,198.831532 L76.9672952,198.831532 C76.6842231,197.763721 76.2596149,196.75331 75.7170599,195.819172 L77.6576767,193.879342 L73.1804191,189.401298 L71.2398023,191.342701 C70.3064506,190.800146 69.2960403,190.375538 68.227443,190.091679 L68.227443,187.350598 L61.8960629,187.350598 L61.8960629,190.091679 C60.8274656,190.375538 59.8170554,190.800146 58.8837036,191.342701 L56.9430869,189.401298 L52.4658293,193.879342 L54.406446,195.819172 C53.8638911,196.75331 53.4392829,197.763721 53.1562108,198.831532 L50.4143426,198.831532 L50.4143426,205.163698 L53.1562108,205.163698 C53.4392829,206.232295 53.8638911,207.242706 54.406446,208.176057 L52.4658293,210.116674 L56.9430869,214.593145 L58.8837036,212.653315 C59.8170554,213.19587 60.8274656,213.619692 61.8960629,213.90355 L61.8960629,216.645418 L68.227443,216.645418 L68.227443,213.90355 C69.2960403,213.619692 70.3064506,213.19587 71.2398023,212.653315 L73.1804191,214.593145 L77.6576767,210.116674 L75.7170599,208.176057 C76.2596149,207.242706 76.6842231,206.232295 76.9672952,205.163698 L79.7091633,205.163698 Z" id="Fill-57" fill="#95CDB1"></path>
                            <path d="M309.35525,224.820717 L115.760288,224.820717 C115.039462,224.820717 114.454183,224.210962 114.454183,223.458167 C114.454183,222.705373 115.039462,222.095618 115.760288,222.095618 L309.35525,222.095618 C310.076859,222.095618 310.661355,222.705373 310.661355,223.458167 C310.661355,224.210962 310.076859,224.820717 309.35525,224.820717" id="Fill-58" fill="#C7E4E3"></path>
                            <path d="M208.482471,164.868526 L129.430662,164.868526 C127.556129,164.868526 126.035857,166.401345 126.035857,168.292322 L126.035857,185.969838 C126.035857,187.860814 127.556129,189.394422 129.430662,189.394422 L208.482471,189.394422 C210.357004,189.394422 211.876494,187.860814 211.876494,185.969838 L211.876494,168.292322 C211.876494,166.401345 210.357004,164.868526 208.482471,164.868526 M208.482471,165.520152 C209.997269,165.520152 211.229753,166.763447 211.229753,168.292322 L211.229753,185.969838 C211.229753,187.497923 209.997269,188.742008 208.482471,188.742008 L129.430662,188.742008 C127.915864,188.742008 126.682598,187.497923 126.682598,185.969838 L126.682598,168.292322 C126.682598,166.763447 127.915864,165.520152 129.430662,165.520152 L208.482471,165.520152" id="Fill-59" fill="#FFFFFE"></path>
                            <polygon id="Fill-60" fill="#C7E4E3" points="181.900398 215.964143 235.721116 215.964143 235.721116 181.900398 181.900398 181.900398"></polygon>
                            <polyline id="Fill-61" fill="#B3D4D2" points="208.810757 198.932271 181.900398 215.964143 235.721116 215.964143 208.810757 198.932271"></polyline>
                            <polyline id="Fill-62" fill="#A2C2C0" points="235.721116 181.900398 181.900398 181.900398 208.810757 206.426295 235.721116 181.900398"></polyline>
                            <path d="M200.59663,161.177211 C199.693342,160.20277 200.999926,158.730212 202.119406,159.577011 C213.947847,168.529102 224.406811,171.33023 232.081225,158.452357 C232.65433,157.458458 233.894092,155.193584 234.195974,154.090722 C234.759645,152.035991 236.89955,150.821053 238.974991,151.378321 C241.231247,151.983844 242.448996,154.409828 241.560644,156.563405 C236.954581,167.728224 221.071169,183.249228 200.59663,161.177211" id="Fill-63" fill="#EA8F84"></path>
                            <g id="Group-66" transform="translate(103.553785, 83.115538)">
                                <mask id="mask-2" fill="white">
                                    <use xlink:href="#path-1"></use>
                                </mask>
                                <g id="Clip-65"></g>
                                <polygon id="Fill-64" fill="#B9D6CD" mask="url(#mask-2)" points="0.578499715 24.8613604 10.5040911 24.8613604 10.5040911 0.371805777 0.578499715 0.371805777"></polygon>
                            </g>
                            <path d="M112.244217,108.322709 L98.4019097,108.322709 L98.4691391,108.234353 L97.5132449,107.472282 L96.8625877,108.322709 L90.5569311,108.322709 C88.7046445,108.322709 87.2031873,106.789101 87.2031873,104.898124 L87.2031873,87.2206086 C87.2031873,85.329632 88.7046445,83.7968127 90.5569311,83.7968127 L103.491255,83.7968127 C103.726171,84.0405807 103.96727,84.2780375 104.215323,84.5099721 C109.185664,89.1612856 112.410359,96.6368362 112.410359,105.071681 C112.410359,106.168242 112.353948,107.25297 112.244217,108.322709" id="Fill-67" fill="#C5B9CC"></path>
                            <polyline id="Fill-68" fill="#A791B8" points="98.7278419 107.641434 97.4223108 107.641434 97.9741467 106.960159 98.7848606 107.570652 98.7278419 107.641434"></polyline>
                            <polygon id="Fill-69" fill="#6D6BA1" points="113.772908 108.322709 121.948207 108.322709 121.948207 83.7968127 113.772908 83.7968127"></polygon>
                            <path d="M169.664695,108.322709 L121.948207,108.322709 L121.948207,83.7968127 L169.664695,83.7968127 C171.530572,83.7968127 173.043825,85.329632 173.043825,87.2206086 L173.043825,104.898124 C173.043825,106.789101 171.530572,108.322709 169.664695,108.322709" id="Fill-70" fill="#8582B1"></path>
                            <path d="M169.649019,106.960159 L90.5972106,106.960159 C88.7226774,106.960159 87.2031873,105.426551 87.2031873,103.535575 L87.2031873,85.8588477 C87.2031873,83.9678711 88.7226774,82.4342629 90.5972106,82.4342629 L169.649019,82.4342629 C171.523552,82.4342629 173.043825,83.9678711 173.043825,85.8588477 L173.043825,103.535575 C173.043825,105.426551 171.523552,106.960159 169.649019,106.960159" id="Fill-71" fill="#FFFFFE"></path>
                            <path d="M208.482471,59.9521912 L129.430662,59.9521912 C127.556129,59.9521912 126.035857,61.4857993 126.035857,63.376776 L126.035857,81.0542918 C126.035857,82.9452684 127.556129,84.4780876 129.430662,84.4780876 L208.482471,84.4780876 C210.357004,84.4780876 211.876494,82.9452684 211.876494,81.0542918 L211.876494,63.376776 C211.876494,61.4857993 210.357004,59.9521912 208.482471,59.9521912 Z M208.482471,60.6053947 C209.997269,60.6053947 211.229753,61.8486902 211.229753,63.376776 L211.229753,81.0542918 C211.229753,82.5823776 209.997269,83.826462 208.482471,83.826462 L129.430662,83.826462 C127.915864,83.826462 126.682598,82.5823776 126.682598,81.0542918 L126.682598,63.376776 C126.682598,61.8486902 127.915864,60.6053947 129.430662,60.6053947 L208.482471,60.6053947 Z" id="Fill-72" fill="#FFFFFE"></path>
                            <path d="M208.482471,94.6972112 L129.430662,94.6972112 C127.556129,94.6972112 126.035857,96.2300304 126.035857,98.1217959 L126.035857,115.798523 C126.035857,117.689499 127.556129,119.223108 129.430662,119.223108 L208.482471,119.223108 C210.357004,119.223108 211.876494,117.689499 211.876494,115.798523 L211.876494,98.1217959 C211.876494,96.2300304 210.357004,94.6972112 208.482471,94.6972112 Z M208.482471,95.3496257 C209.997269,95.3496257 211.229753,96.5929212 211.229753,98.1217959 L211.229753,115.798523 C211.229753,117.326609 209.997269,118.570693 208.482471,118.570693 L129.430662,118.570693 C127.915864,118.570693 126.682598,117.326609 126.682598,115.798523 L126.682598,98.1217959 C126.682598,96.5929212 127.915864,95.3496257 129.430662,95.3496257 L208.482471,95.3496257 Z" id="Fill-73" fill="#FFFFFE"></path>
                            <path d="M208.482471,130.123506 L129.430662,130.123506 C127.556129,130.123506 126.035857,131.655635 126.035857,133.546733 L126.035857,151.226175 C126.035857,153.116485 127.556129,154.649402 129.430662,154.649402 L208.482471,154.649402 C210.357004,154.649402 211.876494,153.116485 211.876494,151.226175 L211.876494,133.546733 C211.876494,131.655635 210.357004,130.123506 208.482471,130.123506 Z M208.482471,130.775174 C209.997269,130.775174 211.229753,132.018549 211.229753,133.546733 L211.229753,151.226175 C211.229753,152.754359 209.997269,153.997735 208.482471,153.997735 L129.430662,153.997735 C127.915864,153.997735 126.682598,152.754359 126.682598,151.226175 L126.682598,133.546733 C126.682598,132.018549 127.915864,130.775174 129.430662,130.775174 L208.482471,130.775174 Z" id="Fill-74" fill="#FFFFFE"></path>
                            <path d="M105.552418,101.50996 L94.7424029,101.50996 C93.9649456,101.50996 93.3346614,100.905065 93.3346614,100.158925 L93.3346614,87.8729476 C93.3346614,87.1268077 93.9649456,86.5219124 94.7424029,86.5219124 L105.552418,86.5219124 C106.329875,86.5219124 106.960159,87.1268077 106.960159,87.8729476 L106.960159,100.158925 C106.960159,100.905065 106.329875,101.50996 105.552418,101.50996" id="Fill-75" fill="#74C2E1"></path>
                            <polygon id="Fill-76" fill="#74C2E1" points="112.410359 88.5657371 147.155378 88.5657371 147.155378 86.5219124 112.410359 86.5219124"></polygon>
                            <polygon id="Fill-77" fill="#74C2E1" points="112.410359 95.3784861 166.231076 95.3784861 166.231076 93.3346614 112.410359 93.3346614"></polygon>
                            <polygon id="Fill-78" fill="#74C2E1" points="112.410359 101.50996 166.231076 101.50996 166.231076 99.4661355 112.410359 99.4661355"></polygon>
                            <path d="M181.546596,185.988048 L140.32458,185.988048 C138.453194,185.988048 136.936255,184.461506 136.936255,182.579242 L136.936255,164.983959 C136.936255,164.944696 136.936255,164.907004 136.937816,164.868526 L204.74491,164.868526 C206.962936,166.789268 209.116162,168.265553 211.195219,169.357848 L211.195219,181.420986 L181.546596,181.420986 L181.546596,185.988048" id="Fill-79" fill="#8582B1"></path>
                            <path d="M222.776892,181.900398 L215.964143,181.900398 L215.964143,171.681275 C217.684152,172.167078 219.342289,172.389181 220.930049,172.389181 C221.556491,172.389181 222.172105,172.355434 222.776892,172.288725 L222.776892,181.900398" id="Fill-80" fill="#6D6BA1"></path>
                            <path d="M215.964143,181.900398 L212.035004,181.900398 L212.035004,170.21726 C213.378152,170.871579 214.686821,171.366421 215.964143,171.721332 L215.964143,181.900398 M204.177509,164.776334 L136.936255,164.776334 C137.281837,163.268353 138.635173,162.143426 140.251809,162.143426 L201.458301,162.143426 C202.375152,163.09637 203.280249,163.97114 204.177509,164.776334" id="Fill-81" fill="#8582B1"></path>
                            <path d="M211.876494,181.900398 L211.230518,181.900398 L211.230518,169.955928 C211.446885,170.067893 211.662471,170.17597 211.876494,170.280159 L211.876494,181.900398 M204.777008,165.510769 L136.936255,165.510769 C136.943285,165.290727 136.972186,165.076127 137.019833,164.868526 L204.044329,164.868526 C204.289596,165.08779 204.534083,165.30239 204.777008,165.510769" id="Fill-82" fill="#D6D5D0"></path>
                            <polyline id="Fill-83" fill="#A6BDBC" points="186.874614 186.669323 181.900398 186.669323 181.900398 181.900398 222.776892 181.900398 181.900398 181.900398 186.874614 186.669323"></polyline>
                            <path d="M219.405083,186.669323 L186.874614,186.669323 L181.900398,181.900398 L222.776892,181.900398 L222.776892,183.109849 C222.776892,185.075308 221.266918,186.669323 219.405083,186.669323" id="Fill-84" fill="#86A2A2"></path>
                            <path d="M219.098673,167.593625 C218.075485,167.593625 217.029868,167.466082 215.964143,167.220998 L215.964143,162.143426 L219.419628,162.143426 C221.273432,162.143426 222.776892,163.763147 222.776892,165.762165 L222.776892,166.990086 C221.585879,167.399392 220.359291,167.593625 219.098673,167.593625" id="Fill-85" fill="#6D6BA1"></path>
                            <path d="M215.964143,166.912351 C212.733411,166.220226 209.31227,164.532978 205.74502,162.143426 L215.964143,162.143426 L215.964143,166.912351" id="Fill-86" fill="#8582B1"></path>
                            <path d="M220.930867,172.36255 C219.343811,172.36255 217.686407,172.142692 215.967161,171.661801 C214.707101,171.309096 213.41612,170.817329 212.091126,170.167077 C211.879312,170.062975 211.665952,169.954988 211.451819,169.843117 C209.393207,168.762472 207.261156,167.301932 205.064942,165.401675 C204.824526,165.19347 204.582563,164.979051 204.339828,164.759969 C203.454694,163.95978 202.56183,163.090447 201.657371,162.143426 L205.802425,162.143426 C209.35069,164.514474 212.753623,166.188658 215.967161,166.875423 C217.032413,167.103826 218.077567,167.22269 219.100302,167.22269 C220.360361,167.22269 221.586407,167.041676 222.776892,166.660226 L222.776892,172.263109 C222.172373,172.329144 221.557031,172.36255 220.930867,172.36255" id="Fill-87" fill="#C7796F"></path>
                            <path d="M219.382087,185.306773 L140.330278,185.306773 C138.455745,185.306773 136.936255,183.774693 136.936255,181.882867 L136.936255,164.204783 C136.936255,162.314534 138.455745,160.780876 140.330278,160.780876 L219.382087,160.780876 C221.25662,160.780876 222.776892,162.314534 222.776892,164.204783 L222.776892,181.882867 C222.776892,183.774693 221.25662,185.306773 219.382087,185.306773" id="Fill-88" fill="#FFFFFE"></path>
                            <path d="M154.604211,178.494024 L143.793396,178.494024 C143.016738,178.494024 142.386454,177.88916 142.386454,177.143058 L142.386454,164.856942 C142.386454,164.11084 143.016738,163.505976 143.793396,163.505976 L154.604211,163.505976 C155.381668,163.505976 156.011952,164.11084 156.011952,164.856942 L156.011952,177.143058 C156.011952,177.88916 155.381668,178.494024 154.604211,178.494024" id="Fill-89" fill="#95CDB1"></path>
                            <polygon id="Fill-90" fill="#95CDB1" points="171.681275 166.912351 206.426295 166.912351 206.426295 164.868526 171.681275 164.868526"></polygon>
                            <polygon id="Fill-91" fill="#95CDB1" points="162.143426 173.7251 215.964143 173.7251 215.964143 171.681275 162.143426 171.681275"></polygon>
                            <polygon id="Fill-92" fill="#95CDB1" points="162.143426 179.856574 215.964143 179.856574 215.964143 177.812749 162.143426 177.812749"></polygon>
                            <path d="M116.515273,185.58983 C116.651396,188.11259 118.213637,202.035353 119.301033,211.001526 C119.85027,215.538437 119.927829,218.806168 120.352815,218.686036 C121.448916,218.374787 124.870177,188.95975 124.664411,185.160789 C124.458645,181.362608 122.46746,178.379604 120.217484,178.497396 C117.966717,178.616747 116.309507,181.791649 116.515273,185.58983" id="Fill-93" fill="#EA8F84"></path>
                            <path d="M122.202166,212.179788 C121.815246,212.199393 119.567836,212.472292 119.152833,212.557769 C117.807195,203.502697 116.211931,188.337196 116.353125,185.674862 C116.368727,185.388632 116.393689,185.106323 116.428013,184.829503 C116.903862,181.029306 116.928824,177.182057 116.068396,173.450868 C114.113515,164.968257 112.59938,155.765757 112.435563,153.253204 C112.110269,148.264955 114.971603,144.016199 118.825979,143.762121 C122.680355,143.508827 125.855281,146.949079 126.470765,151.908313 C127.958377,163.879013 122.224008,211.981387 122.202166,212.179788" id="Fill-94" fill="#196997"></path>
                            <path d="M125.940205,173.708667 L125.959706,173.7251 C126.636811,164.449792 126.984724,156.01805 126.470655,151.890996 C125.855176,146.942288 122.680275,143.509336 118.825929,143.762093 C114.971583,144.015632 112.110272,148.25537 112.435563,153.233032 C112.475346,153.836362 112.593918,154.830955 112.777235,156.106476 C118.505319,158.356245 122.599927,163.632833 123.724794,169.8688 C123.9947,171.368907 124.771654,172.734419 125.940205,173.708667" id="Fill-95" fill="#24568C"></path>
                            <path d="M119.19336,211.876494 C119.19336,211.876494 119.422219,218.285006 118.893903,219.506043 C118.365587,220.727079 118.236805,222.107885 119.919503,222.095535 C121.569619,222.085501 125.530826,222.081642 126.101811,222.06389 C127.162322,222.030701 128.101034,221.909524 128.079312,221.211017 C128.058365,220.511738 123.158446,220.296397 122.222838,219.592488 C121.286454,218.887806 121.976135,212.217643 121.976135,212.217643 L119.19336,211.876494" id="Fill-96" fill="#EA8F84"></path>
                            <path d="M125.63064,220.466869 C124.697259,220.794561 123.703359,220.98289 122.672992,220.98289 C121.258567,220.98289 119.912418,220.640885 118.706703,220.051793 C118.363765,221.095887 118.461526,222.106082 119.918625,222.095536 C121.568918,222.085743 125.530552,222.081976 126.101598,222.06465 C127.162224,222.032257 128.101036,221.913987 128.079312,221.232237 C128.070001,220.902285 126.92015,220.683071 125.63064,220.466869" id="Fill-97" fill="#8F3A27"></path>
                            <path d="M125.371847,186.95251 C125.508761,189.474536 127.070211,203.398336 128.156815,212.364674 C128.707636,216.900888 128.784402,220.169459 129.209389,220.048546 C130.30549,219.73807 133.726751,190.321713 133.520985,186.523462 C133.315218,182.725211 131.324033,179.742152 129.074058,179.859946 C126.823291,179.978519 125.166081,183.154259 125.371847,186.95251" id="Fill-98" fill="#EA8F84"></path>
                            <path d="M130.377076,212.861843 C129.989392,212.880664 127.74207,213.15435 127.327864,213.239044 C125.982279,204.183879 124.387079,189.018223 124.528267,186.356646 C124.543868,186.070413 124.56883,185.787316 124.603932,185.511278 C125.078202,181.710257 125.103944,177.863753 124.24355,174.131742 C122.288746,165.649828 120.774671,156.44645 120.610861,153.933871 C120.28558,148.946355 123.1468,144.697556 127.001023,144.443475 C130.855246,144.189394 134.030046,147.629682 134.646285,152.588967 C136.133059,164.560574 130.399697,212.663441 130.377076,212.861843" id="Fill-99" fill="#1A86B5"></path>
                            <path d="M127.412838,212.557769 C127.412838,212.557769 127.650054,218.964614 127.102447,220.185333 C126.55484,221.406052 126.349789,222.848229 128.165496,222.774152 C129.874254,222.705477 133.188843,222.598992 133.779068,222.538805 C135.253023,222.38988 136.957761,222.440808 136.93605,221.741711 C136.913534,221.043386 131.522703,220.975482 130.552128,220.271756 C129.582358,219.567257 130.297222,212.898058 130.297222,212.898058 L127.412838,212.557769" id="Fill-100" fill="#EA8F84"></path>
                            <path d="M133.617804,220.956362 C132.654338,221.287083 131.628143,221.476615 130.564148,221.476615 C129.269341,221.476615 128.026808,221.208815 126.892042,220.733068 C126.538181,221.795826 126.610562,222.837099 128.164331,222.774178 C129.873316,222.705885 133.188346,222.599993 133.778649,222.540141 C135.2528,222.392045 136.957764,222.442689 136.93605,221.747484 C136.923986,221.362282 135.26245,221.169681 133.617804,220.956362" id="Fill-101" fill="#BC4D2C"></path>
                            <path d="M125.686952,111.729084 C124.543309,111.729084 123.308175,111.161298 121.605503,109.68367 C120.628561,108.834688 119.904382,107.355519 119.904382,106.355539 L119.904382,100.828685 L128.469688,100.828685 C128.469688,100.828685 129.112454,103.763141 128.488296,106.676026 C128.020759,108.860882 126.584809,111.729854 125.686952,111.729084" id="Fill-102" fill="#F1B4A7"></path>
                            <path d="M96.0633841,110.819168 C96.0160348,110.242646 96.4382975,109.737008 97.0064893,109.688964 C97.5164647,109.645646 97.9705524,109.986677 98.0916425,110.4742 L98.0955236,110.488377 C98.9384967,113.845909 99.8932452,117.165637 101.118894,120.282165 C103.625303,126.749924 105.817343,127.674564 106.661869,128.246361 C106.769763,128.277865 107.19125,128.410181 107.302249,128.401518 C109.735693,128.970164 113.984712,123.585353 114.724448,119.413443 C114.725224,119.192128 115.253829,117.737434 115.194836,117.910705 C115.823573,116.080326 117.795944,115.113943 119.599099,115.751898 C130.538343,119.621369 99.9374896,158.175105 96.0633841,110.819168" id="Fill-103" fill="#F1B4A7"></path>
                            <path d="M114.346488,150.212938 C117.552379,153.824039 136.062689,155.330677 136.062689,155.330677 C137.429382,153.774934 131.062865,136.011719 131.062865,136.011719 C131.062865,136.011719 134.129784,123.191649 133.9924,118.561834 C133.935223,116.65145 132.342203,115.135458 130.395004,115.135458 L118.648274,115.135458 C116.837664,115.135458 115.330411,116.491667 115.181909,118.263312 C114.873788,121.928193 119.752111,135.610312 119.752111,135.610312 C119.752111,135.610312 111.57419,147.09054 114.346488,150.212938" id="Fill-104" fill="#F1B4A7"></path>
                            <path d="M131.097188,136.011719 C131.097188,136.011719 134.131211,122.817523 133.998679,118.26565 C133.947402,116.518167 132.499812,115.135458 130.731149,115.135458 L129.000351,115.135458 C128.341639,116.645994 126.945325,117.812022 124.774335,117.812022 C122.606499,117.812022 121.210186,116.645994 120.549896,115.135458 L118.925597,115.135458 C120.691105,118.870488 120.056058,123.797267 117.01888,126.672585 C118.309483,131.178471 119.861206,135.610312 119.861206,135.610312 C119.861206,135.610312 111.284529,148.409336 112.5349,150.308029 C115.179218,154.322874 136.06396,155.330677 136.06396,155.330677 C137.421619,153.373528 131.097188,136.011719 131.097188,136.011719" id="Fill-105" fill="#E9844D"></path>
                            <polyline id="Fill-106" fill="#F1B4A7" points="122.629482 115.816733 128.079681 115.280315 126.355274 109.685259 122.829296 110.09443 122.629482 115.816733"></polyline>
                            <path d="M122.759224,110.130325 L126.193419,109.685259 L126.717131,111.584872 C125.948967,112.493239 124.961665,114.454183 123.711716,114.454183 C123.315372,114.454183 122.954627,114.336493 122.629482,114.121005 L122.759224,110.130325" id="Fill-107" fill="#EA8F84"></path>
                            <path d="M121.591159,98.1144484 L124.577643,97.9288494 C125.431611,97.8761582 126.24545,97.6048378 126.946122,97.1557827 C127.961414,96.5038271 129.305773,96.6155011 130.087507,97.5261941 C130.931845,98.5100258 131.358027,99.8721332 129.471109,101.276708 C128.533669,101.974277 127.055276,101.358498 126.121047,101.72419 L125.947685,101.723404 L123.297492,101.889342 C122.370486,101.947538 121.781376,102.745771 121.781376,103.655678 C121.781376,104.207756 121.387298,104.916335 121.387298,104.916335 L120.148883,103.418174 L118.98832,102.496471 C118.736303,102.296716 118.581401,102.003375 118.560533,101.686441 L118.548494,101.501629 C118.434525,99.7431577 119.796541,98.2269088 121.591159,98.1144484" id="Fill-108" fill="#924288"></path>
                            <path d="M154.254861,105.740275 C154.254861,105.740275 152.766664,108.344142 153.480735,109.025154 C154.195629,109.706165 154.81098,110.042514 155.928156,109.124169 C157.046155,108.206579 158.103276,106.457567 158.508026,105.292062 C158.913599,104.126557 158.695593,101.910436 158.501445,101.687463 C157.7956,100.874936 157.302825,103.056289 157.008312,104.102371 C156.712976,105.147697 156.267093,106.301864 155.75951,106.029762 C155.251928,105.756903 155.980807,103.793232 155.511066,103.304204 C155.042149,102.815176 154.254861,105.740275 154.254861,105.740275" id="Fill-109" fill="#F1B4A7"></path>
                            <path d="M96.6242824,106.150695 C96.6242824,106.150695 97.8916547,108.981364 97.2320887,109.69126 C96.5717833,110.401966 96.0098212,110.746379 95.0308242,109.732589 C94.0510877,108.717989 93.1482513,106.815209 92.8155107,105.555063 C92.4820305,104.295727 92.7378712,101.926166 92.9175511,101.691965 C93.5741594,100.840252 93.9579203,103.191985 94.1952754,104.320849 C94.431891,105.448903 94.8016028,106.698514 95.2652215,106.419742 C95.7288402,106.14178 95.1269493,104.016955 95.560991,103.505603 C95.9957722,102.994251 96.6242824,106.150695 96.6242824,106.150695" id="Fill-110" fill="#F1B4A7"></path>
                            <path d="M138.860675,126.084599 C141.942755,129.602399 144.296816,127.75225 146.977501,123.878108 C148.108489,121.947723 149.515731,120.326484 153.286478,109.712515 L153.2912,109.698355 C153.707549,108.527853 155.46424,108.940046 155.322571,110.168759 C151.617149,142.481855 134.067553,137.39788 128.831323,122.922355 C128.462197,121.850968 128.115109,120.795314 128.080479,119.141035 C128.038766,117.127268 129.638047,115.461191 131.65289,115.419499 C133.667733,115.377808 135.335487,116.976236 135.376414,118.990003 C135.405535,120.358735 136.735646,123.736515 138.860675,126.084599" id="Fill-111" fill="#F1B4A7"></path>
                            <path d="M134.026999,120.080429 C132.962314,119.269618 132.478437,117.949802 132.555045,116.642496 C132.716076,113.869162 131.05573,111.404671 128.925578,109.444494 C127.448152,108.085584 126.744615,106.08084 126.973655,104.087042 L127.269141,101.50996 L118.557796,101.50996 C118.557796,103.650752 117.566591,105.68599 115.837455,106.947165 C113.892567,108.365498 112.275997,110.408554 111.301208,112.921521 C108.924818,119.051473 111.237108,125.694339 116.455003,128.109571 C115.07998,133.907222 117.645543,139.752569 122.728985,141.724474 C128.34946,143.90436 134.90173,140.524286 137.364108,134.173844 C139.443449,128.810918 137.93319,123.053925 134.026999,120.080429" id="Fill-112" fill="#924288"></path>
                            <path d="M241.939472,212.104972 C240.306785,211.937817 239.316518,210.216591 239.977741,208.704308 C242.724478,202.416273 244.947879,195.45725 245.436745,192.826131 C246.431713,187.470854 243.05979,182.343444 237.906327,181.373627 C232.752865,180.4046 231.078655,184.10094 230.084471,189.456217 C229.309649,193.625638 227.23902,209.529046 228.787095,216.834994 C228.781611,216.916995 229.978706,222.776892 235.823946,222.776892 C239.771696,222.776892 273.823097,221.538209 273.872453,218.456086 C273.912409,216.026026 252.807341,213.216713 241.939472,212.104972" id="Fill-113" fill="#3C4946"></path>
                            <path d="M240.708876,205.74502 C242.942163,200.319879 244.660984,194.90874 245.084199,192.670694 C246.083239,187.387133 242.697516,182.328387 237.522962,181.371558 C232.348407,180.415508 230.667346,184.062347 229.669093,189.345909 C229.64392,189.478932 229.617174,189.625179 229.589641,189.78076 C238.685624,195.195011 239.831767,204.499587 240.708876,205.74502" id="Fill-114" fill="#373F3D"></path>
                            <path d="M302.376022,220.144556 C300.393722,218.772054 298.11302,217.900459 295.784543,217.338037 C295.673327,217.311673 295.555063,217.331646 295.459512,217.39396 C295.09532,217.634427 294.815715,217.861313 294.684136,217.97236 C294.626178,218.020293 294.559606,218.050651 294.487551,218.064233 C291.295195,218.630649 287.650145,218.267951 283.897795,217.614455 C283.538303,217.551342 283.279061,217.953985 283.481128,218.263158 L285.636517,221.560997 C285.711705,221.677636 285.839368,221.74714 285.975646,221.749537 C287.165339,221.763917 292.943848,221.840611 296.360201,222.004384 C299.095946,222.136202 301.473766,222.111436 303.4498,222.017167 C303.811642,222.00039 303.982381,221.55221 303.725489,221.290172 C303.319004,220.873947 302.873359,220.488081 302.376022,220.144556" id="Fill-115" fill="#F1B4A7"></path>
                            <path d="M301.330094,218.53043 L298.086455,216.823536 C296.670951,216.109458 294.610087,217.756409 294.310757,218.005924 C294.383484,218.003676 294.453149,217.994684 294.525877,217.994684 C297.395162,217.994684 299.999566,219.398114 301.646267,221.52761 C301.820047,221.753148 302.086459,221.89926 302.375837,221.911998 C305.330098,222.043125 307.468282,222.082838 308.620436,222.095576 C309.257375,222.102319 309.550581,221.29383 309.033834,220.929673 C307.313641,219.718063 302.447799,219.193556 301.330094,218.53043" id="Fill-116" fill="#3C4946"></path>
                            <path d="M257.446949,211.821212 C255.587073,211.645344 254.22663,210.011723 254.398359,208.165497 C255.08055,200.846251 254.956086,192.81806 254.492889,190.096402 C253.587765,184.771111 248.639912,181.159167 243.440767,182.029911 C238.24241,182.899872 237.936763,186.916703 238.842675,192.241994 C239.542984,196.359656 242.610479,212.387899 246.368831,219.046662 L246.432639,219.160781 C247.516582,221.045307 248.655667,222.146633 249.812083,221.952787 L249.819961,221.950442 C250.762896,222.321719 287.238838,221.86368 287.238838,221.86368 C287.238838,221.86368 287.342034,219.124044 287.498008,218.148561 C280.383844,215.101741 265.210218,212.552824 257.446949,211.821212" id="Fill-117" fill="#516263"></path>
                            <path d="M228.908372,160.489686 C229.82605,159.203646 233.393865,154.182311 233.970843,152.893863 L233.999044,152.829642 C234.045538,152.726887 234.096604,152.624935 234.152244,152.525391 C235.203305,150.634062 237.511219,149.99907 239.30694,151.106092 C241.102661,152.213113 241.705554,154.643905 240.654493,156.535234 C239.668218,158.309359 238.726151,159.752742 237.65451,161.269177 C236.930429,162.26943 236.16519,163.235967 235.377085,164.187251 C234.849649,163.537006 228.901513,160.499319 228.908372,160.489686" id="Fill-118" fill="#62C0C6"></path>
                            <path d="M246.189532,171.116476 C246.989018,171.275216 247.789283,171.434746 248.589549,171.593485 C251.398659,172.152628 254.013743,169.96976 254.015301,167.06822 C254.01608,162.27128 254.069068,157.907913 254.115042,154.991368 C254.147769,152.929331 252.556589,151.219523 250.524367,151.127123 L238.261684,150.565611 C236.371281,150.478738 234.732569,151.868697 234.492567,153.770415 C234.162175,156.380537 234.005551,160.337183 233.689964,164.661852 C233.520872,166.976609 235.060623,169.079712 237.306353,169.533028 C240.251828,170.12771 243.245615,170.532851 246.189532,171.116476" id="Fill-119" fill="#F1B4A7"></path>
                            <path d="M237.87169,150.565334 L239.857549,150.654703 C240.477305,152.288206 241.883793,153.592211 244.153901,153.694014 C246.427892,153.796594 247.946216,152.625476 248.708872,151.054919 L250.520765,151.136516 C252.373819,151.220445 253.824575,152.755255 253.794287,154.611014 C253.71507,159.446247 253.608671,168.766232 253.782637,177.204965 C253.940294,184.843265 256.51795,191.353966 255.002733,193.366704 C255.002733,193.366704 234.628457,194.5759 229.589641,189.164822 C230.572863,184.123653 231.161553,177.628495 232.022843,170.932062 C232.881026,164.267492 233.752412,157.467703 234.245576,153.612417 C234.477013,151.805615 236.053585,150.483736 237.87169,150.565334" id="Fill-120" fill="#37B4BD"></path>
                            <path d="M243.896414,147.783531 L244.147984,147.81203 C246.065784,148.032896 247.809163,146.743322 248.042284,144.932853 L248.665339,140.088046 L244.941267,139.661355 L243.896414,147.783531" id="Fill-121" fill="#1A4D79"></path>
                            <path d="M242.707816,152.570148 L247.302789,151.545041 L243.862602,145.111554 L239.808765,146.935329 L240.889476,151.384817 C241.094546,152.228446 241.896893,152.749992 242.707816,152.570148" id="Fill-122" fill="#F1B4A7"></path>
                            <path d="M239.808765,146.947364 L243.873546,145.111554 L245.258964,147.712627 C244.623329,149.120548 243.850872,150.681521 242.316904,151.149731 C241.829819,151.297846 241.283313,151.257526 240.811082,151.113525 L239.808765,146.947364" id="Fill-123" fill="#EA8F84"></path>
                            <path d="M240.578196,149.841372 C243.533811,150.193364 246.220661,148.129935 246.579013,145.233896 L247.302789,139.390981 L238.12396,138.298805 C238.12396,138.298805 237.558927,142.860067 237.846552,146.017983 C238.062663,148.38642 239.071705,149.66268 240.578196,149.841372" id="Fill-124" fill="#F1B4A7"></path>
                            <polyline id="Fill-125" fill="#1A4D79" points="245.364908 141.023904 247.302789 141.168041 247.195963 141.705179 245.258964 141.561583 245.364908 141.023904"></polyline>
                            <path d="M244.60326,143.603947 C244.465754,144.729461 244.896606,145.708103 245.564274,145.789529 C246.231941,145.869434 247.147883,144.482137 247.285389,143.356623 C247.422131,142.229587 246.72849,141.790492 246.060823,141.710587 C245.393155,141.62916 244.740766,142.476911 244.60326,143.603947" id="Fill-126" fill="#F1B4A7"></path>
                            <path d="M237.148622,140.230218 C237.027541,139.475865 237.076278,138.702981 237.290264,137.968703 C237.290264,137.968703 237.567456,135.3497 238.638146,134.97677 C239.614408,134.637041 241.11307,135.410697 242.087809,135.755059 C242.800587,136.007539 245.08894,136.124128 245.08894,136.124128 C246.892969,136.344952 248.178407,138.007309 247.959852,139.836441 L247.874562,140.546012 L246.231974,141.743557 L245.644085,143.067729 L245.52605,143.053059 C244.95339,142.983569 244.539126,142.472431 244.571871,141.897208 C244.625939,140.94751 244.07841,140.078885 243.146315,139.96384 L240.481774,139.636465 C238.859747,139.436488 237.91166,140.21632 237.764688,141.445522 L237.722805,142.496366 L237.148622,140.230218" id="Fill-127" fill="#1A4D79"></path>
                            <path d="M254.750292,156.413931 C252.419819,171.347061 237.168849,188.087119 210.871234,186.573737 C210.26396,186.538323 209.799574,186.01104 209.834519,185.395614 C209.864805,184.851804 210.276385,184.422107 210.788918,184.352852 C228.594012,181.928924 243.645405,173.069781 247.161694,155.306637 C247.669568,152.739476 249.764741,151.60385 251.721686,152.002067 C253.740757,152.412876 255.066354,154.370906 254.750292,156.413931" id="Fill-128" fill="#F1B4A7"></path>
                            <path d="M245.265524,161.876156 C247.066532,157.92581 247.668465,155.46658 247.684431,155.405378 C247.684431,155.405378 247.854473,154.845017 247.900776,154.654255 C248.278381,153.100346 249.126994,152.158463 249.126994,152.158463 C249.126994,152.158463 250.844178,150.312848 254.135648,151.862783 C256.764513,153.099552 256.078757,156.228035 256.078757,156.228035 C255.994135,156.663607 256.327832,160.005902 252.165396,166.231076 C252.165396,166.231076 245.012457,162.430159 245.265524,161.876156" id="Fill-129" fill="#62C0C6"></path>
                            <path d="M208.132663,182.872382 C208.132663,182.872382 211.290647,182.72844 211.652976,183.713103 C212.014542,184.697767 212.083194,185.427763 210.720837,186.028052 C209.358479,186.62755 207.212728,186.777029 205.909106,186.599077 C204.604722,186.422708 202.541353,185.16914 202.406338,184.882836 C201.912807,183.844392 204.24163,184.421745 205.382776,184.645568 C206.523922,184.8686 207.833646,185.003052 207.782538,184.402763 C207.729905,183.803265 205.513977,183.547015 205.236318,182.8795 C204.957134,182.213567 208.132663,182.872382 208.132663,182.872382" id="Fill-130" fill="#F1B4A7"></path>
                            <path d="M198.691793,162.214846 C198.691793,162.214846 201.998611,161.90885 202.232005,160.950308 C202.465399,159.991028 202.430109,159.308251 200.924677,158.944005 C199.419245,158.579759 197.165508,158.740499 195.834118,159.084837 C194.824348,159.346593 193.448846,160.241724 192.800797,160.779982 L196.183007,160.779982 C197.570539,160.780719 198.075825,160.387717 198.103896,160.851504 C198.137582,161.411883 195.868606,161.95604 195.676116,162.61006 C195.483626,163.264081 198.691793,162.214846 198.691793,162.214846" id="Fill-131" fill="#EA8F84"></path>
                        </g>
                    </g>
                </g>
            </g>
        </g>
    </g>
</svg>