<?xml version="1.0" encoding="UTF-8"?>
<svg width="32px" height="32px" viewBox="0 0 32 32" version="1.1" xmlns="http://www.w3.org/2000/svg" xmlns:xlink="http://www.w3.org/1999/xlink">
    <!-- Generator: sketchtool 52 (66869) - http://www.bohemiancoding.com/sketch -->
    <title>A524350A-D765-45A3-83BE-4B267CF668CD</title>
    <desc>Created with sketchtool.</desc>
    <g id="UI" stroke="none" stroke-width="1" fill="none" fill-rule="evenodd">
        <g id="Landing-Page" transform="translate(-736.000000, -2146.000000)">
            <g id="Group-14" transform="translate(-7.000000, 1764.000000)">
                <g id="Group-6-Copy-3" transform="translate(743.000000, 371.000000)">
                    <g id="ic_whyus_4" transform="translate(0.000000, 11.000000)">
                        <g id="Filled_Icons">
                            <g id="Group">
                                <path d="M26.6666667,2.66666667 C26.6666667,1.19466667 25.472,0 24,0 L2.66666667,0 C1.19466667,0 0,1.19466667 0,2.66666667 L0,5.336 L26.6666667,5.336 L26.6666667,2.66666667 Z M4,4 C3.26266667,4 2.66666667,3.404 2.66666667,2.66666667 C2.66666667,1.92933333 3.26266667,1.33333333 4,1.33333333 C4.73733333,1.33333333 5.33333333,1.92933333 5.33333333,2.66666667 C5.33333333,3.404 4.73733333,4 4,4 Z M8,4 C7.26266667,4 6.66666667,3.404 6.66666667,2.66666667 C6.66666667,1.92933333 7.26266667,1.33333333 8,1.33333333 C8.73733333,1.33333333 9.33333333,1.92933333 9.33333333,2.66666667 C9.33333333,3.404 8.73733333,4 8,4 Z" id="Shape" fill="#624FB5" fill-rule="nonzero"></path>
                                <path d="M24,13.3333333 C24.9213333,13.3333333 25.812,13.464 26.6666667,13.6826667 L26.6666667,6.66933333 L0,6.66933333 L0,21.3333333 C0,22.804 1.19466667,24 2.66666667,24 L13.3333333,24 C13.3333333,18.1093333 18.1093333,13.3333333 24,13.3333333 Z" id="Path" fill="#624FB5"></path>
                                <path d="M24,15.9986667 C19.588,15.9986667 16,19.5893333 16,23.9986667 C16,28.4106667 19.588,31.9986667 24,31.9986667 C28.4106667,31.9986667 32,28.4106667 32,23.9986667 C32,19.5893333 28.4106667,15.9986667 24,15.9986667 Z M25.3333333,29.332 L22.6666667,29.332 L22.6666667,23.9986667 L25.3333333,23.9986667 L25.3333333,29.332 Z M24,22.6666667 C23.2626667,22.6666667 22.6666667,22.0706667 22.6666667,21.3333333 C22.6666667,20.596 23.2626667,20 24,20 C24.7373333,20 25.3333333,20.596 25.3333333,21.3333333 C25.3333333,22.0706667 24.7373333,22.6666667 24,22.6666667 Z" id="Shape" fill="#58BB85" fill-rule="nonzero"></path>
                            </g>
                        </g>
                    </g>
                </g>
            </g>
        </g>
    </g>
</svg>